Data from reprise_USB2R001931_16-34-00-338.txt Node
Date: Tue Mar 05 16:34:00 CET 2019
User: etudiant
Spectrometer: USB2+R00193
Trigger mode: 4
Integration Time (sec): 3,000000E-3
Scans to average: 100
Electric dark correction enabled: true
Nonlinearity correction enabled: false
Boxcar width: 0
XAxis mode: Wavelengths
Number of Pixels in Spectrum: 2048
>>>>>Begin Spectral Data<<<<<
186,026	98,9
186,49	98,9
186,953	98,9
187,416	28,87
187,88	17,7
188,343	0,69
188,807	-5,94
189,27	-14,76
189,733	-14,46
190,196	-16,63
190,659	-17,52
191,123	-20,89
191,586	-18,95
192,049	-13
192,512	-2,33
192,975	0,62
193,438	4,78
193,9	9,56
194,363	12,88
194,826	24,63
195,289	31,37
195,752	40,64
196,214	43,12
196,677	50,99
197,139	64,84
197,602	95,46
198,065	92,74
198,527	102,52
198,989	102,2
199,452	109,76
199,914	114,44
200,377	123,94
200,839	125,13
201,301	131,13
201,763	134
202,225	136,37
202,688	137,23
203,15	146,34
203,612	145,59
204,074	154,98
204,536	146,11
204,998	154,6
205,46	154,41
205,921	154,79
206,383	146,18
206,845	156,05
207,307	153,92
207,768	156,38
208,23	151,72
208,692	150,97
209,153	157,27
209,615	150,79
210,076	156,99
210,538	159,21
210,999	154,81
211,46	146,57
211,922	157,04
212,383	153,85
212,844	153,13
213,306	153,76
213,767	150,69
214,228	152,64
214,689	153,29
215,15	155,65
215,611	153,74
216,072	150,81
216,533	143,65
216,994	142,52
217,455	149,26
217,915	150,32
218,376	146,67
218,837	147,88
219,298	148,42
219,758	149,9
220,219	141,26
220,68	145,85
221,14	141,99
221,601	141,24
222,061	144,63
222,521	146,71
222,982	148,73
223,442	141,7
223,902	150,53
224,363	148,82
224,823	148,68
225,283	145,68
225,743	148,47
226,203	147,09
226,663	144,77
227,123	150,44
227,583	145,1
228,043	143,11
228,503	151,65
228,963	144,93
229,423	146,92
229,882	151,39
230,342	146,25
230,802	146,62
231,261	149,24
231,721	145,87
232,181	145,61
232,64	144
233,1	149,55
233,559	147,09
234,018	149,59
234,478	151
234,937	149,66
235,396	148,89
235,856	151,25
236,315	151,25
236,774	146,39
237,233	150,11
237,692	153,64
238,151	141
238,61	153,64
239,069	144,96
239,528	149,29
239,987	145,71
240,446	145,73
240,905	151,28
241,363	152,12
241,822	153,36
242,281	149,17
242,739	148,4
243,198	143,48
243,656	150,04
244,115	151,21
244,573	145,57
245,032	145,43
245,49	154,02
245,949	147,56
246,407	146,81
246,865	150,2
247,323	149,29
247,781	150,25
248,24	158,84
248,698	146,41
249,156	150,25
249,614	152,38
250,072	142,8
250,53	156,15
250,987	143,09
251,445	151,93
251,903	146,06
252,361	150,44
252,819	146,62
253,276	151,39
253,734	147,84
254,192	139,79
254,649	149,9
255,107	151,91
255,564	151,82
256,022	160,62
256,479	149,22
256,936	149,62
257,394	151,72
257,851	150,88
258,308	149,57
258,765	153,01
259,222	152,56
259,679	149,17
260,137	151,35
260,594	149,05
261,051	151,54
261,507	153,48
261,964	150,13
262,421	147,93
262,878	143,88
263,335	147,02
263,792	155,12
264,248	157,32
264,705	149,69
265,161	153,97
265,618	153,15
266,075	157,53
266,531	147,88
266,987	151,93
267,444	148,66
267,9	155,09
268,357	155,37
268,813	147,16
269,269	146,78
269,725	153,36
270,181	149,31
270,637	150,55
271,094	155,72
271,55	156,22
272,006	161,44
272,461	154,37
272,917	155,91
273,373	154,37
273,829	150,86
274,285	153,22
274,741	156,94
275,196	157,67
275,652	153,31
276,107	155,61
276,563	150,79
277,019	151,96
277,474	152,99
277,929	150,15
278,385	153,41
278,84	154,41
279,296	158,04
279,751	154,18
280,206	156,33
280,661	150,93
281,116	153,24
281,571	154,84
282,027	147,44
282,482	154,74
282,937	154,53
283,391	154,84
283,846	149,69
284,301	161,39
284,756	153,34
285,211	152,03
285,665	154,02
286,12	153,36
286,575	149,43
287,029	150,93
287,484	158,46
287,938	154,86
288,393	153,2
288,847	157,62
289,302	160,78
289,756	160,87
290,21	153,99
290,665	156,64
291,119	158,39
291,573	155,56
292,027	153,01
292,481	159,38
292,935	161,3
293,389	154,76
293,843	156,01
294,297	153,5
294,751	160,1
295,205	155,4
295,659	156,78
296,112	158,98
296,566	156,31
297,02	155,58
297,473	155,79
297,927	158,3
298,381	154,76
298,834	159,14
299,288	158,72
299,741	156,33
300,194	153,95
300,648	157,2
301,101	156,52
301,554	155,56
302,007	146,81
302,46	157,06
302,914	156,45
303,367	163,89
303,82	157,6
304,273	155,79
304,726	161,81
305,179	155,56
305,631	161,22
306,084	155,89
306,537	155,19
306,99	151,51
307,442	156,12
307,895	158,86
308,348	154,55
308,8	155,23
309,253	153,62
309,705	155,98
310,158	161,11
310,61	161,83
311,062	157,78
311,515	154,74
311,967	166,05
312,419	161,81
312,871	156,57
313,323	157,74
313,775	149,73
314,228	157,53
314,68	154,25
315,131	152,78
315,583	164,27
316,035	166,84
316,487	154,48
316,939	162,28
317,391	155,91
317,842	155,19
318,294	162,14
318,746	162,14
319,197	163
319,649	156,4
320,1	158,18
320,552	159,49
321,003	154,62
321,454	162,86
321,906	161,08
322,357	154,34
322,808	159,12
323,259	154,58
323,71	163,12
324,162	165,72
324,613	167,43
325,064	159,09
325,515	159,75
325,965	165,81
326,416	163,99
326,867	164,06
327,318	164,01
327,769	166,77
328,219	159,75
328,67	159,17
329,121	165,6
329,571	165,02
330,022	166,61
330,472	156,75
330,923	167,47
331,373	162,47
331,824	163,68
332,274	159,19
332,724	165,91
333,174	166,54
333,625	165,23
334,075	163,99
334,525	160,34
334,975	171,27
335,425	162,51
335,875	161,62
336,325	162,84
336,775	163,31
337,224	160,08
337,674	160,55
338,124	161,3
338,574	170,28
339,023	167,1
339,473	165,74
339,922	160,9
340,372	167,29
340,821	166
341,271	171,34
341,72	168,74
342,17	177,28
342,619	165,34
343,068	163,96
343,517	170,77
343,967	169
344,416	175,03
344,865	179,08
345,314	178,92
345,763	181,14
346,212	178,87
346,661	184,23
347,11	182,27
347,559	190,58
348,007	189,76
348,456	200,59
348,905	199,16
349,353	205,39
349,802	206,7
350,251	212,46
350,699	223,46
351,148	220,98
351,596	237,22
352,044	251,97
352,493	264,82
352,941	266,22
353,389	273,08
353,837	280,33
354,286	286
354,734	282,18
355,182	295,03
355,63	304,44
356,078	299,74
356,526	310,46
356,974	325,55
357,422	374,78
357,869	404,57
358,317	428,54
358,765	434,41
359,213	443,31
359,66	461,42
360,108	494,12
360,555	522,42
361,003	563,98
361,45	583,39
361,898	617,54
362,345	645,62
362,792	676,17
363,24	721,67
363,687	799,91
364,134	858,4
364,581	901,54
365,028	934,56
365,475	940,72
365,922	949
366,369	954,74
366,816	985,82
367,263	1032,16
367,71	1092,43
368,157	1102,07
368,604	1081,17
369,05	1087,21
369,497	1091,7
369,944	1085,36
370,39	1042,81
370,837	1001,57
371,283	945,4
371,73	897,79
372,176	862,96
372,622	855,99
373,069	869,33
373,515	885,76
373,961	923,96
374,407	937,49
374,853	945,47
375,299	1012,13
375,745	1067,93
376,191	1117,17
376,637	1137,79
377,083	1102,1
377,529	1079,67
377,975	1104,13
378,421	1181,89
378,866	1260,04
379,312	1289,36
379,758	1246,72
380,203	1183,41
380,649	1114,31
381,094	1107,08
381,54	1119,3
381,985	1258,16
382,431	1469,09
382,876	1666,99
383,321	1781,16
383,766	1842,9
384,212	1935,54
384,657	2050,69
385,102	2149,63
385,547	2209,12
385,992	2321,73
386,437	2380,08
386,882	2553,39
387,327	2833,93
387,771	3111,17
388,216	3323,03
388,661	3574,59
389,106	3767,76
389,55	3966,23
389,995	3907,07
390,439	3512,83
390,884	3022,46
391,328	2564,6
391,773	2504,76
392,217	2957,77
392,661	3656
393,106	4290,35
393,55	4667,69
393,994	4458,33
394,438	3851,52
394,882	3395,24
395,326	3526,56
395,77	4329,37
396,214	5305,02
396,658	6111,08
397,102	6695,91
397,546	7045,54
397,99	7325,46
398,433	7494,92
398,877	7651,29
399,321	7846,33
399,764	8206,42
400,208	8275,84
400,651	8364,9
401,095	8429,45
401,538	8218,75
401,982	8274,88
402,425	8203,82
402,868	8304,39
403,311	8264,77
403,755	8175,1
404,198	8083,96
404,641	8039,09
405,084	8087,36
405,527	8153,34
405,97	8305
406,413	8562,91
406,856	8817,88
407,298	8904,13
407,741	8502,47
408,184	8101,52
408,627	8157,06
409,069	8496,97
409,512	8965,15
409,954	9058,72
410,397	9225,49
410,839	9032,28
411,282	9197,66
411,724	9108,58
412,166	9119,41
412,609	9206,08
413,051	9152,44
413,493	9171,87
413,935	9316,65
414,377	9461,91
414,819	9464,2
415,261	9149,91
415,703	9098,86
416,145	9018,28
416,587	9061,35
417,029	9203,39
417,471	9236,14
417,912	9277,68
418,354	9313,19
418,796	9465,53
419,237	9773,08
419,679	9931,53
420,12	9698,42
420,562	9486,88
421,003	9491,77
421,444	9481,78
421,886	9762,76
422,327	9686,69
422,768	9783,87
423,209	9803,46
423,65	9851,44
424,092	9849,85
424,533	9764,21
424,974	9711,59
425,414	9531,56
425,855	9738,35
426,296	9617,39
426,737	9592,13
427,178	9408,87
427,618	8986,85
428,059	8367,1
428,5	7821,96
428,94	7892,83
429,381	8711,67
429,821	9762,1
430,262	10547,09
430,702	10817,29
431,142	10839,5
431,583	10982,6
432,023	10639,08
432,463	10659,77
432,903	10937,64
433,343	11538,03
433,783	11900,95
434,223	12322,04
434,663	12549,75
435,103	12420,93
435,543	12315,95
435,983	11941,16
436,423	11512,03
436,862	11336,14
437,302	11939,88
437,742	12144,86
438,181	12500,15
438,621	12498,42
439,06	12984,67
439,5	13611,35
439,939	13644,68
440,379	14161,21
440,818	13998,35
441,257	14578,25
441,696	14549,36
442,136	14651,39
442,575	14973,4
443,014	14905,48
443,453	14816,11
443,892	14443,99
444,331	14592,52
444,77	15303,62
445,208	15955,11
445,647	16392,98
446,086	16636,63
446,525	16575,17
446,963	16951,17
447,402	16856,27
447,84	17207,6
448,279	17809,64
448,717	18351,05
449,156	18631,68
449,594	18614,8
450,032	18357,98
450,471	18242,92
450,909	17905,62
451,347	17824,76
451,785	17878,26
452,223	18369,59
452,661	18425,85
453,099	18758,3
453,537	19511,39
453,975	19410,96
454,413	19645,67
454,851	20259,71
455,289	20905,35
455,726	20839,3
456,164	20613,65
456,602	20729,69
457,039	20803,35
457,477	21409,36
457,914	21569,5
458,352	21780,61
458,789	22309,78
459,226	22737,03
459,664	22747,39
460,101	22999,75
460,538	23703,55
460,975	23339,06
461,412	23390,62
461,849	23106,06
462,286	23179,76
462,723	23064,21
463,16	22868,1
463,597	23001,04
464,034	22949,36
464,471	23232,42
464,907	22600,2
465,344	22875,63
465,781	23203,45
466,217	23619,24
466,654	23858,94
467,09	23899,55
467,527	24022,8
467,963	23877,9
468,399	23709,52
468,836	23865,45
469,272	24185,96
469,708	25142,18
470,144	25859,18
470,58	25939,21
471,016	25878,14
471,452	26179,21
471,888	26136,82
472,324	26884,83
472,76	27305,96
473,196	27437,15
473,632	27432,7
474,067	27276,71
474,503	27866,08
474,939	28290,79
475,374	28912,74
475,81	29340,1
476,245	29585,5
476,681	29761,39
477,116	29952,48
477,551	30064,94
477,987	30546,64
478,422	31016,91
478,857	31467,39
479,292	31612,74
479,727	32149,37
480,162	32573,57
480,597	32504,71
481,032	32600,68
481,467	32516,98
481,902	32283,72
482,337	32194,48
482,772	32569,66
483,206	32078,69
483,641	30327,06
484,076	28633,98
484,51	28136,31
484,945	29020,94
485,379	30143,09
485,814	31507,62
486,248	32466,28
486,682	32250,46
487,117	32546,14
487,551	33467,8
487,985	34677,29
488,419	34893,96
488,853	34750,97
489,287	34446,12
489,721	33886,03
490,155	33550,25
490,589	33781,24
491,023	34444,34
491,457	34695,29
491,89	35031,7
492,324	35316,45
492,758	36439,9
493,191	36116,51
493,625	36231,13
494,058	36319,6
494,492	36555,08
494,925	36745,39
495,359	37075,78
495,792	36565,19
496,225	36070,43
496,658	35913,54
497,092	36187,52
497,525	36716,55
497,958	36605,99
498,391	35872,65
498,824	35515,77
499,257	34920,52
499,69	35041,13
500,122	35084,24
500,555	36066
500,988	36661,5
501,421	36787,92
501,853	36362,34
502,286	36137,65
502,718	36398,48
503,151	37119,73
503,583	37991,4
504,016	38495,41
504,448	38781,66
504,88	38581,38
505,312	38042,19
505,745	37428,59
506,177	37519,78
506,609	37982,11
507,041	38892,55
507,473	38789,24
507,905	38752,47
508,337	38471,39
508,769	38980,18
509,2	39187,27
509,632	39595,46
510,064	39388,67
510,496	39346,94
510,927	38859,41
511,359	38726,37
511,79	38564,95
512,222	38364,67
512,653	38233,95
513,085	38775,41
513,516	39320,96
513,947	39004,73
514,378	37569,68
514,809	35255,19
515,241	34515,82
515,672	34730,24
516,103	35117,24
516,534	35657,3
516,965	36055,21
517,395	37262,77
517,826	38034,81
518,257	38550,69
518,688	38895,8
519,118	39389,26
519,549	39493,69
519,98	39718,29
520,41	39397,15
520,841	38909,61
521,271	38650,45
521,701	39434,41
522,132	40037,75
522,562	40383,38
522,992	40210,08
523,423	40427,1
523,853	39614,61
524,283	38187,07
524,713	36940,66
525,143	36011,7
525,573	36960,48
526,003	37961,18
526,432	39130,18
526,862	39879,79
527,292	40439,9
527,722	40112,44
528,151	39845,83
528,581	40032,2
529,01	40409,43
529,44	40954,4
529,869	40195,06
530,299	39272,33
530,728	38144,12
531,157	38092,81
531,587	38235,56
532,016	38822,97
532,445	38853,32
532,874	38699,69
533,303	39427,83
533,732	39760,37
534,161	39790,03
534,59	38885,34
535,019	38213,91
535,448	38314,48
535,876	38194,53
536,305	38943,5
536,734	38425,12
537,162	38125,58
537,591	37691,9
538,019	36914,49
538,448	36562,27
538,876	36580,59
539,305	36810,39
539,733	37008,14
540,161	37335,16
540,589	37188,83
541,018	37022,7
541,446	37285,3
541,874	37548,05
542,302	37580,28
542,73	37547,09
543,158	37390,96
543,585	37409,96
544,013	36905,25
544,441	36980,4
544,869	36687,81
545,296	36594,87
545,724	36177,76
546,152	35916,23
546,579	35959,41
547,006	36090,18
547,434	36279,06
547,861	36384,74
548,289	36174,65
548,716	35848,26
549,143	35351,69
549,57	35390,62
549,997	35678,36
550,424	35392,02
550,851	34936,55
551,278	34971,01
551,705	35126,16
552,132	34890,96
552,559	35038,83
552,986	34938,99
553,412	34774,89
553,839	34612,67
554,266	34192,71
554,692	34140,68
555,119	33670,58
555,545	33561,68
555,971	33292,33
556,398	33046,48
556,824	32172,57
557,25	31537,96
557,677	31388,3
558,103	31436,8
558,529	31808,17
558,955	32147,24
559,381	32171,44
559,807	31824,32
560,233	31613,16
560,659	31604,45
561,084	31599,51
561,51	31388,75
561,936	31067,23
562,361	31142,05
562,787	31211,66
563,213	30998,56
563,638	30883,92
564,064	30417,05
564,489	30342,74
564,914	30730,87
565,34	30551,56
565,765	30586,86
566,19	30282,63
566,615	30306,97
567,04	30134,06
567,465	30205,18
567,89	30219,06
568,315	30101,64
568,74	29364,25
569,165	29122,41
569,59	29309,81
570,014	29567,15
570,439	29432,55
570,864	29357,02
571,288	29554,21
571,713	28992,53
572,137	29216,19
572,562	28947,97
572,986	28388,93
573,411	27968,12
573,835	27518,65
574,259	27405,36
574,683	27441,1
575,107	27610,49
575,531	27273,92
575,955	26898,4
576,379	26655,83
576,803	26314,21
577,227	26276,59
577,651	26592,45
578,075	26768,01
578,499	26876,57
578,922	26917,15
579,346	26826,11
579,769	26833,08
580,193	26953,62
580,616	27272,77
581,04	26922,09
581,463	26805,25
581,886	26795,84
582,31	26801,86
582,733	26429,36
583,156	26176,86
583,579	25946,42
584,002	25516,83
584,425	25405,03
584,848	25677,44
585,271	25906,88
585,694	25676,25
586,117	25536,26
586,54	24653,48
586,962	23665,63
587,385	22843,4
587,807	23011,64
588,23	23088,81
588,652	24077,52
589,075	24210,86
589,497	24481,4
589,92	24515,34
590,342	24726,83
590,764	24375,05
591,186	24749,11
591,609	24591,57
592,031	24465,79
592,453	24452,45
592,875	24275,2
593,297	24144,69
593,718	24333,6
594,14	24728,87
594,562	24740,71
594,984	24528,1
595,405	24920,86
595,827	24971,54
596,249	24873,86
596,67	24778,82
597,092	24923,32
597,513	25420,68
597,934	25568,58
598,356	25374,41
598,777	25321,68
599,198	25615,25
599,619	25717,53
600,04	25600,62
600,461	25596,93
600,882	25831,61
601,303	26181,64
601,724	26563,52
602,145	26777,77
602,566	26897,56
602,987	27073,24
603,407	26772,91
603,828	26677,74
604,249	26634,39
604,669	26738,76
605,09	26508,57
605,51	26564,78
605,93	26118,59
606,351	26010,94
606,771	25747,24
607,191	25458,11
607,611	25275,27
608,031	25013,01
608,452	24801,4
608,872	24866,21
609,292	24711,22
609,711	24596,89
610,131	24205,2
610,551	23839,16
610,971	23569,06
611,391	23231
611,81	22851,62
612,23	22675,31
612,649	22771,57
613,069	22823,13
613,488	22710,41
613,908	22367,13
614,327	21936,24
614,746	21768,37
615,166	21823,94
615,585	21873,95
616,004	21899,37
616,423	21868,9
616,842	21707,49
617,261	21652,63
617,68	21718,28
618,099	21857,76
618,518	21942,23
618,936	21693,15
619,355	21400,11
619,774	21173,57
620,192	20920,96
620,611	20762,06
621,029	20538,4
621,448	20344,69
621,866	20130,98
622,285	19975,01
622,703	19816,62
623,121	19526,16
623,539	19498,99
623,957	19430,2
624,375	19456,65
624,793	19560,19
625,211	19407,64
625,629	18930,36
626,047	18416,96
626,465	18225,27
626,883	18379,65
627,301	18423,23
627,718	18255,81
628,136	18082,17
628,553	17764,23
628,971	17614,6
629,388	17625,55
629,806	17582,91
630,223	17425,16
630,64	17655,14
631,058	17740,97
631,475	17774,86
631,892	17713,44
632,309	17675,06
632,726	17693,62
633,143	17828,13
633,56	17707,19
633,977	17594,71
634,394	17481,45
634,81	17462,3
635,227	17379,24
635,644	17482,59
636,06	17412,78
636,477	17500,1
636,894	17190,71
637,31	17122,76
637,726	17197,8
638,143	16983,47
638,559	16724,38
638,975	16550,22
639,391	16455,47
639,808	16325,76
640,224	16440,96
640,64	16437,29
641,056	16516,87
641,472	16542
641,887	16252,2
642,303	16093,09
642,719	16095,69
643,135	15905,59
643,55	15683,45
643,966	15853,21
644,382	15741,26
644,797	15602,23
645,213	15719,26
645,628	15565,79
646,043	15283,68
646,459	15416,09
646,874	15162,44
647,289	14939,13
647,704	14644,6
648,119	14674,3
648,534	14659,77
648,949	14719,22
649,364	14866,86
649,779	14970,82
650,194	14757,32
650,608	14733,24
651,023	14887,85
651,438	15027,79
651,852	14904,8
652,267	14764,01
652,681	14658,34
653,096	14502,81
653,51	14188,45
653,925	13608,8
654,339	12830,24
654,753	12453,77
655,167	12672,21
655,581	13203,02
655,995	13808,54
656,409	14067,4
656,823	14377,1
657,237	14436,62
657,651	14275,19
658,065	14430,07
658,479	14701,38
658,892	14581,12
659,306	14518,87
659,72	14510,77
660,133	14643,69
660,547	14634,3
660,96	14663,96
661,373	14578,11
661,787	14539,23
662,2	14533,31
662,613	14586,32
663,026	14646,29
663,439	14695,9
663,852	14710,25
664,265	14628,08
664,678	14550,77
665,091	14368,63
665,504	14481,93
665,917	14526,64
666,33	14449,05
666,742	14603,06
667,155	14575,98
667,567	14621,27
667,98	14680,2
668,392	14841,39
668,805	14739,3
669,217	14614,92
669,629	14532,89
670,042	14591,61
670,454	14642,38
670,866	14754,91
671,278	14886,38
671,69	14725,96
672,102	14796,78
672,514	14939,6
672,926	15005,82
673,338	14950,58
673,749	14960,48
674,161	14903,11
674,573	14956,57
674,984	15102,99
675,396	15131,15
675,807	15310,11
676,219	15288,18
676,63	15175,74
677,041	15272,21
677,453	15436,15
677,864	15401,51
678,275	15324,08
678,686	15359,17
679,097	15559,35
679,508	15580,46
679,919	15674,72
680,33	15715,79
680,741	15593,52
681,152	15639,33
681,562	15791,32
681,973	15847,68
682,384	15750,88
682,794	15815,5
683,205	15963,54
683,615	15962,56
684,026	15873,85
684,436	15250,82
684,846	13943,05
685,256	12523,14
685,667	11799,45
686,077	12113,57
686,487	12601,76
686,897	12795,2
687,307	12835,13
687,717	13044,68
688,126	13289,66
688,536	13619,02
688,946	13890,29
689,356	14572,93
689,765	14937,57
690,175	15186,43
690,584	15423,3
690,994	15777,93
691,403	15909,54
691,813	15944,04
692,222	16085,25
692,631	16038,41
693,04	16116,07
693,45	16171,12
693,859	16147,51
694,268	16275,3
694,677	16367,21
695,086	16618,37
695,495	16815,49
695,903	16758,85
696,312	16865,04
696,721	16828,98
697,129	16781,81
697,538	16781,44
697,947	16859,19
698,355	16573,11
698,763	16500,86
699,172	16531,24
699,58	16407,96
699,988	16252,85
700,397	16295,17
700,805	16291,35
701,213	16246,77
701,621	16387,69
702,029	16558,11
702,437	16615,17
702,845	16946,56
703,253	16985,63
703,66	17072,7
704,068	17251,58
704,476	17062,56
704,883	16809,88
705,291	17038,57
705,698	16981,2
706,106	17161,82
706,513	16989,21
706,921	16768,92
707,328	16578,19
707,735	16613,76
708,142	16675,53
708,549	16885,57
708,956	16790,82
709,363	16769,99
709,77	16781,63
710,177	16892,24
710,584	16810,37
710,991	16695,52
711,398	16544,97
711,804	16559,49
712,211	16553,68
712,617	16444,29
713,024	16266,05
713,43	16380,13
713,837	16469,66
714,243	16240,1
714,649	16063,48
715,056	15570,09
715,462	15250,61
715,868	14662,06
716,274	14139,16
716,68	13761,61
717,086	13318,9
717,492	13134,46
717,898	13261,48
718,303	13163,53
718,709	13245,97
719,115	13625,3
719,52	14181,85
719,926	14667,26
720,332	14738,5
720,737	14726,85
721,142	14378,5
721,548	14215,98
721,953	14007,86
722,358	13738,6
722,763	13575,4
723,169	13316,35
723,574	13221,77
723,979	13357,75
724,384	13505,06
724,788	13453,27
725,193	13522,9
725,598	13352,88
726,003	13167,68
726,407	13258,3
726,812	13149,47
727,217	13221,72
727,621	13196,46
728,026	13209,48
728,43	13325,76
728,834	13268,13
729,239	13233,84
729,643	13167,37
730,047	13361,99
730,451	13574,13
730,855	13599,43
731,259	13705,39
731,663	13813,66
732,067	13821,22
732,471	13915,08
732,875	13783
733,278	13592,65
733,682	13336,19
734,086	13164,19
734,489	13152,49
734,893	13387,26
735,296	13364,42
735,7	13174,07
736,103	13123,02
736,506	13039,93
736,909	12917,66
737,313	12883,75
737,716	12653,32
738,119	12584,44
738,522	12582,92
738,925	12576,95
739,328	12524,38
739,73	12395,86
740,133	12205,53
740,536	12136,41
740,938	12143,53
741,341	12307,62
741,744	12417,07
742,146	12286,25
742,549	12275,77
742,951	12154,34
743,353	12108,65
743,756	12038,39
744,158	12058,4
744,56	11890,49
744,962	11970,21
745,364	12052,43
745,766	11931,54
746,168	11834,88
746,57	11804,88
746,972	11667,58
747,373	11510,32
747,775	11498,78
748,177	11599,26
748,578	11564,85
748,98	11537,38
749,381	11625,43
749,783	11555,98
750,184	11478,46
750,585	11442,77
750,987	11363,1
751,388	11329,56
751,789	11303,02
752,19	11330,21
752,591	11297,33
752,992	11185,99
753,393	10999,31
753,794	11000,11
754,195	10927,97
754,595	10894,2
754,996	10774,99
755,397	10656,21
755,797	10721,37
756,198	10527,5
756,598	10196,74
756,999	9831,1
757,399	8835,16
757,799	7201,16
758,199	5361,12
758,6	3778,24
759	2762,99
759,4	2478,31
759,8	2811,69
760,2	3275,8
760,6	3467,16
760,999	3340,09
761,399	3198,33
761,799	3204,2
762,199	3356,62
762,598	3670,46
762,998	4042,09
763,397	4487,92
763,797	4999,72
764,196	5399,48
764,595	5773,22
764,995	6212,09
765,394	6599,1
765,793	6915,85
766,192	7194,79
766,591	7355,26
766,99	7508,94
767,389	7536,72
767,788	7548,77
768,187	7621,54
768,585	7548,31
768,984	7595,82
769,383	7579,6
769,781	7514,13
770,18	7460,72
770,578	7494,36
770,977	7523,15
771,375	7547,37
771,773	7534,19
772,172	7524,97
772,57	7401,02
772,968	7301,01
773,366	7247,24
773,764	7255,22
774,162	7249,84
774,56	7204,11
774,958	7075,64
775,355	7003,94
775,753	7036,99
776,151	6937,12
776,548	6842,54
776,946	6820,8
777,343	6828,69
777,741	6809,87
778,138	6771,79
778,536	6604,77
778,933	6524,88
779,33	6458,97
779,727	6513,67
780,124	6441,7
780,521	6444,67
780,918	6444,95
781,315	6361,28
781,712	6365,94
782,109	6335,42
782,506	6260,38
782,902	6238,05
783,299	6216,05
783,695	6078,8
784,092	6121,07
784,488	6100,99
784,885	6079,34
785,281	6063,35
785,677	5923,13
786,074	5837,61
786,47	5841,03
786,866	5751,52
787,262	5645,43
787,658	5544,01
788,054	5554,17
788,45	5537,37
788,846	5527,79
789,241	5450,58
789,637	5416,64
790,033	5363,25
790,428	5347,27
790,824	5295,78
791,219	5275,81
791,615	5157,22
792,01	5148,3
792,405	5137,6
792,801	5109,12
793,196	5094,37
793,591	5163,21
793,986	5155,83
794,381	5128,05
794,776	5100,25
795,171	5085,27
795,566	5096,13
795,96	5117,05
796,355	5050,67
796,75	4964,61
797,144	4872,23
797,539	4867,18
797,933	4795,51
798,328	4754,97
798,722	4653,34
799,116	4653,27
799,511	4696,79
799,905	4710,62
800,299	4665,56
800,693	4649,32
801,087	4518,86
801,481	4507,72
801,875	4490
802,269	4497,91
802,663	4509,96
803,056	4488,88
803,45	4448,69
803,844	4455,12
804,237	4490,54
804,631	4489,37
805,024	4403,14
805,417	4383,04
805,811	4294,92
806,204	4323,68
806,597	4300,6
806,99	4254,21
807,384	4214,03
807,777	4167,64
808,17	4128,81
808,562	4125,37
808,955	4122,37
809,348	4103,01
809,741	4121,93
810,133	4111,77
810,526	4066,69
810,919	3992,87
811,311	3927,12
811,704	3835,7
812,096	3786,22
812,488	3671,02
812,881	3583,72
813,273	3516,92
813,665	3521,98
814,057	3488,67
814,449	3479,75
814,841	3395,12
815,233	3302,43
815,625	3228,52
816,017	3212,49
816,408	3207,34
816,8	3236,6
817,192	3204,79
817,583	3180,59
817,975	3149,13
818,366	3184,17
818,758	3228,94
819,149	3308,36
819,54	3356,99
819,931	3323,05
820,322	3216,51
820,714	3078,05
821,105	2950,42
821,496	2900,07
821,887	2912,85
822,277	2964,6
822,668	3008,25
823,059	3103,11
823,45	3126,08
823,84	3140,94
824,231	3129,38
824,621	3149,46
825,012	3132,72
825,402	3136,49
825,792	3069,81
826,183	3070
826,573	3011,55
826,963	2998,61
827,353	2949,48
827,743	2965,12
828,133	2934,01
828,523	2904,45
828,913	2914,84
829,303	2952,64
829,692	2987,94
830,082	2974,22
830,472	2888,91
830,861	2877,88
831,251	2840,48
831,64	2830,16
832,03	2868,85
832,419	2907,52
832,808	2887,79
833,197	2880,34
833,587	2924,41
833,976	2921,84
834,365	2924,58
834,754	2942,39
835,142	2922,61
835,531	2877,51
835,92	2876,95
836,309	2872,41
836,698	2881,3
837,086	2845,14
837,475	2855,28
837,863	2832,38
838,252	2827,31
838,64	2817,83
839,028	2817,12
839,417	2820,52
839,805	2797,81
840,193	2817,66
840,581	2783,3
840,969	2742,91
841,357	2713,11
841,745	2683,2
842,133	2650,29
842,52	2672,6
842,908	2648,58
843,296	2634,4
843,683	2626,53
844,071	2610,15
844,458	2629,55
844,846	2615,86
845,233	2623,94
845,62	2613,5
846,008	2617,36
846,395	2593,95
846,782	2589,72
847,169	2553,98
847,556	2497,85
847,943	2431,26
848,33	2360,32
848,717	2348,62
849,103	2382,88
849,49	2383,73
849,877	2397,44
850,263	2404,98
850,65	2431,47
851,036	2440,06
851,423	2390,47
851,809	2289,78
852,195	2164,4
852,582	2099,21
852,968	2100,22
853,354	2151,57
853,74	2200,79
854,126	2251,18
854,512	2274,33
854,898	2288,94
855,283	2300,94
855,669	2302,72
856,055	2294,16
856,44	2299,16
856,826	2289,54
857,211	2262,42
857,597	2219,42
857,982	2205,99
858,368	2224,13
858,753	2206,62
859,138	2196,34
859,523	2183,05
859,908	2187,94
860,293	2200,7
860,678	2163,93
861,063	2131,14
861,448	2126,2
861,833	2099,09
862,217	2089,78
862,602	2080,53
862,987	2108,22
863,371	2096,73
863,756	2050,11
864,14	1982,3
864,525	1914,4
864,909	1884,37
865,293	1911,03
865,677	1946,19
866,061	1967,39
866,445	1976,24
866,829	1983,26
867,213	1984,5
867,597	2004,91
867,981	1984,62
868,365	1981,32
868,748	1969,05
869,132	1941,04
869,516	1940,22
869,899	1927,16
870,283	1923,81
870,666	1901,79
871,049	1871,38
871,433	1860,36
871,816	1870,66
872,199	1853,62
872,582	1841,73
872,965	1813,13
873,348	1791,99
873,731	1772,61
874,114	1775,38
874,496	1761,87
874,879	1768,07
875,262	1757,33
875,644	1717,59
876,027	1714,59
876,409	1736,26
876,792	1750,12
877,174	1776,73
877,557	1761,14
877,939	1767,7
878,321	1748,08
878,703	1711,74
879,085	1690,48
879,467	1661,2
879,849	1675,08
880,231	1663,92
880,613	1633,3
880,994	1657,81
881,376	1659,43
881,758	1666
882,139	1639,72
882,521	1638,55
882,902	1629,91
883,284	1638,78
883,665	1632,6
884,046	1622,23
884,427	1601,68
884,809	1561,64
885,19	1526,6
885,571	1523,07
885,952	1555,74
886,332	1544,97
886,713	1576,5
887,094	1590,68
887,475	1583,01
887,855	1582,26
888,236	1585,72
888,617	1576,62
888,997	1584,08
889,377	1600,14
889,758	1608,19
890,138	1594,24
890,518	1591,13
890,898	1606,62
891,278	1607,77
891,659	1612,68
892,038	1649,38
892,418	1672,98
892,798	1670,99
893,178	1671,92
893,558	1644,91
893,937	1641,1
894,317	1637,71
894,697	1622,49
895,076	1607,54
895,455	1614,49
895,835	1636,07
896,214	1654,44
896,593	1632,06
896,973	1578,42
897,352	1514,29
897,731	1525,45
898,11	1534,86
898,489	1536,87
898,867	1515,58
899,246	1486,39
899,625	1483,46
900,004	1495,38
900,382	1482,34
900,761	1460,57
901,139	1468,51
901,518	1490,46
901,896	1514,22
902,274	1521,97
902,653	1531,8
903,031	1531,21
903,409	1494,86
903,787	1463,01
904,165	1423,52
904,543	1390,26
904,921	1359,74
905,299	1341,44
905,677	1276,98
906,054	1230,8
906,432	1211,59
906,809	1185,16
907,187	1164,24
907,564	1120,61
907,942	1109,82
908,319	1112,11
908,696	1102,33
909,074	1088,62
909,451	1081,76
909,828	1072,09
910,205	1052,92
910,582	1044,38
910,959	1046,95
911,335	1006,56
911,712	974,72
912,089	976,67
912,466	985,96
912,842	973,86
913,219	960,85
913,595	920,35
913,971	897,3
914,348	903,03
914,724	909,17
915,1	911,95
915,476	900,18
915,852	878,69
916,229	870,95
916,604	885,43
916,98	886,04
917,356	889,74
917,732	899,94
918,108	914,74
918,483	916,54
918,859	909,89
919,234	901,47
919,61	885,36
919,985	874,08
920,361	872,14
920,736	869,19
921,111	841,36
921,486	824,58
921,861	816,57
922,236	810,11
922,611	814,7
922,986	808,2
923,361	800,99
923,736	796,7
924,111	791,6
924,485	800,31
924,86	796,52
925,234	796,1
925,609	778
925,983	752,07
926,357	734,23
926,732	719,3
927,106	688,88
927,48	678,72
927,854	655,19
928,228	644,43
928,602	624,35
928,976	607,66
929,35	592,77
929,724	568,62
930,097	548,33
930,471	512,16
930,845	490,8
931,218	477,76
931,592	453,58
931,965	429,22
932,338	397,1
932,712	389,97
933,085	391,11
933,458	384,32
933,831	384,98
934,204	375,48
934,577	371,45
934,95	365,25
935,323	364,38
935,695	364,62
936,068	360,36
936,441	364,31
936,813	365,53
937,186	388,91
937,558	409,25
937,931	417,26
938,303	421,7
938,675	412,43
939,048	406,61
939,42	401,95
939,792	401,97
940,164	396,33
940,536	381,35
940,908	367,89
941,279	361,6
941,651	362,14
942,023	342,55
942,395	340,21
942,766	332,25
943,138	336,41
943,509	348,91
943,88	341,24
944,252	335,1
944,623	330,89
944,994	339,5
945,365	345,85
945,736	354,34
946,107	340,3
946,478	343,72
946,849	352,03
947,22	352,21
947,591	348,02
947,961	333
948,332	332,62
948,703	336,02
949,073	362,21
949,444	365,46
949,814	366,63
950,184	347,34
950,554	336,46
950,925	338,73
951,295	343,01
951,665	354,48
952,035	368,85
952,405	357,9
952,775	352,61
953,144	354,88
953,514	340,67
953,884	341,02
954,253	346,53
954,623	345,38
954,992	358,06
955,362	355,79
955,731	368,76
956,1	365,74
956,47	366,37
956,839	366,42
957,208	350,22
957,577	353,27
957,946	337,94
958,315	345,33
958,684	339,15
959,052	349,24
959,421	351,84
959,79	352,12
960,158	356,19
960,527	350,97
960,895	359,94
961,264	367,5
961,632	366,47
962	368,34
962,369	357,2
962,737	359,21
963,105	357,6
963,473	358,44
963,841	359,8
964,209	351,25
964,577	357,2
964,944	354,55
965,312	355,98
965,68	366,86
966,047	371,9
966,415	373,28
966,782	380,35
967,149	374,78
967,517	372,86
967,884	381,33
968,251	375,41
968,618	384,35
968,985	377,35
969,352	378,52
969,719	367,22
970,086	371,43
970,453	361,86
970,82	368,95
971,186	367,61
971,553	354,48
971,92	352,21
972,286	345,28
972,652	340,95
973,019	338,1
973,385	334,05
973,751	331,57
974,117	340,28
974,484	332,53
974,85	335,64
975,216	327,75
975,581	331,22
975,947	326,72
976,313	330,19
976,679	337,23
977,044	325,37
977,41	327,12
977,775	330,09
978,141	327,89
978,506	323,17
978,872	331,01
979,237	333,25
979,602	329,51
979,967	332,32
980,332	331,15
980,697	324,48
981,062	327,75
981,427	311,3
981,792	320,62
982,157	312,17
982,521	315,58
982,886	313,17
983,25	311,02
983,615	315,49
983,979	317,92
984,344	310,88
984,708	313,08
985,072	305,94
985,436	307,81
985,8	310,22
986,164	301,63
986,528	306,83
986,892	307,25
987,256	299,29
987,62	301,17
987,984	288,32
988,347	292,15
988,711	290,96
989,074	290,14
989,438	291,76
989,801	300,21
990,164	289,35
990,528	284,71
990,891	283,24
991,254	283,99
991,617	276,47
991,98	282,3
992,343	278,63
992,706	279,05
993,069	272,73
993,431	269,12
993,794	269,94
994,157	272,47
994,519	265,52
994,882	270,2
995,244	268,96
995,606	265,52
995,969	261,24
996,331	266,31
996,693	266,74
997,055	254,4
997,417	261,7
997,779	259,08
998,141	266,81
998,503	254,68
998,865	257,68
999,226	259,81
999,588	250,12
999,949	248,18
1000,311	245,32
1000,672	249,98
1001,034	246,37
1001,395	246,12
1001,756	244,71
1002,117	241,13
1002,479	239,47
1002,84	240,29
1003,201	237,41
1003,561	236,24
1003,922	238,28
1004,283	231,46
1004,644	233,76
1005,004	228,09
1005,365	227,65
1005,725	232,78
1006,086	229,92
1006,446	230,97
1006,807	229,55
1007,167	226,5
1007,527	223,46
1007,887	221,73
1008,247	220,56
1008,607	222,9
1008,967	218,92
1009,327	225,17
1009,687	217,63
1010,047	219,95
1010,406	216,13
1010,766	212,01
1011,125	213,07
1011,485	208,5
1011,844	203,64
1012,204	214,19
1012,563	209,21
1012,922	207,22
1013,281	200,69
1013,64	209,39
1013,999	203,94
1014,358	206,02
1014,717	201,25
1015,076	195,79
1015,435	200,36
1015,793	196,31
1016,152	197,06
1016,51	203,42
1016,869	196,96
1017,227	202,32
1017,586	199,68
1017,944	197,32
1018,302	194,6
1018,66	196,24
1019,018	197,29
1019,376	190,06
1019,734	186,36
1020,092	193,22
1020,45	187,7
1020,808	190,53
1021,166	191,3
1021,523	194,23
1021,881	191,02
1022,238	178,29
1022,596	181,49
1022,953	185,45
1023,31	187,35
1023,668	177,3
1024,025	173,82
1024,382	177,87
1024,739	181,66
1025,096	172,69
1025,453	177,7
1025,809	178,85
1026,166	179,74
1026,523	177,28
1026,88	178,57
1027,236	175,39
1027,593	171,5
1027,949	175,36
1028,305	176,27
1028,662	177,54
1029,018	178,54
1029,374	177,91
1029,73	175,13
1030,086	177,02
1030,442	177,89
1030,798	174,96
1031,154	177,96
1031,51	172,86
1031,865	169,39
1032,221	173,28
1032,577	172,51
1032,932	171,48
1033,288	168,64
1033,643	163,03
