262.237308 1.382581e+000
262.832072 -4.104168e-001
263.129437 -1.263379e+000
263.426783 -1.230838e+000
263.724111 8.089764e-001
264.021421 -7.197385e-001
264.318713 -5.482628e-001
264.615987 9.243198e-001
264.913243 -1.224863e+000
265.210481 -1.034981e+000
265.507701 1.666213e+000
265.804903 -2.817176e-001
266.102087 1.554462e+000
266.399253 6.231057e-002
266.696400 -1.249149e+000
266.993530 -2.951912e-001
267.290642 -1.063666e+000
267.587735 -2.406237e-001
267.884811 -1.028633e+000
268.181868 -3.573770e-002
268.478908 2.887075e-001
268.775929 1.185476e+000
269.072932 6.080148e-001
269.369917 1.898210e-001
269.666884 1.505685e+000
269.963833 6.221886e-001
270.260764 -4.526964e-001
270.557676 -7.588634e-001
270.854571 9.104517e-002
271.151447 1.450939e-001
271.448305 9.893911e-001
271.745145 2.388947e-001
272.041967 -3.460171e-001
272.338771 3.831962e-001
272.635556 6.832808e-002
272.932324 -6.413964e-002
273.229073 4.101705e-001
273.525804 -5.349277e-001
273.822517 6.680134e-001
274.119212 -2.938669e-001
274.415889 1.762998e+000
274.712547 2.955388e-001
275.009187 1.375987e+000
275.305809 3.932448e-001
275.602413 2.955212e-001
275.898998 8.854285e-002
276.195566 -6.965138e-001
276.492115 1.022119e+000
276.788646 1.144759e+000
277.085158 4.945288e-002
277.381653 2.325102e-001
277.678129 1.036887e-001
277.974587 -1.599477e-001
278.271027 7.772021e-001
278.567448 -1.076316e-001
278.863851 4.457513e-001
279.160236 8.490159e-001
279.456603 -4.721489e-002
279.752951 9.352322e-001
280.049281 4.547188e-001
280.345593 8.067062e-001
280.641887 7.066403e-001
280.938162 2.516902e-001
281.234419 1.175652e+000
281.530657 4.100871e-001
281.826878 -6.818285e-001
282.123080 9.325416e-001
282.419263 3.421268e-001
282.715429 3.150353e-001
283.011576 1.354255e+000
283.307704 -1.178774e-001
283.603815 1.655222e-001
283.899907 -7.733265e-001
284.195980 7.790331e-002
284.492035 -2.194989e-001
284.788072 2.529544e-001
285.084091 5.646183e-001
285.380091 2.682244e-001
285.676073 1.073772e+000
285.972036 2.066453e-001
286.267981 1.120107e+000
286.563908 7.962603e-001
286.859816 2.051474e-001
287.155706 1.622682e+000
287.451577 -5.095199e-001
287.747430 4.615450e-001
288.043265 4.010243e-001
288.339081 9.428554e-001
288.634879 2.901961e-001
288.930658 1.830148e-001
289.226419 6.282744e-002
289.522161 7.666533e-002
289.817885 9.328501e-001
290.113591 8.585950e-001
290.409278 -6.050204e-001
290.704946 -5.086476e-001
291.000596 -1.030050e+000
291.296228 2.321010e-001
291.591841 3.802599e-002
291.887436 1.104657e+000
292.183012 9.952027e-001
292.478569 7.299813e-001
292.774109 2.597713e-001
293.069629 6.549689e-001
293.365131 4.000400e-001
293.660615 3.409839e-001
293.956080 7.247646e-001
294.251527 1.627093e+000
294.546955 1.310894e-001
294.842364 5.671010e-001
295.137755 1.046245e-001
295.433127 1.342961e+000
295.728481 4.074005e-001
296.023817 4.054665e-001
296.319133 -1.328467e-001
296.614432 1.095571e+000
296.909711 2.737336e-001
297.204972 -5.054935e-001
297.500215 2.557263e+000
297.795438 1.290303e-001
298.090644 3.965895e-001
298.385830 6.465871e-001
298.680998 1.090894e+000
298.976148 7.261245e-002
299.271278 -2.140676e-001
299.566391 7.326543e-001
299.861484 1.995930e-001
300.156559 6.225029e-001
300.451615 3.576651e-001
300.746653 1.481944e+000
301.041672 5.455468e-002
301.336672 8.270696e-001
301.631654 7.762009e-001
301.926617 9.244761e-001
302.221561 3.655266e-001
302.516487 8.455651e-001
302.811394 1.038285e+000
303.106282 1.201745e+000
303.401152 1.454539e+000
303.696003 6.784426e-001
303.990835 1.860622e+000
304.285648 1.158375e+000
304.580443 7.402808e-001
304.875219 1.067922e+000
305.169976 1.743175e-001
305.464715 1.742836e+000
305.759435 1.306747e+000
306.054136 7.622396e-001
306.348818 2.039939e+000
306.643482 1.097401e+000
306.938127 1.874501e+000
307.232753 1.496132e+000
307.527361 2.508452e+000
307.821949 2.272752e+000
308.116519 1.393741e+000
308.411070 1.446408e+000
308.705602 2.093677e+000
309.000116 3.000409e+000
309.294610 4.428648e+000
309.589086 1.955332e+000
309.883543 3.288544e+000
310.177981 3.336680e+000
310.472401 3.944834e+000
310.766801 4.761121e+000
311.061183 5.454302e+000
311.355546 5.035934e+000
311.649890 4.856232e+000
311.944215 6.154022e+000
312.238522 5.549272e+000
312.532809 7.286006e+000
312.827078 7.744570e+000
313.121328 8.923691e+000
313.415559 8.669068e+000
313.709771 8.669060e+000
314.003964 1.012499e+001
314.298138 9.868013e+000
314.592294 1.197618e+001
314.886430 1.188069e+001
315.180548 1.199116e+001
315.474646 1.343164e+001
315.768726 1.299934e+001
316.062787 1.385633e+001
316.356829 1.586706e+001
316.650852 1.847400e+001
316.944856 2.058556e+001
317.238841 2.167713e+001
317.532807 2.202586e+001
317.826754 2.280664e+001
318.120682 2.412512e+001
318.414592 2.741953e+001
318.708482 3.264738e+001
319.002353 3.408160e+001
319.296205 3.288632e+001
319.590039 3.320221e+001
319.883853 3.626054e+001
320.177648 4.265742e+001
320.471425 4.939094e+001
320.765182 5.454776e+001
321.058920 5.643146e+001
321.352640 5.549621e+001
321.646340 5.743981e+001
321.940021 5.564971e+001
322.233683 5.186731e+001
322.527327 5.412378e+001
322.820951 5.821209e+001
323.114556 7.076867e+001
323.408142 8.550872e+001
323.701709 9.679596e+001
323.995256 1.038256e+002
324.288785 1.039820e+002
324.582295 9.885265e+001
324.875786 9.686161e+001
325.169257 1.027556e+002
325.462710 1.215759e+002
325.756143 1.463698e+002
326.049557 1.683097e+002
326.342952 1.856238e+002
326.636328 1.928654e+002
326.929685 1.904794e+002
327.223023 1.772930e+002
327.516341 1.690713e+002
327.809641 1.611410e+002
328.102921 1.639747e+002
328.396182 1.832660e+002
328.689424 2.143029e+002
328.982647 2.487497e+002
329.275851 2.802635e+002
329.569035 2.895199e+002
329.862200 2.823191e+002
330.155347 2.604072e+002
330.448473 2.343732e+002
330.741581 2.222707e+002
331.034670 2.256420e+002
331.327739 2.360860e+002
331.620789 2.588382e+002
331.913820 2.823000e+002
332.206832 2.980876e+002
332.499824 3.015668e+002
332.792797 3.041902e+002
333.085751 2.936952e+002
333.378686 2.811366e+002
333.671601 2.658379e+002
333.964497 2.726016e+002
334.257374 3.005478e+002
334.550232 3.219251e+002
334.843070 3.345170e+002
335.135889 3.464872e+002
335.428689 3.519555e+002
335.721470 3.379989e+002
336.014231 3.031343e+002
336.306973 2.921357e+002
336.599695 2.957047e+002
336.892399 2.827382e+002
337.185083 2.786200e+002
337.477747 3.016701e+002
337.770393 3.293724e+002
338.063019 3.424929e+002
338.355625 3.630917e+002
338.648212 3.810043e+002
338.940780 3.879998e+002
339.233329 3.815849e+002
339.525858 3.907730e+002
339.818368 4.104491e+002
340.110858 4.120789e+002
340.403329 4.019649e+002
340.695781 3.935039e+002
340.988213 3.958311e+002
341.280626 3.981234e+002
341.573020 4.055392e+002
341.865394 4.268280e+002
342.157748 4.394974e+002
342.450083 4.365945e+002
342.742399 4.410069e+002
343.034696 4.441420e+002
343.326972 4.266817e+002
343.619230 3.938395e+002
343.911468 3.563669e+002
344.203686 3.305641e+002
344.495886 3.480951e+002
344.788065 3.922428e+002
345.080225 4.272893e+002
345.372366 4.347455e+002
345.664487 4.301309e+002
345.956589 4.170329e+002
346.248671 4.217574e+002
346.540734 4.393842e+002
346.832777 4.471785e+002
347.124800 4.383691e+002
347.416805 4.180975e+002
347.708789 4.102120e+002
348.000754 4.283049e+002
348.292700 4.327369e+002
348.584626 4.373715e+002
348.876532 4.311594e+002
349.168419 4.245789e+002
349.460286 4.336630e+002
349.752134 4.643024e+002
350.043962 4.972559e+002
350.335771 5.191951e+002
350.627560 5.091778e+002
350.919329 4.865716e+002
351.211079 4.695562e+002
351.502809 4.654065e+002
351.794520 4.764269e+002
352.086211 4.636771e+002
352.377882 4.354100e+002
352.669534 4.412274e+002
352.961166 4.783719e+002
353.252779 5.097437e+002
353.544372 5.234089e+002
353.835945 5.384334e+002
354.127498 5.439439e+002
354.419032 5.468144e+002
354.710546 5.476061e+002
355.002041 5.373922e+002
355.293516 5.212322e+002
355.584971 5.090513e+002
355.876407 5.034944e+002
356.167822 4.951402e+002
356.459218 4.599724e+002
356.750595 4.196058e+002
357.041952 4.057282e+002
357.333288 4.149714e+002
357.624606 4.208102e+002
357.915903 3.915803e+002
358.207181 3.561243e+002
358.498439 3.572267e+002
358.789677 3.945276e+002
359.080896 4.563443e+002
359.372095 5.096916e+002
359.663274 5.375215e+002
359.954433 5.400280e+002
360.245572 5.093621e+002
360.536692 4.685955e+002
360.827792 4.474370e+002
361.118872 4.500452e+002
361.409932 4.637540e+002
361.700973 4.600501e+002
361.991993 4.572986e+002
362.282994 4.943938e+002
362.573975 5.355530e+002
362.864936 5.332022e+002
363.155878 4.946140e+002
363.446799 4.903707e+002
363.737701 5.216833e+002
364.028583 5.410749e+002
364.319445 5.253930e+002
364.610287 5.040245e+002
364.901109 5.128653e+002
365.191911 5.585433e+002
365.482694 6.048560e+002
365.773456 6.295404e+002
366.064199 6.332523e+002
366.354922 6.260247e+002
366.645625 6.139369e+002
366.936308 6.105890e+002
367.226971 6.167161e+002
367.517614 6.070174e+002
367.808237 5.804099e+002
368.098840 5.632398e+002
368.389423 5.655549e+002
368.679987 5.697634e+002
368.970530 5.895620e+002
369.261054 6.207421e+002
369.551557 6.299877e+002
369.842040 6.340985e+002
370.132504 6.215062e+002
370.422947 5.727929e+002
370.713371 5.469890e+002
371.003774 5.753711e+002
371.294158 6.238845e+002
371.584522 6.155119e+002
371.874865 5.503034e+002
372.165188 5.080701e+002
372.455492 5.353558e+002
372.745775 5.530921e+002
373.036039 5.205094e+002
373.326282 4.619082e+002
373.616505 4.366246e+002
373.906709 4.795433e+002
374.196892 5.057369e+002
374.487055 4.741386e+002
374.777198 4.493495e+002
375.067321 4.957701e+002
375.357424 5.688477e+002
375.647506 5.873385e+002
375.937569 5.616087e+002
376.227611 5.572409e+002
376.517634 5.684289e+002
376.807636 5.885233e+002
377.097618 6.233898e+002
377.387580 6.688484e+002
377.677522 7.038584e+002
377.967444 7.240203e+002
378.257346 7.286317e+002
378.547227 6.914187e+002
378.837089 6.318253e+002
379.126930 6.009224e+002
379.416751 5.805385e+002
379.706551 5.628189e+002
379.996332 5.886095e+002
380.286092 6.465671e+002
380.575833 6.684182e+002
380.865553 6.662982e+002
381.155253 6.408059e+002
381.444932 5.807922e+002
381.734591 5.270581e+002
382.024231 4.957366e+002
382.313850 4.621391e+002
382.603448 4.272544e+002
382.893027 4.074470e+002
383.182585 4.050416e+002
383.472123 4.022288e+002
383.761640 4.218646e+002
384.051138 4.649010e+002
384.340615 5.416952e+002
384.630072 5.909175e+002
384.919508 5.939793e+002
385.208924 5.803697e+002
385.498320 5.567603e+002
385.787696 5.303932e+002
386.077051 5.429279e+002
386.366386 5.879827e+002
386.655701 5.999296e+002
386.944995 5.720745e+002
387.234269 5.608845e+002
387.523523 5.821416e+002
387.812756 5.794437e+002
388.101969 5.635370e+002
388.391162 5.654462e+002
388.680334 5.720978e+002
388.969486 6.117960e+002
389.258617 6.667865e+002
389.547728 7.027115e+002
389.836819 7.139182e+002
390.125889 7.095969e+002
390.414939 7.003977e+002
390.703969 7.255528e+002
390.992978 7.712453e+002
391.281966 7.904087e+002
391.570934 7.668340e+002
391.859882 7.159316e+002
392.148809 6.592100e+002
392.437716 5.998173e+002
392.726603 5.034868e+002
393.015469 3.945218e+002
393.304314 3.338442e+002
393.593139 3.711974e+002
393.881943 4.728474e+002
394.170727 5.698235e+002
394.459491 6.430446e+002
394.748234 7.143787e+002
395.036957 7.598149e+002
395.325659 7.729416e+002
395.614340 7.534460e+002
395.903001 6.957159e+002
396.191641 5.892030e+002
396.480261 4.691923e+002
396.768861 4.000152e+002
397.057439 4.306183e+002
397.345998 5.562856e+002
397.634535 6.971526e+002
397.923052 7.998924e+002
398.211549 8.453535e+002
398.500025 8.657309e+002
398.788480 8.897446e+002
399.076915 9.094093e+002
399.365329 9.092405e+002
399.653723 9.137647e+002
399.942096 9.563429e+002
400.230448 9.868059e+002
400.518780 9.768497e+002
400.807091 1.008558e+003
401.095381 1.037293e+003
401.383651 1.056014e+003
401.671900 1.063472e+003
401.960129 1.079135e+003
402.248336 1.082834e+003
402.536524 1.082258e+003
402.824690 1.065107e+003
403.112836 1.042344e+003
403.400961 1.049241e+003
403.689065 1.070787e+003
403.977149 1.078640e+003
404.265212 1.054724e+003
404.553254 1.030285e+003
404.841276 1.031503e+003
405.129277 1.043523e+003
405.417257 1.052393e+003
405.705216 1.031886e+003
405.993155 1.012629e+003
406.281073 1.005940e+003
406.568970 1.008219e+003
406.856846 1.018751e+003
407.144702 1.037105e+003
407.432537 1.027186e+003
407.720351 1.029914e+003
408.008144 1.040407e+003
408.295916 1.079444e+003
408.583668 1.099738e+003
408.871399 1.115918e+003
409.159109 1.124070e+003
409.446798 1.090414e+003
409.734466 1.042766e+003
410.022114 9.927576e+002
410.309740 9.615615e+002
410.597346 1.003826e+003
410.884931 1.072204e+003
411.172495 1.107681e+003
411.460038 1.142634e+003
411.747561 1.163688e+003
412.035062 1.157686e+003
412.322543 1.158199e+003
412.610002 1.154738e+003
412.897441 1.141640e+003
413.184859 1.110292e+003
413.472256 1.114092e+003
413.759632 1.167551e+003
414.046987 1.188168e+003
414.334321 1.147947e+003
414.621635 1.153421e+003
414.908927 1.183512e+003
415.196198 1.178047e+003
415.483449 1.168606e+003
415.770678 1.196464e+003
416.057887 1.242239e+003
416.345074 1.281458e+003
416.632241 1.261164e+003
416.919386 1.208132e+003
417.206511 1.141903e+003
417.493614 1.116606e+003
417.780697 1.126625e+003
418.067758 1.136983e+003
418.354799 1.125153e+003
418.641818 1.114706e+003
418.928817 1.129321e+003
419.215794 1.148491e+003
419.502750 1.131049e+003
419.789685 1.079805e+003
420.076600 1.079659e+003
420.363493 1.123034e+003
420.650365 1.172360e+003
420.937216 1.199561e+003
421.224046 1.198131e+003
421.510854 1.174656e+003
421.797642 1.168056e+003
422.084409 1.154773e+003
422.371154 1.080883e+003
422.657879 1.034511e+003
422.944582 1.087492e+003
423.231264 1.133553e+003
423.517925 1.115839e+003
423.804565 1.111249e+003
424.091183 1.137450e+003
424.377781 1.149926e+003
424.664357 1.124441e+003
424.950912 1.094681e+003
425.237446 1.098899e+003
425.523959 1.109159e+003
425.810451 1.097534e+003
426.096921 1.100898e+003
426.383370 1.139717e+003
426.669798 1.130093e+003
426.956205 1.060479e+003
427.242590 1.013577e+003
427.528955 1.052681e+003
427.815298 1.102406e+003
428.101619 1.101361e+003
428.387920 1.081192e+003
428.674199 1.051901e+003
428.960457 1.024734e+003
429.246694 1.018154e+003
429.532910 9.766193e+002
429.819104 8.908160e+002
430.105277 8.228551e+002
430.391428 8.044878e+002
430.677559 7.960328e+002
430.963668 8.260983e+002
431.249755 9.453071e+002
431.535822 1.099044e+003
431.821867 1.185466e+003
432.107890 1.148365e+003
432.393893 1.060335e+003
432.679874 1.078347e+003
432.965833 1.157880e+003
433.251772 1.182332e+003
433.537688 1.122636e+003
433.823584 1.021479e+003
434.109458 9.955176e+002
434.395311 1.068624e+003
434.681142 1.136605e+003
434.966952 1.144128e+003
435.252741 1.137638e+003
435.538508 1.157735e+003
435.824253 1.194596e+003
436.109978 1.228829e+003
436.395680 1.243721e+003
436.681362 1.230553e+003
436.967022 1.197854e+003
437.252660 1.167604e+003
437.538277 1.155780e+003
437.823873 1.149946e+003
438.109447 1.089297e+003
438.394999 1.028620e+003
438.680530 1.055679e+003
438.966040 1.101134e+003
439.251528 1.134436e+003
439.536994 1.154205e+003
439.822439 1.166367e+003
440.107863 1.144504e+003
440.393265 1.144416e+003
440.678645 1.144446e+003
440.964004 1.204929e+003
441.249342 1.226402e+003
441.534657 1.224590e+003
441.819952 1.241365e+003
442.105224 1.257622e+003
442.390475 1.255514e+003
442.675705 1.250767e+003
442.960913 1.245900e+003
443.246099 1.228589e+003
443.531264 1.229399e+003
443.816407 1.247006e+003
444.101528 1.245920e+003
444.386628 1.238900e+003
444.671706 1.248013e+003
444.956763 1.245126e+003
445.241797 1.210946e+003
445.526811 1.168574e+003
445.811802 1.154722e+003
446.096772 1.176546e+003
446.381720 1.209442e+003
446.666647 1.231256e+003
446.951552 1.250278e+003
447.236435 1.274247e+003
447.521296 1.288870e+003
447.806136 1.266054e+003
448.090954 1.241061e+003
448.375751 1.253100e+003
448.660525 1.270606e+003
448.945278 1.267449e+003
449.230009 1.263081e+003
449.514718 1.269862e+003
449.799406 1.291079e+003
450.084072 1.311403e+003
450.368716 1.339494e+003
450.653338 1.349053e+003
450.937939 1.342250e+003
451.222518 1.319958e+003
451.507075 1.301722e+003
451.791610 1.293333e+003
452.076123 1.284061e+003
452.360614 1.247322e+003
452.645084 1.198700e+003
452.929532 1.170290e+003
453.213958 1.182457e+003
453.498362 1.210766e+003
453.782744 1.249735e+003
454.067105 1.269941e+003
454.351444 1.256914e+003
454.635760 1.235762e+003
454.920055 1.211413e+003
455.204328 1.219522e+003
455.488579 1.238528e+003
455.772808 1.262516e+003
456.057015 1.277998e+003
456.341201 1.276759e+003
456.625364 1.272518e+003
456.909506 1.276303e+003
457.193625 1.281799e+003
457.477723 1.272580e+003
457.761799 1.251688e+003
458.045852 1.215950e+003
458.329884 1.201884e+003
458.613894 1.211444e+003
458.897882 1.225974e+003
459.181847 1.216968e+003
459.465791 1.203836e+003
459.749713 1.192904e+003
460.033613 1.198077e+003
460.317491 1.201141e+003
460.601346 1.220185e+003
460.885180 1.229344e+003
461.168992 1.230512e+003
461.452782 1.220709e+003
461.736549 1.224684e+003
462.020295 1.217414e+003
462.304018 1.224113e+003
462.587720 1.220654e+003
462.871399 1.216143e+003
463.155057 1.208819e+003
463.438692 1.200412e+003
463.722305 1.194811e+003
464.005896 1.191854e+003
464.289465 1.179328e+003
464.573012 1.161247e+003
464.856537 1.165198e+003
465.140039 1.181865e+003
465.423520 1.192432e+003
465.706978 1.202636e+003
465.990414 1.204980e+003
466.273828 1.176120e+003
466.557220 1.130978e+003
466.840589 1.117949e+003
467.123937 1.143487e+003
467.407262 1.167838e+003
467.690565 1.163252e+003
467.973846 1.157810e+003
468.257105 1.160756e+003
468.540341 1.167669e+003
468.823556 1.170337e+003
469.106748 1.171156e+003
469.389917 1.170005e+003
469.673065 1.154566e+003
469.956190 1.124580e+003
470.239293 1.102353e+003
470.522374 1.101473e+003
470.805433 1.116683e+003
471.088469 1.127890e+003
471.371483 1.139316e+003
471.654474 1.157186e+003
471.937444 1.177474e+003
472.220391 1.186852e+003
472.503316 1.168717e+003
472.786218 1.142469e+003
473.069098 1.132936e+003
473.351956 1.138913e+003
473.634791 1.141434e+003
473.917604 1.150833e+003
474.200395 1.162722e+003
474.483163 1.171048e+003
474.765909 1.166718e+003
475.048633 1.154240e+003
475.331334 1.137446e+003
475.614013 1.131541e+003
475.896670 1.126361e+003
476.179304 1.119751e+003
476.461915 1.106415e+003
476.744504 1.114074e+003
477.027071 1.133512e+003
477.309616 1.150538e+003
477.592137 1.162400e+003
477.874637 1.166825e+003
478.157114 1.150050e+003
478.439569 1.131655e+003
478.722001 1.117453e+003
479.004410 1.121493e+003
479.286797 1.141686e+003
479.569162 1.145635e+003
479.851504 1.134068e+003
480.133824 1.129408e+003
480.416121 1.125155e+003
480.698395 1.123400e+003
480.980648 1.127582e+003
481.262877 1.142145e+003
481.545084 1.154806e+003
481.827269 1.152585e+003
482.109430 1.133374e+003
482.391570 1.126871e+003
482.673687 1.121837e+003
482.955781 1.124979e+003
483.237852 1.118829e+003
483.519901 1.116353e+003
483.801928 1.103705e+003
484.083932 1.098183e+003
484.365913 1.100095e+003
484.647871 1.102534e+003
484.929807 1.094707e+003
485.211721 1.066602e+003
485.493611 1.013106e+003
485.775479 9.385704e+002
486.057325 8.900357e+002
486.339148 9.098403e+002
486.620948 9.736304e+002
486.902725 1.000352e+003
487.184480 1.008998e+003
487.466212 1.029737e+003
487.747921 1.057338e+003
488.029608 1.065913e+003
488.311272 1.058508e+003
488.592913 1.030765e+003
488.874531 1.012569e+003
489.156127 1.027120e+003
489.437700 1.067764e+003
489.719250 1.097353e+003
490.000777 1.091536e+003
490.282282 1.083424e+003
490.563764 1.077313e+003
490.845223 1.064211e+003
491.126660 1.054676e+003
491.408073 1.050367e+003
491.689464 1.017572e+003
491.970832 9.804321e+002
492.252177 9.915866e+002
492.533499 1.029646e+003
492.814799 1.059413e+003
493.096075 1.058475e+003
493.377329 1.035440e+003
493.658560 1.022045e+003
493.939768 1.023697e+003
494.220954 1.046208e+003
494.502116 1.064017e+003
494.783255 1.069566e+003
495.064372 1.063270e+003
495.345466 1.036321e+003
495.626537 1.012811e+003
495.907584 1.018142e+003
496.188609 1.037507e+003
496.469611 1.040298e+003
496.750591 1.029707e+003
497.031547 1.033471e+003
497.312480 1.039532e+003
497.593390 1.032611e+003
497.874278 9.965539e+002
498.155142 9.630831e+002
498.435983 9.565231e+002
498.716802 9.791359e+002
498.997597 9.927211e+002
499.278370 9.975220e+002
499.559119 9.849025e+002
499.839845 9.684040e+002
500.120549 9.407819e+002
500.401229 9.190721e+002
500.681886 9.162073e+002
500.962521 9.124016e+002
501.243132 9.029166e+002
501.523720 8.830168e+002
501.804285 8.831265e+002
502.084827 8.873956e+002
502.365346 8.976261e+002
502.645842 9.041568e+002
502.926315 9.081512e+002
503.206764 9.120849e+002
503.487191 9.008378e+002
503.767594 8.693323e+002
504.047975 8.560023e+002
504.328332 8.682244e+002
504.608666 8.891033e+002
504.888977 8.858281e+002
505.169264 8.855611e+002
505.449529 9.052658e+002
505.729770 9.164602e+002
506.009989 9.150500e+002
506.290184 9.033457e+002
506.570356 8.868407e+002
506.850504 8.749703e+002
507.130630 8.732661e+002
507.410732 8.706029e+002
507.690811 8.572859e+002
507.970867 8.444457e+002
508.250899 8.482781e+002
508.530909 8.702195e+002
508.810895 8.877902e+002
509.090858 8.930349e+002
509.370797 8.835117e+002
509.650714 8.634404e+002
509.930607 8.550093e+002
510.210476 8.627206e+002
510.490323 8.680152e+002
510.770146 8.602372e+002
511.049946 8.672655e+002
511.329722 8.796405e+002
511.609475 8.896372e+002
511.889205 8.793461e+002
512.168912 8.589280e+002
512.448595 8.341250e+002
512.728255 8.269993e+002
513.007891 8.304753e+002
513.287504 8.309956e+002
513.567094 8.277421e+002
513.846660 8.110708e+002
514.126203 8.015726e+002
514.405723 8.055819e+002
514.685219 8.092589e+002
514.964691 8.105500e+002
515.244141 8.124743e+002
515.523567 8.194727e+002
515.802969 8.126383e+002
516.082348 7.903974e+002
516.361703 7.458099e+002
516.641035 6.933049e+002
516.920344 6.624673e+002
517.199629 6.759982e+002
517.478891 7.194459e+002
517.758129 7.558565e+002
518.037344 7.303295e+002
518.316535 6.920892e+002
518.595702 7.018393e+002
518.874846 7.382438e+002
519.153967 7.468333e+002
519.433064 7.512083e+002
519.712138 7.639044e+002
519.991187 7.753411e+002
520.270214 7.650856e+002
520.549217 7.493171e+002
520.828196 7.480293e+002
521.107152 7.629255e+002
521.386084 7.682154e+002
521.664992 7.652689e+002
521.943877 7.718800e+002
522.222738 7.641339e+002
522.501576 7.334054e+002
522.780390 7.227139e+002
523.059180 7.270256e+002
523.337947 7.364957e+002
523.616690 7.486730e+002
523.895410 7.607923e+002
524.174105 7.616518e+002
524.452777 7.561209e+002
524.731426 7.441091e+002
525.010051 7.335357e+002
525.288652 7.295003e+002
525.567229 7.312964e+002
525.845783 7.225660e+002
526.124313 6.914320e+002
526.402819 6.530551e+002
526.681301 6.304895e+002
526.959760 6.278881e+002
527.238195 6.509152e+002
527.516606 6.713875e+002
527.794993 6.851093e+002
528.073357 6.878997e+002
528.351697 6.876228e+002
528.630013 7.005024e+002
528.908305 7.136712e+002
529.186574 7.112840e+002
529.464819 6.944020e+002
529.743040 6.796450e+002
530.021237 6.752297e+002
530.299410 6.865506e+002
530.577559 6.969577e+002
530.855685 7.001064e+002
531.133786 6.984512e+002
531.411864 6.894786e+002
531.689918 6.796393e+002
531.967948 6.705270e+002
532.245954 6.549075e+002
532.523937 6.279172e+002
532.801895 6.244388e+002
533.079829 6.377851e+002
533.357740 6.579858e+002
533.635627 6.632328e+002
533.913489 6.552371e+002
534.191328 6.523476e+002
534.469143 6.555769e+002
534.746934 6.572531e+002
535.024701 6.636801e+002
535.302443 6.770357e+002
535.580162 6.823114e+002
535.857857 6.833972e+002
536.135528 6.677255e+002
536.413175 6.522644e+002
536.690798 6.338952e+002
536.968397 6.300061e+002
537.245972 6.406549e+002
537.523523 6.546985e+002
537.801049 6.593746e+002
538.078552 6.554060e+002
538.356031 6.480266e+002
538.633486 6.451010e+002
538.910916 6.344339e+002
539.188323 6.278321e+002
539.465705 6.187193e+002
539.743063 6.177503e+002
540.020397 6.132805e+002
540.297707 6.024563e+002
540.574993 5.940470e+002
540.852255 5.973212e+002
541.129493 6.036279e+002
541.406706 6.132688e+002
541.683896 6.176921e+002
541.961061 6.170597e+002
542.238202 6.119671e+002
542.515319 6.074684e+002
542.792412 6.041399e+002
543.069480 5.981921e+002
543.346525 5.960855e+002
543.623545 6.044930e+002
543.900541 6.164175e+002
544.177512 6.138236e+002
544.454460 5.996810e+002
544.731383 5.937824e+002
545.008282 6.003648e+002
545.285157 5.938675e+002
545.562007 5.907201e+002
545.838833 5.921640e+002
546.115635 5.890995e+002
546.392413 5.846763e+002
546.669166 5.863543e+002
546.945895 5.895368e+002
547.222600 5.800180e+002
547.499280 5.665849e+002
547.775936 5.613835e+002
548.052568 5.626813e+002
548.329176 5.691526e+002
548.605759 5.700152e+002
548.882317 5.697006e+002
549.158852 5.693301e+002
549.435362 5.721688e+002
549.711847 5.699431e+002
549.988308 5.673068e+002
550.264745 5.618419e+002
550.541158 5.583084e+002
550.817546 5.549227e+002
551.093909 5.573429e+002
551.370248 5.564424e+002
551.646563 5.582148e+002
551.922853 5.644139e+002
552.199119 5.615281e+002
552.475361 5.499829e+002
552.751577 5.385669e+002
553.027770 5.407024e+002
553.303938 5.434397e+002
553.580081 5.444738e+002
553.856200 5.461114e+002
554.132295 5.466090e+002
554.408365 5.429945e+002
554.684410 5.435292e+002
554.960431 5.441488e+002
555.236427 5.436085e+002
555.512399 5.368950e+002
555.788346 5.333889e+002
556.064269 5.277645e+002
556.340167 5.211931e+002
556.616041 5.147177e+002
556.891889 5.094618e+002
557.167714 5.028556e+002
557.443514 5.044969e+002
557.719289 5.038693e+002
557.995039 5.047470e+002
558.270765 4.988905e+002
558.546466 4.846010e+002
558.822143 4.751684e+002
559.097795 4.741170e+002
559.373422 4.791984e+002
559.649025 4.784360e+002
559.924603 4.740498e+002
560.200156 4.734362e+002
560.475685 4.839493e+002
560.751189 4.911127e+002
561.026668 4.870165e+002
561.302122 4.719188e+002
561.577552 4.610336e+002
561.852957 4.577903e+002
562.128337 4.624474e+002
562.403693 4.592565e+002
562.679024 4.595639e+002
562.954330 4.641530e+002
563.229611 4.607968e+002
563.504868 4.537009e+002
563.780099 4.484952e+002
564.055306 4.473787e+002
564.330488 4.461288e+002
564.605646 4.465333e+002
564.880778 4.457992e+002
565.155886 4.387283e+002
565.430968 4.305241e+002
565.706026 4.207938e+002
565.981060 4.181088e+002
566.256068 4.236411e+002
566.531051 4.275721e+002
566.806010 4.308369e+002
567.080943 4.345008e+002
567.355852 4.342709e+002
567.630736 4.290519e+002
567.905595 4.245752e+002
568.180429 4.148743e+002
568.455238 4.055666e+002
568.730022 4.064452e+002
569.004781 4.098942e+002
569.279516 4.102495e+002
569.554225 4.094742e+002
569.828909 4.069538e+002
570.103569 3.996621e+002
570.378203 3.973996e+002
570.652812 3.906551e+002
570.927397 3.843196e+002
571.201956 3.851522e+002
571.476491 3.924058e+002
571.751000 3.972325e+002
572.025484 3.974605e+002
572.299944 4.012297e+002
572.574378 4.003495e+002
572.848787 3.963981e+002
573.123171 3.962668e+002
573.397530 3.937913e+002
573.671864 3.918420e+002
573.946173 3.898489e+002
574.220457 3.882536e+002
574.494716 3.857836e+002
574.768949 3.829827e+002
575.043158 3.791408e+002
575.317341 3.740389e+002
575.591499 3.776729e+002
575.865632 3.813538e+002
576.139740 3.779367e+002
576.413823 3.808243e+002
576.687881 3.858090e+002
576.961913 3.872988e+002
577.235920 3.843723e+002
577.509902 3.792560e+002
577.783859 3.783100e+002
578.057791 3.727433e+002
578.331697 3.717391e+002
578.605578 3.729139e+002
578.879434 3.787028e+002
579.153265 3.808134e+002
579.427070 3.830777e+002
579.700851 3.817967e+002
579.974606 3.861634e+002
580.248335 3.853343e+002
580.522040 3.843678e+002
580.795719 3.844847e+002
581.069372 3.894563e+002
581.343001 3.898404e+002
581.616604 3.877607e+002
581.890182 3.897399e+002
582.163734 3.931096e+002
582.437261 3.933704e+002
582.710763 3.947366e+002
582.984240 3.960343e+002
583.257691 3.930068e+002
583.531116 3.915268e+002
583.804517 3.933850e+002
584.077892 3.918376e+002
584.351241 3.910360e+002
584.624565 3.895440e+002
584.897864 3.870920e+002
585.171137 3.863505e+002
585.444385 3.813036e+002
585.717608 3.786256e+002
585.990804 3.785475e+002
586.263976 3.827331e+002
586.537122 3.842417e+002
586.810243 3.847805e+002
587.083338 3.868469e+002
587.356407 3.854695e+002
587.629451 3.816491e+002
587.902470 3.792151e+002
588.175463 3.732864e+002
588.448430 3.629818e+002
588.721372 3.454782e+002
588.994289 3.307749e+002
589.267180 3.290114e+002
589.540045 3.324641e+002
589.812885 3.399240e+002
590.085699 3.567391e+002
590.358488 3.649476e+002
590.631251 3.645894e+002
590.903988 3.651038e+002
591.176700 3.609538e+002
591.449386 3.581745e+002
591.722047 3.547365e+002
591.994682 3.570676e+002
592.267291 3.572147e+002
592.539875 3.572243e+002
592.812433 3.567174e+002
593.084965 3.516614e+002
593.357472 3.537140e+002
593.629953 3.537581e+002
593.902408 3.522526e+002
594.174838 3.473323e+002
594.447242 3.431114e+002
594.719620 3.392953e+002
594.991972 3.388810e+002
595.264299 3.414302e+002
595.536600 3.420966e+002
595.808875 3.411206e+002
596.081125 3.417311e+002
596.353348 3.430230e+002
596.625546 3.361100e+002
596.897718 3.374461e+002
597.169865 3.380447e+002
597.441985 3.317403e+002
597.714080 3.305244e+002
597.986149 3.299921e+002
598.258192 3.270378e+002
598.530209 3.239492e+002
598.802201 3.221982e+002
599.074166 3.241167e+002
599.346106 3.231720e+002
599.618020 3.217779e+002
599.889908 3.180595e+002
600.161770 3.142629e+002
600.433606 3.093015e+002
600.705416 3.035927e+002
600.977201 2.994013e+002
601.248959 2.961868e+002
601.520692 2.906963e+002
601.792398 2.836131e+002
602.064079 2.787887e+002
602.335734 2.767841e+002
602.607362 2.756709e+002
602.878965 2.760766e+002
603.150542 2.763889e+002
603.422093 2.817979e+002
603.693617 2.962773e+002
603.965116 3.011932e+002
604.236589 3.005370e+002
604.508036 3.048410e+002
604.779456 3.049126e+002
605.050851 3.071747e+002
605.322220 3.068728e+002
605.593562 3.075998e+002
605.864879 3.089574e+002
606.136169 3.079038e+002
606.407434 3.060870e+002
606.678672 3.083578e+002
606.949884 3.104828e+002
607.221070 3.116548e+002
607.492230 3.104322e+002
607.763364 3.103810e+002
608.034472 3.089808e+002
608.305553 3.087410e+002
608.576609 3.082043e+002
608.847638 3.090149e+002
609.118641 3.104692e+002
609.389618 3.088394e+002
609.660569 3.082029e+002
609.931493 3.075785e+002
610.202392 3.068719e+002
610.473264 3.070016e+002
610.744110 3.044591e+002
611.014929 3.086524e+002
611.285723 3.090242e+002
611.556490 3.084582e+002
611.827231 3.081804e+002
612.097946 3.070452e+002
612.368634 3.050405e+002
612.639296 3.019836e+002
612.909932 3.051105e+002
613.180542 3.050766e+002
613.451125 3.063033e+002
613.721682 3.015607e+002
613.992213 3.016828e+002
614.262717 3.037185e+002
614.533195 3.077774e+002
614.803647 3.098579e+002
615.074072 3.087505e+002
615.344471 3.115535e+002
615.614843 3.102822e+002
615.885189 3.070635e+002
616.155509 3.026718e+002
616.425802 3.003482e+002
616.696069 3.050413e+002
616.966310 3.066389e+002
617.236524 3.102747e+002
617.506712 3.160886e+002
617.776873 3.213370e+002
618.047008 3.257445e+002
618.317116 3.313959e+002
618.587198 3.320572e+002
618.857253 3.297745e+002
619.127282 3.311192e+002
619.397285 3.336610e+002
619.667261 3.408478e+002
619.937210 3.422436e+002
620.207133 3.430259e+002
620.477029 3.402397e+002
620.746899 3.327503e+002
621.016742 3.265199e+002
621.286559 3.177686e+002
621.556349 3.125360e+002
621.826113 3.102930e+002
622.095850 3.111550e+002
622.365560 3.116231e+002
622.635244 3.080756e+002
622.904901 3.042848e+002
623.174532 3.011623e+002
623.444136 3.024268e+002
623.713713 3.051991e+002
623.983264 3.021608e+002
624.252788 2.994911e+002
624.522285 2.953652e+002
624.791756 2.977256e+002
625.061200 2.971146e+002
625.330617 2.931919e+002
625.600008 2.942411e+002
625.869372 2.950987e+002
626.138709 2.988842e+002
626.408020 3.009642e+002
626.677303 3.005818e+002
626.946560 3.006079e+002
627.215791 2.978640e+002
627.484994 2.886051e+002
627.754171 2.784570e+002
628.023321 2.769853e+002
628.292444 2.848969e+002
628.561541 2.921803e+002
628.830610 2.928050e+002
629.099653 2.880972e+002
629.368669 2.886057e+002
629.637658 2.855069e+002
629.906621 2.840705e+002
630.175556 2.832066e+002
630.444465 2.880268e+002
630.713347 2.916718e+002
630.982202 2.914973e+002
631.251030 2.896828e+002
631.519831 2.850055e+002
631.788605 2.853582e+002
632.057353 2.889445e+002
632.326073 2.936671e+002
632.594767 2.969314e+002
632.863433 2.993623e+002
633.132073 2.963833e+002
633.400686 2.945293e+002
633.669271 2.907197e+002
633.937830 2.954165e+002
634.206362 2.952844e+002
634.474867 2.941226e+002
634.743345 2.984436e+002
635.011795 2.986177e+002
635.280219 2.985185e+002
635.548616 2.952041e+002
635.816986 2.923480e+002
636.085328 2.908431e+002
636.353644 2.930033e+002
636.621933 2.974222e+002
636.890194 2.987530e+002
637.158429 3.008161e+002
637.426636 3.031545e+002
637.694817 3.044614e+002
637.962970 3.016066e+002
638.231096 3.009523e+002
638.499195 3.040099e+002
638.767267 3.048112e+002
639.035312 3.020968e+002
639.303329 2.988119e+002
639.571320 2.973212e+002
639.839283 2.966894e+002
640.107219 2.978638e+002
640.375128 2.995092e+002
640.643010 2.988631e+002
640.910864 2.967810e+002
641.178692 2.969736e+002
641.446492 2.995886e+002
641.714265 3.000676e+002
641.982010 3.000763e+002
642.249729 3.015575e+002
642.517420 3.043370e+002
642.785084 3.036317e+002
643.052720 3.000887e+002
643.320330 3.005162e+002
643.587912 2.979687e+002
643.855467 2.962355e+002
644.122994 2.975015e+002
644.390494 3.012285e+002
644.657967 2.997224e+002
644.925413 2.976135e+002
645.192831 2.980358e+002
645.460222 2.969870e+002
645.727585 2.979580e+002
645.994921 2.950041e+002
646.262230 2.934477e+002
646.529511 2.962949e+002
646.796765 2.951147e+002
647.063992 2.938309e+002
647.331191 2.944528e+002
647.598362 2.947155e+002
647.865507 2.945407e+002
648.132624 2.953948e+002
648.399713 2.963388e+002
648.666775 2.981666e+002
648.933809 2.942270e+002
649.200816 2.878489e+002
649.467796 2.807349e+002
649.734748 2.870139e+002
650.001672 2.961566e+002
650.268569 3.021005e+002
650.535439 3.060069e+002
650.802281 3.086736e+002
651.069095 3.045994e+002
651.335882 2.993258e+002
651.602641 2.956648e+002
651.869373 2.972877e+002
652.136077 3.003820e+002
652.402754 3.023134e+002
652.669403 3.042086e+002
652.936024 3.060477e+002
653.202618 3.066869e+002
653.469184 3.076453e+002
653.735722 3.083313e+002
654.002233 3.086355e+002
654.268717 3.044454e+002
654.535172 3.008086e+002
654.801600 2.978346e+002
655.068000 2.978246e+002
655.334373 2.912112e+002
655.600718 2.801074e+002
655.867035 2.628070e+002
656.133324 2.412414e+002
656.399586 2.448546e+002
656.665820 2.627478e+002
656.932026 2.793943e+002
657.198205 2.877148e+002
657.464356 2.926864e+002
657.730479 2.984027e+002
657.996574 2.975149e+002
658.262641 2.981443e+002
658.528681 2.959838e+002
658.794693 2.993392e+002
659.060677 2.973635e+002
659.326633 2.961306e+002
659.592561 2.988197e+002
659.858462 2.992031e+002
660.124335 3.006935e+002
660.390180 3.017337e+002
660.655996 2.997839e+002
660.921786 3.000116e+002
661.187547 3.017998e+002
661.453280 3.005500e+002
661.718986 3.002735e+002
661.984663 3.004178e+002
662.250313 2.989773e+002
662.515934 2.990340e+002
662.781528 2.962833e+002
663.047094 2.933205e+002
663.312632 2.913724e+002
663.578141 2.920316e+002
663.843623 2.926538e+002
664.109077 2.923515e+002
664.374503 2.911101e+002
664.639901 2.919079e+002
664.905271 2.940799e+002
665.170613 2.949903e+002
665.435927 2.953891e+002
665.701212 2.938415e+002
665.966470 2.896064e+002
666.231700 2.857531e+002
666.496901 2.850717e+002
666.762075 2.873310e+002
667.027220 2.875620e+002
667.292338 2.855781e+002
667.557427 2.826145e+002
667.822488 2.806572e+002
668.087521 2.824312e+002
668.352526 2.847701e+002
668.617503 2.840463e+002
668.882451 2.844229e+002
669.147372 2.828904e+002
669.412264 2.818210e+002
669.677128 2.803694e+002
669.941964 2.799788e+002
670.206772 2.795189e+002
670.471551 2.782913e+002
670.736303 2.799554e+002
671.001026 2.768219e+002
671.265720 2.759507e+002
671.530387 2.732687e+002
671.795025 2.733806e+002
672.059635 2.747931e+002
672.324217 2.759107e+002
672.588771 2.763880e+002
672.853296 2.767230e+002
673.117793 2.773191e+002
673.382261 2.744294e+002
673.646702 2.753792e+002
673.911114 2.761732e+002
674.175497 2.746676e+002
674.439853 2.746470e+002
674.704180 2.722418e+002
674.968478 2.723865e+002
675.232748 2.726989e+002
675.496990 2.731063e+002
675.761204 2.766801e+002
676.025389 2.763802e+002
676.289545 2.772302e+002
676.553673 2.727700e+002
676.817773 2.735184e+002
677.081845 2.712791e+002
677.345887 2.745154e+002
677.609902 2.749235e+002
677.873888 2.742208e+002
678.137845 2.736847e+002
678.401774 2.685837e+002
678.665675 2.704179e+002
678.929547 2.709880e+002
679.193390 2.721049e+002
679.457205 2.712878e+002
679.720992 2.736447e+002
679.984750 2.707143e+002
680.248479 2.705820e+002
680.512180 2.724622e+002
680.775852 2.684118e+002
681.039495 2.710710e+002
681.303111 2.731404e+002
681.566697 2.716231e+002
681.830255 2.725417e+002
682.093784 2.714832e+002
682.357285 2.713819e+002
682.620757 2.712035e+002
682.884200 2.688335e+002
683.147615 2.710350e+002
683.411001 2.699009e+002
683.674358 2.680625e+002
683.937687 2.638998e+002
684.200987 2.646715e+002
684.464258 2.656603e+002
684.727500 2.679916e+002
684.990714 2.701080e+002
685.253899 2.666638e+002
685.517056 2.620292e+002
685.780183 2.615513e+002
686.043282 2.610875e+002
686.306352 2.468808e+002
686.569394 2.131893e+002
686.832406 1.795033e+002
687.095390 1.678465e+002
687.358345 1.746233e+002
687.621271 1.916558e+002
687.884168 2.093014e+002
688.147037 2.232960e+002
688.409876 2.197993e+002
688.672687 2.122762e+002
688.935469 2.102632e+002
689.198222 2.118475e+002
689.460946 2.135985e+002
689.723641 2.172287e+002
689.986308 2.229667e+002
690.248945 2.260301e+002
690.511554 2.273281e+002
690.774133 2.331954e+002
691.036684 2.364283e+002
691.299206 2.377164e+002
691.561698 2.408788e+002
691.824162 2.443176e+002
692.086597 2.460946e+002
692.349003 2.464662e+002
692.611380 2.460790e+002
692.873728 2.446541e+002
693.136047 2.472556e+002
693.398336 2.468243e+002
693.660597 2.465598e+002
693.922829 2.432071e+002
694.185032 2.437876e+002
694.447205 2.458906e+002
694.709350 2.461677e+002
694.971465 2.479291e+002
695.233552 2.491927e+002
695.495609 2.500723e+002
695.757637 2.485367e+002
696.019636 2.493277e+002
696.281606 2.536465e+002
696.543547 2.550041e+002
696.805459 2.555123e+002
697.067341 2.530145e+002
697.329194 2.521348e+002
697.591019 2.465303e+002
697.852814 2.453347e+002
698.114579 2.465518e+002
698.376316 2.478191e+002
698.638023 2.426249e+002
698.899701 2.394842e+002
699.161350 2.395848e+002
699.422970 2.378953e+002
699.684560 2.364677e+002
699.946122 2.328917e+002
700.207653 2.290664e+002
700.469156 2.283680e+002
700.730629 2.266037e+002
700.992073 2.281408e+002
701.253488 2.246723e+002
701.514873 2.238482e+002
701.776229 2.250461e+002
702.037556 2.256682e+002
702.298854 2.234522e+002
702.560122 2.231420e+002
702.821360 2.261965e+002
703.082569 2.300219e+002
703.343749 2.312450e+002
703.604900 2.283827e+002
703.866021 2.294505e+002
704.127113 2.312421e+002
704.388175 2.352319e+002
704.649208 2.334571e+002
704.910211 2.314108e+002
705.171185 2.305899e+002
705.432129 2.293555e+002
705.693044 2.304767e+002
705.953930 2.328436e+002
706.214786 2.308180e+002
706.475612 2.318607e+002
706.736409 2.327826e+002
706.997177 2.340535e+002
707.257915 2.348215e+002
707.518623 2.365876e+002
707.779302 2.363288e+002
708.039951 2.368197e+002
708.300571 2.352669e+002
708.561161 2.334505e+002
708.821722 2.341206e+002
709.082253 2.330411e+002
709.342754 2.340941e+002
709.603226 2.361643e+002
709.863668 2.380071e+002
710.124080 2.398681e+002
710.384463 2.402481e+002
710.644816 2.390990e+002
710.905140 2.394903e+002
711.165433 2.398114e+002
711.425697 2.394412e+002
711.685932 2.391256e+002
711.946137 2.396229e+002
712.206312 2.392603e+002
712.466457 2.388521e+002
712.726572 2.371373e+002
712.986658 2.355831e+002
713.246714 2.361059e+002
713.506740 2.379626e+002
713.766737 2.390675e+002
714.026704 2.393256e+002
714.286641 2.372255e+002
714.546548 2.355185e+002
714.806425 2.334744e+002
715.066273 2.337426e+002
715.326090 2.345864e+002
715.585878 2.331913e+002
715.845636 2.299813e+002
716.105364 2.251040e+002
716.365062 2.150993e+002
716.624731 2.105115e+002
716.884369 2.052293e+002
717.143978 1.990359e+002
717.403556 1.946852e+002
717.663105 1.939857e+002
717.922624 1.910579e+002
718.182113 1.866105e+002
718.441572 1.808449e+002
718.701001 1.795327e+002
718.960399 1.807677e+002
719.219768 1.800179e+002
719.479107 1.822141e+002
719.738416 1.812110e+002
719.997695 1.784836e+002
720.256944 1.795423e+002
720.516163 1.821905e+002
720.775352 1.928175e+002
721.034511 2.020523e+002
721.293640 2.074027e+002
721.552739 2.086505e+002
721.811807 2.074697e+002
722.070846 2.066648e+002
722.329854 2.051711e+002
722.588833 2.024333e+002
722.847781 1.972709e+002
723.106699 1.899143e+002
723.365587 1.838901e+002
723.624445 1.840766e+002
723.883273 1.844627e+002
724.142070 1.834352e+002
724.400838 1.862561e+002
724.659575 1.892951e+002
724.918282 1.872232e+002
725.176958 1.880066e+002
725.435605 1.876715e+002
725.694221 1.924066e+002
725.952807 1.921861e+002
726.211363 1.897936e+002
726.469889 1.908528e+002
726.728384 1.930916e+002
726.986849 1.944904e+002
727.245284 1.889311e+002
727.503688 1.852459e+002
727.762062 1.876202e+002
728.020406 1.946892e+002
728.278720 1.989466e+002
728.537003 1.936369e+002
728.795256 1.876478e+002
729.053478 1.861295e+002
729.311670 1.914282e+002
729.569832 1.968910e+002
729.827963 1.982796e+002
730.086064 1.977570e+002
730.344135 1.963955e+002
730.602175 1.959736e+002
730.860185 1.969677e+002
731.118164 1.978924e+002
731.376113 2.009318e+002
731.634031 2.014944e+002
731.891919 2.040347e+002
732.149777 2.085903e+002
732.407604 2.098649e+002
732.665400 2.113607e+002
732.923166 2.124064e+002
733.180902 2.122400e+002
733.438606 2.160809e+002
733.696281 2.189660e+002
733.953925 2.185101e+002
734.211538 2.175346e+002
734.469121 2.148264e+002
734.726673 2.136437e+002
734.984194 2.131354e+002
735.241685 2.136735e+002
735.499146 2.131007e+002
735.756576 2.102249e+002
736.013975 2.125686e+002
736.271343 2.121355e+002
736.528681 2.135421e+002
736.785988 2.143761e+002
737.043265 2.168845e+002
737.300511 2.160228e+002
737.557726 2.163164e+002
737.814910 2.132517e+002
738.072064 2.095617e+002
738.329187 2.070955e+002
738.586280 2.025044e+002
738.843341 2.041723e+002
739.100372 2.034213e+002
739.357372 2.064569e+002
739.614342 2.063551e+002
739.871280 2.087854e+002
740.128188 2.110043e+002
740.385065 2.098562e+002
740.641911 2.099338e+002
740.898727 2.084718e+002
741.155511 2.076096e+002
741.412265 2.086838e+002
741.668988 2.086445e+002
741.925680 2.074677e+002
742.182341 2.076400e+002
742.438971 2.074047e+002
742.695571 2.115563e+002
742.952139 2.092226e+002
743.208677 2.106834e+002
743.465183 2.118480e+002
743.721659 2.110075e+002
743.978104 2.086466e+002
744.234518 2.068905e+002
744.490901 2.062851e+002
744.747253 2.073447e+002
745.003574 2.066978e+002
745.259864 2.084350e+002
745.516123 2.074484e+002
745.772351 2.050850e+002
746.028548 2.034930e+002
746.284714 2.035334e+002
746.540849 2.047683e+002
746.796952 2.045291e+002
747.053025 2.035345e+002
747.309067 2.029365e+002
747.565078 2.034866e+002
747.821057 2.014360e+002
748.077006 2.033508e+002
748.332923 2.012088e+002
748.588809 2.008681e+002
748.844664 1.989104e+002
749.100488 1.965306e+002
749.356281 1.941604e+002
749.612043 1.917031e+002
749.867773 1.946214e+002
750.123473 1.949663e+002
750.379141 1.935237e+002
750.634778 1.941014e+002
750.890384 1.922858e+002
751.145958 1.914900e+002
751.401501 1.911705e+002
751.657013 1.939005e+002
751.912494 1.934232e+002
752.167944 1.914640e+002
752.423362 1.911642e+002
752.678749 1.897826e+002
752.934105 1.904463e+002
753.189429 1.888878e+002
753.444722 1.909770e+002
753.699984 1.904276e+002
753.955214 1.900822e+002
754.210413 1.881893e+002
754.465581 1.884636e+002
754.720718 1.870321e+002
754.975823 1.867120e+002
755.230896 1.845981e+002
755.485938 1.823407e+002
755.740949 1.799048e+002
755.995929 1.812541e+002
756.250877 1.816964e+002
756.505793 1.810627e+002
756.760678 1.786994e+002
757.015532 1.783524e+002
757.270354 1.776919e+002
757.525145 1.776468e+002
757.779904 1.779630e+002
758.034632 1.752252e+002
758.289328 1.695571e+002
758.543993 1.690739e+002
758.798626 1.589427e+002
759.053227 1.410264e+002
759.307797 1.107061e+002
759.562336 7.757591e+001
759.816843 5.084698e+001
760.071318 3.518543e+001
760.325762 2.638791e+001
760.580174 2.442301e+001
760.834555 2.818786e+001
761.088904 3.726551e+001
761.343221 5.376944e+001
761.597507 6.990565e+001
761.851761 7.793633e+001
762.105983 7.322631e+001
762.360174 6.333453e+001
762.614333 5.495764e+001
762.868461 5.285010e+001
763.122556 5.355097e+001
763.376620 5.448355e+001
763.630652 6.024438e+001
763.884653 6.514708e+001
764.138622 7.052160e+001
764.392559 7.884929e+001
764.646464 8.333831e+001
764.900337 9.163587e+001
765.154179 9.723456e+001
765.407989 1.035108e+002
765.661767 1.076371e+002
765.915513 1.133373e+002
766.169227 1.181609e+002
766.422910 1.246006e+002
766.676561 1.305538e+002
766.930180 1.360197e+002
767.183767 1.409197e+002
767.437322 1.439794e+002
767.690845 1.460625e+002
767.944336 1.480155e+002
768.197796 1.494074e+002
768.451223 1.523860e+002
768.704619 1.514335e+002
768.957982 1.521464e+002
769.211314 1.532150e+002
769.464614 1.523597e+002
769.717882 1.537832e+002
769.971117 1.549695e+002
770.224321 1.547804e+002
770.477493 1.588358e+002
770.730633 1.565310e+002
770.983741 1.565779e+002
771.236816 1.560497e+002
771.489860 1.546101e+002
771.742872 1.563338e+002
771.995851 1.558818e+002
772.248799 1.554932e+002
772.501714 1.573224e+002
772.754597 1.573251e+002
773.007448 1.568043e+002
773.260267 1.568713e+002
773.513054 1.576781e+002
773.765809 1.564718e+002
774.018532 1.566155e+002
774.271222 1.529913e+002
774.523881 1.512435e+002
774.776507 1.514075e+002
775.029101 1.515735e+002
775.281662 1.532716e+002
775.534192 1.538257e+002
775.786689 1.538182e+002
776.039154 1.539466e+002
776.291587 1.526431e+002
776.543988 1.542398e+002
776.796356 1.518995e+002
777.048692 1.514925e+002
777.300996 1.513129e+002
777.553267 1.500485e+002
777.805507 1.507722e+002
778.057713 1.497742e+002
778.309888 1.502663e+002
778.562030 1.492438e+002
778.814140 1.510024e+002
779.066217 1.491552e+002
779.318263 1.503684e+002
779.570275 1.490394e+002
779.822256 1.481077e+002
780.074203 1.479029e+002
780.326119 1.459698e+002
780.578002 1.460899e+002
780.829853 1.461381e+002
781.081671 1.464883e+002
781.333457 1.483024e+002
781.585210 1.481859e+002
781.836931 1.481413e+002
782.088619 1.475573e+002
782.340275 1.481968e+002
782.591898 1.475692e+002
782.843489 1.472407e+002
783.095048 1.450300e+002
783.346573 1.446190e+002
783.598066 1.448072e+002
783.849527 1.441027e+002
784.100955 1.476433e+002
784.352351 1.452875e+002
784.603714 1.452692e+002
784.855044 1.458412e+002
785.106342 1.432372e+002
785.357607 1.445852e+002
785.608839 1.450307e+002
785.860039 1.449591e+002
786.111206 1.441258e+002
786.362341 1.428086e+002
786.613442 1.420104e+002
786.864511 1.431134e+002
787.115548 1.422393e+002
787.366552 1.400810e+002
787.617523 1.407088e+002
787.868461 1.390532e+002
788.119366 1.390359e+002
788.370239 1.389078e+002
788.621079 1.376970e+002
788.871886 1.384702e+002
789.122661 1.378644e+002
789.373403 1.364600e+002
789.624111 1.366877e+002
789.874787 1.360283e+002
790.125431 1.353706e+002
790.376041 1.362164e+002
790.626619 1.341444e+002
790.877163 1.340662e+002
791.127675 1.350273e+002
791.378154 1.349987e+002
791.628600 1.330530e+002
791.879013 1.334874e+002
792.129393 1.338906e+002
792.379741 1.331608e+002
792.630055 1.319073e+002
792.880337 1.322191e+002
793.130585 1.326132e+002
793.380801 1.312431e+002
793.630983 1.305419e+002
793.881133 1.312535e+002
794.131249 1.302869e+002
794.381333 1.297362e+002
794.631383 1.276157e+002
794.881401 1.294219e+002
795.131385 1.307142e+002
795.381337 1.294356e+002
795.631255 1.292231e+002
795.881141 1.270348e+002
796.130993 1.254406e+002
796.380812 1.254817e+002
796.630598 1.264287e+002
796.880351 1.294966e+002
797.130071 1.282301e+002
797.379757 1.295901e+002
797.629411 1.299985e+002
797.879031 1.296072e+002
798.128618 1.281715e+002
798.378172 1.278860e+002
798.627693 1.264662e+002
798.877181 1.296253e+002
799.126635 1.259980e+002
799.376057 1.261329e+002
799.625444 1.249823e+002
799.874799 1.231100e+002
800.124121 1.233234e+002
800.373409 1.258088e+002
800.622664 1.231094e+002
800.871885 1.222089e+002
801.121074 1.217779e+002
801.370229 1.212066e+002
801.619351 1.225374e+002
801.868439 1.216680e+002
802.117494 1.210858e+002
802.366516 1.179041e+002
802.615504 1.186902e+002
802.864459 1.200542e+002
803.113381 1.200459e+002
803.362269 1.188996e+002
803.611124 1.192649e+002
803.859945 1.188831e+002
804.108733 1.173168e+002
804.357487 1.152398e+002
804.606208 1.153056e+002
804.854896 1.149903e+002
805.103550 1.156478e+002
805.352171 1.158369e+002
805.600758 1.179147e+002
805.849312 1.183950e+002
806.097832 1.177049e+002
806.346318 1.168887e+002
806.594772 1.175053e+002
806.843191 1.160501e+002
807.091577 1.149041e+002
807.339930 1.150077e+002
807.588248 1.147808e+002
807.836534 1.144859e+002
808.084785 1.124507e+002
808.333003 1.109262e+002
808.581188 1.120143e+002
808.829339 1.102258e+002
809.077456 1.111024e+002
809.325539 1.091365e+002
809.573589 1.072623e+002
809.821605 1.072027e+002
810.069588 1.086641e+002
810.317536 1.062728e+002
810.565451 1.072332e+002
810.813333 1.052603e+002
811.061180 1.043161e+002
811.308994 1.047498e+002
811.556774 1.034540e+002
811.804521 1.032439e+002
812.052233 1.027891e+002
812.299912 1.018984e+002
812.547557 9.976394e+001
812.795168 9.900601e+001
813.042746 9.699931e+001
813.290289 9.354927e+001
813.537799 9.420887e+001
813.785275 9.373443e+001
814.032717 9.300852e+001
814.280125 9.135267e+001
814.527499 8.808432e+001
814.774840 8.789108e+001
815.022146 8.683740e+001
815.269418 8.659505e+001
815.516657 8.524532e+001
815.763862 8.379788e+001
816.011032 8.244905e+001
816.258169 8.026874e+001
816.505272 8.166875e+001
816.752341 8.177027e+001
816.999376 8.412601e+001
817.246376 8.599471e+001
817.493343 8.294136e+001
817.740276 8.027327e+001
817.987175 8.070013e+001
818.234039 8.183952e+001
818.480870 8.231679e+001
818.727667 8.275419e+001
818.974429 8.393796e+001
819.221157 8.208889e+001
819.467852 8.245572e+001
819.714512 8.179329e+001
819.961138 8.346359e+001
820.207730 8.713223e+001
820.454287 8.943484e+001
820.700811 9.018435e+001
820.947300 9.065405e+001
821.193756 8.895102e+001
821.440177 8.863753e+001
821.686564 8.650132e+001
821.932916 8.616704e+001
822.179235 8.099977e+001
822.425519 7.584196e+001
822.671769 6.994537e+001
822.917984 6.917396e+001
823.164166 7.282849e+001
823.410313 7.743304e+001
823.656426 8.433846e+001
823.902504 8.427816e+001
824.148549 8.655593e+001
824.394558 8.739712e+001
