Molecule:    NO2 (nitrogen dioxide)
Temperature: 293 K
File type:   absorption cross-sections in cm2/molecule
Instrument:  GOME FM grating spectrometer
Resolution:  wavelength dependent 0.2-0.4 nm
Reference:   Burrows et al., JQSRT, submitted, 1997
Contact:     orphal@physik.uni-bremen.de

    230.92226   5.95922E-20
    231.04877   6.33659E-20
    231.17520   5.90969E-20
    231.30157   6.35166E-20
    231.42787   6.31322E-20
    231.55411   6.86306E-20
    231.68027   6.71736E-20
    231.80635   6.39865E-20
    231.93237   6.79380E-20
    232.05833   7.06152E-20
    232.18422   7.25000E-20
    232.31004   7.47547E-20
    232.43579   7.29197E-20
    232.56146   7.59175E-20
    232.68709   8.63585E-20
    232.81262   1.06559E-19
    232.93811   1.31121E-19
    233.06352   1.46730E-19
    233.18886   1.51286E-19
    233.31413   1.47969E-19
    233.43935   1.39301E-19
    233.56450   1.31083E-19
    233.68958   1.23535E-19
    233.81458   1.18337E-19
    233.93953   1.13871E-19
    234.06441   1.10147E-19
    234.18921   1.05936E-19
    234.31396   1.01935E-19
    234.43864   9.88578E-20
    234.56326   9.76112E-20
    234.68781   1.00225E-19
    234.81229   1.09530E-19
    234.93671   1.26503E-19
    235.06107   1.47272E-19
    235.18536   1.67824E-19
    235.30959   1.85305E-19
    235.43375   1.91572E-19
    235.55785   1.83489E-19
    235.68188   1.67493E-19
    235.80585   1.49843E-19
    235.92976   1.34546E-19
    236.05360   1.25652E-19
    236.17738   1.26775E-19
    236.30110   1.35318E-19
    236.42476   1.42531E-19
    236.54834   1.43936E-19
    236.67188   1.41239E-19
    236.79533   1.38631E-19
    236.91875   1.39245E-19
    237.04208   1.43453E-19
    237.16536   1.50875E-19
    237.28857   1.59006E-19
    237.41173   1.65201E-19
    237.53484   1.67205E-19
    237.65787   1.63608E-19
    237.78084   1.54866E-19
    237.90375   1.42436E-19
    238.02660   1.28809E-19
    238.14938   1.15254E-19
    238.27211   1.02191E-19
    238.39478   8.99938E-20
    238.51738   7.92278E-20
    238.63994   7.10644E-20
    238.76242   6.71762E-20
    238.88484   7.11740E-20
    239.00722   8.57530E-20
    239.12953   1.04683E-19
    239.25177   1.14065E-19
    239.37396   1.10843E-19
    239.49609   1.00930E-19
    239.61816   8.90147E-20
    239.74017   7.75177E-20
    239.86214   6.74501E-20
    239.98402   5.90685E-20
    240.10587   5.23136E-20
    240.22765   4.71201E-20
    240.34937   4.31483E-20
    240.47104   3.97333E-20
    240.59264   3.62952E-20
    240.71419   3.26514E-20
    240.83568   2.91662E-20
    240.95711   2.60470E-20
    241.07849   2.36315E-20
    241.19981   2.20271E-20
    241.32108   2.12078E-20
    241.44228   2.13404E-20
    241.56343   2.28784E-20
    241.68452   2.69906E-20
    241.80556   3.74093E-20
    241.92654   6.09401E-20
    242.04747   9.84213E-20
    242.16833   1.32148E-19
    242.28915   1.42369E-19
    242.40991   1.31227E-19
    242.53062   1.11632E-19
    242.65126   9.21973E-20
    242.77187   7.69616E-20
    242.89240   6.76667E-20
    243.01289   6.44844E-20
    243.13332   6.37311E-20
    243.25369   5.98711E-20
    243.37402   5.32793E-20
    243.49428   4.61135E-20
    243.61450   3.94672E-20
    243.73466   3.40590E-20
    243.85477   2.98726E-20
    243.97482   2.66119E-20
    244.09482   2.42468E-20
    244.21477   2.27783E-20
    244.33466   2.21425E-20
    244.45450   2.30129E-20
    244.57428   2.75368E-20
    244.69402   3.81585E-20
    244.81371   4.75964E-20
    244.93333   4.66555E-20
    245.05292   3.99525E-20
    245.17244   3.31288E-20
    245.29192   2.72870E-20
    245.41133   2.29409E-20
    245.53072   1.93930E-20
    245.65002   1.76322E-20
    245.76930   1.86675E-20
    245.88852   3.14910E-20
    246.00768   4.33558E-20
    246.12680   3.88461E-20
    246.24586   3.22605E-20
    246.36488   2.64413E-20
    246.48384   2.28225E-20
    246.60275   1.90614E-20
    246.72162   1.77150E-20
    246.84044   1.58118E-20
    246.95920   1.42407E-20
    247.07791   1.37135E-20
    247.19658   1.21950E-20
    247.31520   1.16387E-20
    247.43376   1.12568E-20
    247.55228   1.04650E-20
    247.67075   1.01590E-20
    247.78917   1.01106E-20
    247.90753   9.64933E-21
    248.02586   9.34062E-21
    248.14413   9.32212E-21
    248.26236   9.25619E-21
    248.38054   9.08216E-21
    248.49866   9.03878E-21
    248.61674   9.14574E-21
    248.73477   9.28803E-21
    248.85277   9.62929E-21
    248.97070   1.25684E-20
    249.08859   3.07327E-20
    249.20644   5.06501E-20
    249.32423   4.79736E-20
    249.44199   4.05603E-20
    249.55969   3.34439E-20
    249.67734   2.82025E-20
    249.79495   2.34099E-20
    249.91252   2.02286E-20
    250.03003   1.88764E-20
    250.14751   1.56173E-20
    250.26494   1.58312E-20
    250.38231   1.41860E-20
    250.49965   1.27759E-20
    250.61694   1.31489E-20
    250.73418   1.22592E-20
    250.85138   1.13201E-20
    250.96854   1.13755E-20
    251.08565   1.12638E-20
    251.20270   1.06545E-20
    251.31972   1.03669E-20
    251.43669   1.04941E-20
    251.55362   1.02507E-20
    251.67052   1.00140E-20
    251.78735   9.96854E-21
    251.90414   1.01431E-20
    252.02090   1.01944E-20
    252.13762   1.01951E-20
    252.25427   1.02555E-20
    252.37090   1.03669E-20
    252.48747   1.04461E-20
    252.60402   1.04853E-20
    252.72050   1.05758E-20
    252.83696   1.07398E-20
    252.95337   1.09649E-20
    253.06973   1.10637E-20
    253.18605   1.10492E-20
    253.30232   1.10412E-20
    253.41856   1.10183E-20
    253.53476   1.10525E-20
    253.65091   1.11511E-20
    253.76703   1.13712E-20
    253.88309   1.18844E-20
    253.99911   1.20882E-20
    254.11510   1.22971E-20
    254.23105   1.23856E-20
    254.34695   1.23094E-20
    254.46281   1.21400E-20
    254.57864   1.21032E-20
    254.69441   1.19941E-20
    254.81015   1.20080E-20
    254.92586   1.19893E-20
    255.04152   1.20484E-20
    255.15714   1.21217E-20
    255.27271   1.22550E-20
    255.38824   1.24353E-20
    255.50374   1.26195E-20
    255.61920   1.28096E-20
    255.73462   1.29889E-20
    255.85001   1.30461E-20
    255.96533   1.29889E-20
    256.08063   1.28714E-20
    256.19589   1.27129E-20
    256.31113   1.25952E-20
    256.42630   1.25282E-20
    256.54144   1.25157E-20
    256.65656   1.25029E-20
    256.77161   1.25347E-20
    256.88666   1.26578E-20
    257.00165   1.28084E-20
    257.11658   1.29934E-20
    257.23151   1.31616E-20
    257.34637   1.33466E-20
    257.46121   1.35371E-20
    257.57602   1.39645E-20
    257.69077   1.42516E-20
    257.80551   1.44256E-20
    257.92020   1.45390E-20
    258.03485   1.45850E-20
    258.14944   1.45028E-20
    258.26404   1.43835E-20
    258.37857   1.42333E-20
    258.49307   1.42460E-20
    258.60754   1.44197E-20
    258.72195   1.47272E-20
    258.83636   1.51472E-20
    258.95071   1.56069E-20
    259.06503   1.59780E-20
    259.17932   1.62764E-20
    259.29358   1.64023E-20
    259.40778   1.64160E-20
    259.52197   1.63541E-20
    259.63611   1.62566E-20
    259.75021   1.61498E-20
    259.86429   1.60330E-20
    259.97830   1.58881E-20
    260.09232   1.57283E-20
    260.20627   1.55719E-20
    260.32022   1.54144E-20
    260.43411   1.53889E-20
    260.54797   1.54787E-20
    260.66180   1.56978E-20
    260.77560   1.59407E-20
    260.88934   1.61753E-20
    261.00308   1.64012E-20
    261.11676   1.66491E-20
    261.23044   1.69287E-20
    261.34406   1.71459E-20
    261.45764   1.72686E-20
    261.57120   1.73081E-20
    261.68472   1.72182E-20
    261.79822   1.70881E-20
    261.91168   1.69661E-20
    262.02509   1.68872E-20
    262.13849   1.69484E-20
    262.25183   1.71469E-20
    262.36517   1.74797E-20
    262.47845   1.79130E-20
    262.59171   1.84040E-20
    262.70496   1.89073E-20
    262.81815   1.94177E-20
    262.93130   1.98362E-20
    263.04443   2.01290E-20
    263.15753   2.02388E-20
    263.27060   2.02068E-20
    263.38364   2.01389E-20
    263.49664   2.00665E-20
    263.60962   2.00963E-20
    263.72256   2.02449E-20
    263.83548   2.03839E-20
    263.94836   2.04517E-20
    264.06122   2.04282E-20
    264.17401   2.03532E-20
    264.28680   2.03512E-20
    264.39957   2.04527E-20
    264.51230   2.06806E-20
    264.62500   2.09858E-20
    264.73764   2.13345E-20
    264.85028   2.16361E-20
    264.96289   2.19130E-20
    265.07547   2.21602E-20
    265.18802   2.23739E-20
    265.30054   2.25132E-20
    265.41302   2.25272E-20
    265.52548   2.24083E-20
    265.63791   2.22591E-20
    265.75031   2.21386E-20
    265.86267   2.20153E-20
    265.97501   2.18679E-20
    266.08731   2.16374E-20
    266.19962   2.14982E-20
    266.31186   2.14515E-20
    266.42407   2.15357E-20
    266.53629   2.17471E-20
    266.64844   2.20777E-20
    266.76059   2.24853E-20
    266.87268   2.29143E-20
    266.98477   2.33769E-20
    267.09683   2.38846E-20
    267.20886   2.42977E-20
    267.32086   2.45094E-20
    267.43283   2.45101E-20
    267.54477   2.43494E-20
    267.65668   2.41726E-20
    267.76859   2.40558E-20
    267.88043   2.40587E-20
    267.99228   2.42541E-20
    268.10410   2.46915E-20
    268.21585   2.53829E-20
    268.32761   2.61499E-20
    268.43933   2.68935E-20
    268.55106   2.75483E-20
    268.66272   2.80996E-20
    268.77435   2.86102E-20
    268.88599   2.90533E-20
    268.99759   2.93765E-20
    269.10916   2.95685E-20
    269.22070   2.96051E-20
    269.33221   2.94726E-20
    269.44370   2.93086E-20
    269.55518   2.91394E-20
    269.66660   2.90003E-20
    269.77802   2.89190E-20
    269.88940   2.88931E-20
    270.00076   2.89083E-20
    270.11212   2.89466E-20
    270.22342   2.90199E-20
    270.33472   2.90730E-20
    270.44598   2.90790E-20
    270.55722   2.90389E-20
    270.66843   2.89601E-20
    270.77963   2.89266E-20
    270.89081   2.89810E-20
    271.00192   2.90714E-20
    271.11304   2.90381E-20
    271.22415   2.89248E-20
    271.33521   2.87781E-20
    271.44626   2.86835E-20
    271.55728   2.87203E-20
    271.66827   2.88073E-20
    271.77924   2.89917E-20
    271.89020   2.92534E-20
    272.00113   2.96722E-20
    272.11203   3.02359E-20
    272.22290   3.08213E-20
    272.33377   3.13842E-20
    272.44458   3.18407E-20
    272.55539   3.23019E-20
    272.66620   3.29090E-20
    272.77695   3.37058E-20
    272.88770   3.46470E-20
    272.99841   3.54869E-20
    273.10910   3.61450E-20
    273.21979   3.65592E-20
    273.33044   3.66986E-20
    273.44107   3.66347E-20
    273.55167   3.64707E-20
    273.66226   3.63160E-20
    273.77283   3.63506E-20
    273.88336   3.66401E-20
    273.99390   3.72058E-20
    274.10437   3.78061E-20
    274.21484   3.82729E-20
    274.32532   3.85638E-20
    274.43576   3.87561E-20
    274.54617   3.88736E-20
    274.65656   3.89125E-20
    274.76691   3.88691E-20
    274.87726   3.88066E-20
    274.98761   3.87327E-20
    275.09790   3.87082E-20
    275.20819   3.86225E-20
    275.31845   3.84901E-20
    275.42871   3.82851E-20
    275.53894   3.80648E-20
    275.64914   3.78729E-20
    275.75931   3.77303E-20
    275.86948   3.77365E-20
    275.97961   3.78223E-20
    276.08975   3.80349E-20
    276.19986   3.83411E-20
    276.30994   3.87749E-20
    276.42001   3.92603E-20
    276.53006   3.97430E-20
    276.64008   4.02045E-20
    276.75009   4.06697E-20
    276.86008   4.10671E-20
    276.97003   4.13789E-20
    277.07999   4.15411E-20
    277.18991   4.16866E-20
    277.29984   4.17591E-20
    277.40973   4.18202E-20
    277.51959   4.18542E-20
    277.62946   4.19378E-20
    277.73929   4.21641E-20
    277.84909   4.26019E-20
    277.95889   4.31772E-20
    278.06870   4.37708E-20
    278.17844   4.43143E-20
    278.28818   4.47363E-20
    278.39792   4.50315E-20
    278.50763   4.52271E-20
    278.61731   4.54962E-20
    278.72699   4.59154E-20
    278.83664   4.65215E-20
    278.94626   4.73883E-20
    279.05588   4.84661E-20
    279.16550   4.96138E-20
    279.27505   5.07916E-20
    279.38464   5.17383E-20
    279.49417   5.22215E-20
    279.60373   5.22844E-20
    279.71323   5.21374E-20
    279.82272   5.19101E-20
    279.93222   5.15874E-20
    280.04166   5.11769E-20
    280.15112   5.06928E-20
    280.26056   5.03215E-20
    280.36996   5.02539E-20
    280.47937   5.06203E-20
    280.58875   5.12724E-20
    280.69809   5.19081E-20
    280.80746   5.23540E-20
    280.91678   5.26607E-20
    281.02609   5.29789E-20
    281.13541   5.34029E-20
    281.24469   5.40027E-20
    281.35394   5.45915E-20
    281.46320   5.50747E-20
    281.57245   5.53122E-20
    281.68167   5.50945E-20
    281.79086   5.43697E-20
    281.90005   5.33831E-20
    282.00922   5.24498E-20
    282.11838   5.17385E-20
    282.22754   5.12467E-20
    282.33667   5.09325E-20
    282.44577   5.08134E-20
    282.55487   5.08960E-20
    282.66397   5.11474E-20
    282.77301   5.15861E-20
    282.88208   5.22292E-20
    282.99112   5.31664E-20
    283.10016   5.44185E-20
    283.20917   5.55952E-20
    283.31815   5.64731E-20
    283.42712   5.70833E-20
    283.53610   5.77154E-20
    283.64505   5.86182E-20
    283.75400   5.98675E-20
    283.86292   6.11273E-20
    283.97183   6.20993E-20
    284.08072   6.26553E-20
    284.18961   6.28945E-20
    284.29846   6.30261E-20
    284.40732   6.31730E-20
    284.51617   6.34843E-20
    284.62500   6.39775E-20
    284.73383   6.46260E-20
    284.84262   6.52982E-20
    284.95142   6.58853E-20
    285.06018   6.63865E-20
    285.16895   6.67818E-20
    285.27771   6.72219E-20
    285.38644   6.77996E-20
    285.49515   6.84189E-20
    285.60388   6.90488E-20
    285.71255   6.96733E-20
    285.82126   7.03002E-20
    285.92993   7.07647E-20
    286.03857   7.10363E-20
    286.14725   7.11431E-20
    286.25586   7.11790E-20
    286.36450   7.11322E-20
    286.47311   7.09831E-20
    286.58170   7.06313E-20
    286.69028   7.01264E-20
    286.79886   6.95491E-20
    286.90741   6.90093E-20
    287.01596   6.86113E-20
    287.12451   6.83504E-20
    287.23303   6.82430E-20
    287.34155   6.83681E-20
    287.45004   6.87512E-20
    287.55853   6.92254E-20
    287.66702   6.95950E-20
    287.77548   6.96274E-20
    287.88394   6.93614E-20
    287.99240   6.91416E-20
    288.10083   6.91865E-20
    288.20926   6.94998E-20
    288.31766   7.00383E-20
    288.42606   7.07010E-20
    288.53445   7.13695E-20
    288.64282   7.20339E-20
    288.75119   7.26956E-20
    288.85956   7.33971E-20
    288.96790   7.40402E-20
    289.07623   7.45553E-20
    289.18457   7.49905E-20
    289.29288   7.54944E-20
    289.40118   7.61467E-20
    289.50949   7.70054E-20
    289.61777   7.80255E-20
    289.72604   7.90563E-20
    289.83432   7.99443E-20
    289.94257   8.06148E-20
    290.05081   8.09452E-20
    290.15903   8.08928E-20
    290.26727   8.06878E-20
    290.37549   8.03602E-20
    290.48367   7.99166E-20
    290.59189   7.98199E-20
    290.70007   8.00137E-20
    290.80823   8.04899E-20
    290.91641   8.15360E-20
    291.02457   8.30706E-20
    291.13272   8.44361E-20
    291.24084   8.58521E-20
    291.34897   8.69260E-20
    291.45709   8.76983E-20
    291.56522   8.83423E-20
    291.67331   8.86762E-20
    291.78140   8.90352E-20
    291.88950   8.93939E-20
    291.99756   8.97978E-20
    292.10562   9.07387E-20
    292.21368   9.16315E-20
    292.32172   9.28788E-20
    292.42978   9.39546E-20
    292.53781   9.43394E-20
    292.64581   9.37772E-20
    292.75385   9.26555E-20
    292.86185   9.12362E-20
    292.96985   8.99251E-20
    293.07782   8.87403E-20
    293.18582   8.78465E-20
    293.29379   8.72674E-20
    293.40173   8.66960E-20
    293.50970   8.61620E-20
    293.61765   8.58324E-20
    293.72559   8.55920E-20
    293.83353   8.57624E-20
    293.94144   8.61330E-20
    294.04938   8.66356E-20
    294.15729   8.76264E-20
    294.26517   8.93134E-20
    294.37308   9.15534E-20
    294.48096   9.39611E-20
    294.58884   9.58103E-20
    294.69672   9.74107E-20
    294.80457   9.85742E-20
    294.91241   9.90338E-20
    295.02026   9.83404E-20
    295.12811   9.69236E-20
    295.23596   9.48748E-20
    295.34378   9.30569E-20
    295.45160   9.11987E-20
    295.55942   9.01730E-20
    295.66724   8.96648E-20
    295.77502   8.96064E-20
    295.88281   9.04883E-20
    295.99060   9.21119E-20
    296.09839   9.42525E-20
    296.20618   9.67488E-20
    296.31393   9.92368E-20
    296.42169   1.01655E-19
    296.52945   1.03930E-19
    296.63718   1.06191E-19
    296.74493   1.08013E-19
    296.85266   1.10040E-19
    296.96039   1.12381E-19
    297.06812   1.14858E-19
    297.17584   1.17504E-19
    297.28354   1.20054E-19
    297.39124   1.21642E-19
    297.49893   1.22253E-19
    297.60663   1.21688E-19
    297.71432   1.20230E-19
    297.82199   1.17881E-19
    297.92969   1.15257E-19
    298.03735   1.12971E-19
    298.14502   1.11379E-19
    298.25266   1.10340E-19
    298.36032   1.09748E-19
    298.46796   1.09574E-19
    298.57562   1.09628E-19
    298.68326   1.09657E-19
    298.79086   1.09995E-19
    298.89850   1.10769E-19
    299.00610   1.11971E-19
    299.11374   1.13297E-19
    299.22134   1.14646E-19
    299.32895   1.15689E-19
    299.43655   1.16791E-19
    299.54413   1.17720E-19
    299.65173   1.18521E-19
    299.75931   1.19011E-19
    299.86688   1.18632E-19
    299.97446   1.17521E-19
    300.08203   1.16030E-19
    300.18958   1.14815E-19
    300.29715   1.14054E-19
    300.40469   1.14142E-19
    300.51224   1.14799E-19
    300.61978   1.15620E-19
    300.72733   1.16258E-19
    300.83487   1.16622E-19
    300.94238   1.16505E-19
    301.04993   1.16155E-19
    301.15744   1.16216E-19
    301.26495   1.17039E-19
    301.37247   1.18607E-19
    301.47998   1.20863E-19
    301.58749   1.23456E-19
    301.69498   1.26005E-19
    301.80249   1.28549E-19
    301.90997   1.31136E-19
    302.01746   1.33586E-19
    302.12494   1.35464E-19
    302.23242   1.36725E-19
    302.33990   1.37378E-19
    302.44739   1.37627E-19
    302.55484   1.37864E-19
    302.66232   1.38635E-19
    302.76978   1.40272E-19
    302.87723   1.42739E-19
    302.98468   1.45450E-19
    303.09213   1.47563E-19
    303.19958   1.48860E-19
    303.30704   1.49285E-19
    303.41446   1.49096E-19
    303.52191   1.48649E-19
    303.62933   1.48015E-19
    303.73676   1.47160E-19
    303.84418   1.46431E-19
    303.95160   1.46023E-19
    304.05902   1.45774E-19
    304.16644   1.45851E-19
    304.27386   1.46527E-19
    304.38126   1.47518E-19
    304.48868   1.48395E-19
    304.59607   1.49090E-19
    304.70346   1.50018E-19
    304.81088   1.51392E-19
    304.91827   1.52588E-19
    305.02567   1.52935E-19
    305.13306   1.52472E-19
    305.24042   1.51634E-19
    305.34781   1.50596E-19
    305.45520   1.49423E-19
    305.56259   1.48253E-19
    305.66995   1.47258E-19
    305.77731   1.46438E-19
    305.88470   1.45995E-19
    305.99207   1.46047E-19
    306.09943   1.46531E-19
    306.20679   1.47505E-19
    306.31415   1.49021E-19
    306.42151   1.50807E-19
    306.52884   1.52510E-19
    306.63620   1.54134E-19
    306.74356   1.55861E-19
    306.85089   1.57863E-19
    306.95825   1.60136E-19
    307.06558   1.61767E-19
    307.17291   1.62385E-19
    307.28027   1.62532E-19
    307.38760   1.62450E-19
    307.49493   1.61793E-19
    307.60226   1.60455E-19
    307.70959   1.58758E-19
    307.81693   1.57308E-19
    307.92426   1.56202E-19
    308.03156   1.55370E-19
    308.13889   1.54714E-19
    308.24622   1.54296E-19
    308.35352   1.54680E-19
    308.46085   1.56303E-19
    308.56815   1.59026E-19
    308.67545   1.62830E-19
    308.78278   1.67609E-19
    308.89008   1.72670E-19
    308.99738   1.76699E-19
    309.10468   1.79267E-19
    309.21201   1.80681E-19
    309.31931   1.81654E-19
    309.42661   1.82256E-19
    309.53387   1.82079E-19
    309.64117   1.80685E-19
    309.74847   1.78500E-19
    309.85577   1.76006E-19
    309.96307   1.73906E-19
    310.07034   1.72629E-19
    310.17764   1.72284E-19
    310.28494   1.72506E-19
    310.39221   1.73433E-19
    310.49951   1.75092E-19
    310.60678   1.77350E-19
    310.71408   1.79877E-19
    310.82135   1.81633E-19
    310.92862   1.82467E-19
    311.03592   1.83113E-19
    311.14319   1.84051E-19
    311.25046   1.85651E-19
    311.35773   1.87614E-19
    311.46503   1.89060E-19
    311.57230   1.89241E-19
    311.67957   1.88388E-19
    311.78683   1.87088E-19
    311.89410   1.86590E-19
    312.00137   1.87869E-19
    312.10864   1.90653E-19
    312.21591   1.94369E-19
    312.32318   1.98187E-19
    312.43045   2.00768E-19
    312.53772   2.01538E-19
    312.64499   2.01103E-19
    312.75223   2.00210E-19
    312.85950   1.98908E-19
    312.96677   1.97346E-19
    313.07404   1.95811E-19
    313.18127   1.94117E-19
    313.28854   1.92432E-19
    313.39581   1.90393E-19
    313.50305   1.88425E-19
    313.61292   1.90287E-19
    313.72931   1.90431E-19
    313.84567   1.90984E-19
    313.96204   1.91872E-19
    314.07837   1.93244E-19
    314.19467   1.95004E-19
    314.31094   1.97838E-19
    314.42722   2.01204E-19
    314.54349   2.05087E-19
    314.65970   2.09008E-19
    314.77591   2.12446E-19
    314.89212   2.15156E-19
    315.00827   2.16558E-19
    315.12445   2.16165E-19
    315.24057   2.14555E-19
    315.35669   2.12518E-19
    315.47278   2.10907E-19
    315.58887   2.09653E-19
    315.70493   2.08668E-19
    315.82095   2.07668E-19
    315.93698   2.06672E-19
    316.05298   2.06081E-19
    316.16898   2.05534E-19
    316.28494   2.05435E-19
    316.40088   2.06165E-19
    316.51682   2.07801E-19
    316.63272   2.10070E-19
    316.74860   2.12717E-19
    316.86447   2.15765E-19
    316.98032   2.18816E-19
    317.09616   2.22174E-19
    317.21198   2.25765E-19
    317.32776   2.30122E-19
    317.44354   2.34617E-19
    317.55930   2.38015E-19
    317.67505   2.40094E-19
    317.79077   2.40640E-19
    317.90646   2.40320E-19
    318.02216   2.39847E-19
    318.13782   2.39421E-19
    318.25348   2.38542E-19
    318.36911   2.36688E-19
    318.48471   2.34396E-19
    318.60031   2.31989E-19
    318.71591   2.30108E-19
    318.83145   2.28571E-19
    318.94699   2.27955E-19
    319.06253   2.27657E-19
    319.17804   2.27625E-19
    319.29352   2.27903E-19
    319.40900   2.29176E-19
    319.52444   2.31772E-19
    319.63989   2.35878E-19
    319.75531   2.40653E-19
    319.87070   2.45318E-19
    319.98608   2.49442E-19
    320.10144   2.52597E-19
    320.21680   2.55161E-19
    320.33212   2.56308E-19
    320.44745   2.55352E-19
    320.56274   2.52321E-19
    320.67801   2.48211E-19
    320.79327   2.44546E-19
    320.90854   2.42324E-19
    321.02374   2.41309E-19
    321.13898   2.40489E-19
    321.25415   2.39482E-19
    321.36932   2.38718E-19
    321.48450   2.38953E-19
    321.59964   2.40138E-19
    321.71475   2.42362E-19
    321.82986   2.45363E-19
    321.94498   2.48525E-19
    322.06003   2.51472E-19
    322.17511   2.54064E-19
    322.29013   2.56430E-19
    322.40515   2.58970E-19
    322.52017   2.61351E-19
    322.63516   2.63234E-19
    322.75012   2.64562E-19
    322.86508   2.64942E-19
    322.98004   2.64727E-19
    323.09497   2.64382E-19
    323.20987   2.63765E-19
    323.32477   2.62958E-19
    323.43964   2.62144E-19
    323.55450   2.61542E-19
    323.66934   2.61043E-19
    323.78415   2.60543E-19
    323.89899   2.59088E-19
    324.01376   2.57518E-19
    324.12854   2.57100E-19
    324.24332   2.57092E-19
    324.35806   2.57593E-19
    324.47278   2.59202E-19
    324.58749   2.61821E-19
    324.70221   2.65051E-19
    324.81686   2.69115E-19
    324.93155   2.74517E-19
    325.04620   2.79874E-19
    325.16083   2.84353E-19
    325.27545   2.87612E-19
    325.39005   2.89161E-19
    325.50464   2.88585E-19
    325.61920   2.86777E-19
    325.73376   2.84913E-19
    325.84830   2.84047E-19
    325.96283   2.84034E-19
    326.07733   2.84264E-19
    326.19183   2.85801E-19
    326.30630   2.88675E-19
    326.42078   2.91153E-19
    326.53522   2.91481E-19
    326.64966   2.89555E-19
    326.76407   2.87339E-19
    326.87848   2.85168E-19
    326.99286   2.83156E-19
    327.10724   2.82206E-19
    327.22159   2.82837E-19
    327.33591   2.85263E-19
    327.45026   2.89206E-19
    327.56454   2.92939E-19
    327.67886   2.95702E-19
    327.79312   2.97987E-19
    327.90741   2.99182E-19
    328.02164   2.98093E-19
    328.13589   2.95816E-19
    328.25009   2.93465E-19
    328.36432   2.91464E-19
    328.47849   2.89682E-19
    328.59268   2.88292E-19
    328.70685   2.87640E-19
    328.82098   2.88992E-19
    328.93512   2.92235E-19
    329.04922   2.96449E-19
    329.16333   3.00197E-19
    329.27744   3.03709E-19
    329.39151   3.07864E-19
    329.50555   3.12029E-19
    329.61960   3.15242E-19
    329.73364   3.17135E-19
    329.84766   3.17940E-19
    329.96164   3.16635E-19
    330.07562   3.12925E-19
    330.18961   3.08163E-19
    330.30356   3.03601E-19
    330.41751   3.00338E-19
    330.53143   2.99244E-19
    330.64536   2.99512E-19
    330.75925   3.00449E-19
    330.87314   3.01986E-19
    330.98703   3.04124E-19
    331.10089   3.05800E-19
    331.21472   3.07321E-19
    331.32855   3.08377E-19
    331.44238   3.08562E-19
    331.55618   3.08748E-19
    331.66998   3.08630E-19
    331.78375   3.07806E-19
    331.89752   3.07256E-19
    332.01126   3.08064E-19
    332.12500   3.10863E-19
    332.23871   3.16925E-19
    332.35242   3.26161E-19
    332.46613   3.36848E-19
    332.57980   3.47296E-19
    332.69348   3.57867E-19
    332.80713   3.67184E-19
    332.92078   3.73280E-19
    333.03439   3.74877E-19
    333.14801   3.71875E-19
    333.26160   3.64892E-19
    333.37518   3.55271E-19
    333.48877   3.46139E-19
    333.60233   3.39162E-19
    333.71588   3.33646E-19
    333.82941   3.27971E-19
    333.94293   3.21282E-19
    334.05643   3.14376E-19
    334.16992   3.10241E-19
    334.28342   3.09446E-19
    334.39688   3.11203E-19
    334.51031   3.14871E-19
    334.62378   3.21196E-19
    334.73718   3.31059E-19
    334.85062   3.43868E-19
    334.96402   3.54668E-19
    335.07739   3.57639E-19
    335.19077   3.52676E-19
    335.30414   3.45366E-19
    335.41748   3.39531E-19
    335.53082   3.35201E-19
    335.64417   3.32283E-19
    335.75748   3.31883E-19
    335.87076   3.33847E-19
    335.98407   3.37681E-19
    336.09732   3.42620E-19
    336.21060   3.47152E-19
    336.32385   3.50294E-19
    336.43707   3.51835E-19
    336.55032   3.52448E-19
    336.66351   3.53284E-19
    336.77673   3.54145E-19
    336.88992   3.53315E-19
    337.00308   3.49802E-19
    337.11624   3.45582E-19
    337.22940   3.41277E-19
    337.34253   3.36369E-19
    337.45566   3.32119E-19
    337.56879   3.29381E-19
    337.68188   3.27178E-19
    337.79495   3.26138E-19
    337.90805   3.28017E-19
    338.02112   3.34410E-19
    338.13416   3.44594E-19
    338.24719   3.58177E-19
    338.36023   3.73182E-19
    338.47324   3.86512E-19
    338.58624   3.94573E-19
    338.69925   3.98300E-19
    338.81223   4.00782E-19
    338.92520   4.02478E-19
    339.03815   4.02583E-19
    339.15109   4.00609E-19
    339.26404   3.96102E-19
    339.37695   3.89993E-19
    339.48987   3.83611E-19
    339.60275   3.78611E-19
    339.71564   3.75789E-19
    339.82852   3.75556E-19
    339.94138   3.76427E-19
    340.05423   3.77883E-19
    340.16708   3.79281E-19
    340.27991   3.80874E-19
    340.39273   3.82717E-19
    340.50552   3.85094E-19
    340.61832   3.88082E-19
    340.73111   3.92677E-19
    340.84387   3.99350E-19
    340.95663   4.07154E-19
    341.06940   4.13869E-19
    341.18213   4.18267E-19
    341.29486   4.19518E-19
    341.40756   4.18427E-19
    341.52026   4.15536E-19
    341.63297   4.12350E-19
    341.74564   4.08887E-19
    341.85831   4.02502E-19
    341.97098   3.93553E-19
    342.08362   3.84470E-19
    342.19626   3.76608E-19
    342.30890   3.70011E-19
    342.42151   3.64904E-19
    342.53412   3.61263E-19
    342.64670   3.57463E-19
    342.75928   3.53345E-19
    342.87186   3.50683E-19
    342.98441   3.49976E-19
    343.09695   3.51217E-19
    343.20950   3.56606E-19
    343.32202   3.65561E-19
    343.43454   3.74291E-19
    343.54706   3.80754E-19
    343.65955   3.84767E-19
    343.77203   3.87632E-19
    343.88452   3.88869E-19
    343.99698   3.88567E-19
    344.10944   3.87306E-19
    344.22186   3.85556E-19
    344.33429   3.84864E-19
    344.44672   3.86247E-19
    344.55914   3.90058E-19
    344.67154   3.94520E-19
    344.78394   3.97414E-19
    344.89630   3.99029E-19
    345.00867   4.00257E-19
    345.12103   4.01548E-19
    345.23337   4.02809E-19
    345.34570   4.01865E-19
    345.45804   3.99156E-19
    345.57034   3.97584E-19
    345.68268   3.99951E-19
    345.79495   4.05609E-19
    345.90726   4.13705E-19
    346.01953   4.22131E-19
    346.13177   4.28493E-19
    346.24405   4.32345E-19
    346.35629   4.34619E-19
    346.46854   4.37702E-19
    346.58075   4.41334E-19
    346.69296   4.43572E-19
    346.80518   4.42695E-19
    346.91736   4.38602E-19
    347.02957   4.33008E-19
    347.14172   4.27307E-19
    347.25391   4.23892E-19
    347.36606   4.21336E-19
    347.47821   4.19717E-19
    347.59033   4.19725E-19
    347.70245   4.22238E-19
    347.81458   4.28683E-19
    347.92670   4.40892E-19
    348.03879   4.61969E-19
    348.15088   4.87602E-19
    348.26294   5.07015E-19
    348.37503   5.17305E-19
    348.48709   5.16736E-19
    348.59912   5.06426E-19
    348.71118   4.93991E-19
    348.82318   4.81566E-19
    348.93521   4.68371E-19
    349.04724   4.52453E-19
    349.15924   4.34319E-19
    349.27121   4.17646E-19
    349.38321   4.05835E-19
    349.49518   3.99470E-19
    349.60715   3.96471E-19
    349.71909   3.94723E-19
    349.83102   3.95159E-19
    349.94296   3.97928E-19
    350.05490   4.01486E-19
    350.16681   4.05462E-19
    350.27872   4.10979E-19
    350.39063   4.19688E-19
    350.50250   4.28176E-19
    350.61438   4.34044E-19
    350.72626   4.38965E-19
    350.83810   4.43846E-19
    350.94998   4.47590E-19
    351.06180   4.51319E-19
    351.17365   4.53834E-19
    351.28546   4.51863E-19
    351.39728   4.46412E-19
    351.50909   4.37670E-19
    351.62088   4.26980E-19
    351.73267   4.18834E-19
    351.84445   4.16699E-19
    351.95624   4.21195E-19
    352.06799   4.30208E-19
    352.17975   4.38999E-19
    352.29150   4.41462E-19
    352.40323   4.39358E-19
    352.51495   4.33085E-19
    352.62668   4.22979E-19
    352.73837   4.10579E-19
    352.85010   3.99916E-19
    352.96176   3.94193E-19
    353.07346   3.93967E-19
    353.18512   3.96771E-19
    353.29678   4.02982E-19
    353.40845   4.12150E-19
    353.52011   4.23040E-19
    353.63174   4.35285E-19
    353.74338   4.50652E-19
    353.85498   4.66647E-19
    353.96661   4.81341E-19
    354.07822   4.98232E-19
    354.18982   5.15398E-19
    354.30139   5.28263E-19
    354.41296   5.34193E-19
    354.52454   5.34363E-19
    354.63611   5.30823E-19
    354.74765   5.24947E-19
    354.85919   5.16787E-19
    354.97073   5.05435E-19
    355.08228   4.93498E-19
    355.19379   4.81811E-19
    355.30530   4.71179E-19
    355.41681   4.62366E-19
    355.52829   4.55350E-19
    355.63980   4.48221E-19
    355.75128   4.42330E-19
    355.86273   4.39661E-19
    355.97421   4.41463E-19
    356.08566   4.47066E-19
    356.19711   4.53885E-19
    356.30853   4.60610E-19
    356.41998   4.68007E-19
    356.53140   4.78416E-19
    356.64279   4.91778E-19
    356.75421   5.06013E-19
    356.86560   5.19446E-19
    356.97699   5.32750E-19
    357.08838   5.42961E-19
    357.19977   5.47476E-19
    357.31113   5.45304E-19
    357.42249   5.40106E-19
    357.53381   5.34480E-19
    357.64517   5.24768E-19
    357.75650   5.15122E-19
    357.86783   5.09301E-19
    357.97916   5.04676E-19
    358.09045   4.98087E-19
    358.20175   4.92205E-19
    358.31305   4.86742E-19
    358.42435   4.80707E-19
    358.53561   4.74436E-19
    358.64688   4.68559E-19
    358.75815   4.62747E-19
    358.86942   4.55986E-19
    358.98065   4.49000E-19
    359.09189   4.46263E-19
    359.20313   4.47790E-19
    359.31436   4.49372E-19
    359.42557   4.50094E-19
    359.53680   4.49748E-19
    359.64798   4.49821E-19
    359.75919   4.49611E-19
    359.87036   4.48329E-19
    359.98157   4.48274E-19
    360.09271   4.52482E-19
    360.20389   4.61438E-19
    360.31506   4.71383E-19
    360.42621   4.81134E-19
    360.53735   4.90628E-19
    360.64847   5.01822E-19
    360.75961   5.10771E-19
    360.87073   5.16077E-19
    360.98184   5.18760E-19
    361.09293   5.18934E-19
    361.20404   5.16931E-19
    361.31512   5.11561E-19
    361.42621   5.05315E-19
    361.53729   4.98643E-19
    361.64835   4.93241E-19
    361.75943   4.90227E-19
    361.87048   4.88745E-19
    361.98151   4.89555E-19
    362.09256   4.92353E-19
    362.20358   4.96054E-19
    362.31461   4.99091E-19
    362.42563   5.00599E-19
    362.53665   5.02587E-19
    362.64764   5.02303E-19
    362.75864   5.01655E-19
    362.86963   5.03091E-19
    362.98062   5.03669E-19
    363.09158   5.01846E-19
    363.20255   4.98192E-19
    363.31351   4.96420E-19
    363.42447   4.93911E-19
    363.53543   4.88251E-19
    363.64636   4.81272E-19
    363.75729   4.76035E-19
    363.86823   4.75646E-19
    363.97913   4.81476E-19
    364.09006   4.90402E-19
    364.20096   5.00185E-19
    364.31186   5.08958E-19
    364.42273   5.17172E-19
    364.53363   5.26331E-19
    364.64450   5.37262E-19
    364.75537   5.46305E-19
    364.86624   5.52894E-19
    364.97708   5.61929E-19
    365.08795   5.73927E-19
    365.19879   5.84259E-19
    365.30963   5.90205E-19
    365.42044   5.87780E-19
    365.53128   5.83940E-19
    365.64209   5.79007E-19
    365.75290   5.68476E-19
    365.86371   5.56936E-19
    365.97449   5.44647E-19
    366.08530   5.30280E-19
    366.19608   5.15057E-19
    366.30685   5.02411E-19
    366.41760   4.94299E-19
    366.52838   4.90125E-19
    366.63913   4.89806E-19
    366.74988   4.92632E-19
    366.86063   4.99471E-19
    366.97137   5.09478E-19
    367.08209   5.19196E-19
    367.19281   5.30126E-19
    367.30353   5.40695E-19
    367.41425   5.44952E-19
    367.52496   5.43923E-19
    367.63565   5.41044E-19
    367.74634   5.38120E-19
    367.85703   5.37735E-19
    367.96771   5.37298E-19
    368.07837   5.33942E-19
    368.18903   5.29431E-19
    368.29968   5.24548E-19
    368.41034   5.21726E-19
    368.52100   5.19667E-19
    368.63162   5.15022E-19
    368.74225   5.09728E-19
    368.85287   5.11111E-19
    368.96350   5.15045E-19
    369.07413   5.19466E-19
    369.18472   5.25531E-19
    369.29532   5.28300E-19
    369.40591   5.26997E-19
    369.51651   5.25084E-19
    369.62711   5.23166E-19
    369.73767   5.20985E-19
    369.84824   5.20830E-19
    369.95880   5.26645E-19
    370.06937   5.30126E-19
    370.17990   5.28969E-19
    370.29047   5.25170E-19
    370.40100   5.19627E-19
    370.51154   5.11778E-19
    370.62204   5.02963E-19
    370.73257   4.94391E-19
    370.84308   4.90075E-19
    370.95358   4.93831E-19
    371.06409   5.04109E-19
    371.17459   5.12950E-19
    371.28506   5.18490E-19
    371.39557   5.29022E-19
    371.50604   5.42833E-19
    371.61652   5.58342E-19
    371.72699   5.72580E-19
    371.83743   5.82695E-19
    371.94788   5.91113E-19
    372.05832   5.93802E-19
    372.16876   5.90903E-19
    372.27921   5.90183E-19
    372.38965   5.92673E-19
    372.50006   5.91558E-19
    372.61047   5.86032E-19
    372.72089   5.76013E-19
    372.83130   5.64093E-19
    372.94168   5.53191E-19
    373.05209   5.44899E-19
    373.16248   5.38814E-19
    373.27286   5.33750E-19
    373.38324   5.29163E-19
    373.49359   5.24249E-19
    373.60397   5.24288E-19
    373.71432   5.28831E-19
    373.82468   5.36183E-19
    373.93503   5.40968E-19
    374.04535   5.38023E-19
    374.15570   5.32847E-19
    374.26602   5.25964E-19
    374.37634   5.14783E-19
    374.48666   5.06367E-19
    374.59695   5.03851E-19
    374.70728   5.05187E-19
    374.81757   5.09569E-19
    374.92786   5.17339E-19
    375.03815   5.30215E-19
    375.14844   5.47353E-19
    375.25870   5.61247E-19
    375.36899   5.71023E-19
    375.47925   5.77045E-19
    375.58951   5.81036E-19
    375.69977   5.84240E-19
    375.81000   5.86593E-19
    375.92026   5.90573E-19
    376.03049   6.07455E-19
    376.14072   6.27335E-19
    376.25095   6.40283E-19
    376.36115   6.41158E-19
    376.47137   6.33440E-19
    376.58157   6.23244E-19
    376.69177   6.12776E-19
    376.80197   5.98575E-19
    376.91217   5.81064E-19
    377.02234   5.65726E-19
    377.13254   5.53793E-19
    377.24271   5.40492E-19
    377.35287   5.27017E-19
    377.46304   5.16675E-19
    377.57318   5.14163E-19
    377.68335   5.13768E-19
    377.79349   5.14812E-19
    377.90363   5.19887E-19
    378.01376   5.19303E-19
    378.12390   5.12956E-19
    378.23401   5.08655E-19
    378.34412   5.10137E-19
    378.45425   5.15190E-19
    378.56436   5.17703E-19
    378.67444   5.19928E-19
    378.78455   5.25026E-19
    378.89462   5.29853E-19
    379.00473   5.36340E-19
    379.11481   5.44551E-19
    379.22488   5.55894E-19
    379.33493   5.70564E-19
    379.44501   5.89818E-19
    379.55505   6.07594E-19
    379.66510   6.20154E-19
    379.77515   6.24575E-19
    379.88519   6.23485E-19
    379.99524   6.16701E-19
    380.10526   6.07372E-19
    380.21530   6.02709E-19
    380.32532   6.01378E-19
    380.43533   6.00447E-19
    380.54532   6.01328E-19
    380.65533   6.00543E-19
    380.76535   5.96070E-19
    380.87534   5.87624E-19
    380.98532   5.80254E-19
    381.09531   5.76018E-19
    381.20526   5.72726E-19
    381.31525   5.70010E-19
    381.42520   5.68000E-19
    381.53516   5.67921E-19
    381.64511   5.71744E-19
    381.75507   5.72595E-19
    381.86502   5.68161E-19
    381.97495   5.66199E-19
    382.08490   5.68906E-19
    382.19482   5.66547E-19
    382.30475   5.52695E-19
    382.41464   5.36541E-19
    382.52457   5.28550E-19
    382.63446   5.29808E-19
    382.74438   5.37059E-19
    382.85428   5.38644E-19
    382.96417   5.36594E-19
    383.07404   5.39389E-19
    383.18393   5.47388E-19
    383.29379   5.54584E-19
    383.40366   5.54484E-19
    383.51352   5.53424E-19
    383.62338   5.58246E-19
    383.73325   5.70168E-19
    383.84308   5.80303E-19
    383.95294   5.86209E-19
    384.06277   5.82306E-19
    384.17261   5.75798E-19
    384.28244   5.79157E-19
    384.39224   5.90045E-19
    384.50208   6.00096E-19
    384.61188   6.04219E-19
    384.72168   6.11625E-19
    384.83148   6.14709E-19
    384.94128   6.03070E-19
    385.05109   5.90148E-19
    385.16086   5.79127E-19
    385.27063   5.76762E-19
    385.38040   5.78897E-19
    385.49017   5.80301E-19
    385.59995   5.91179E-19
    385.70972   6.02041E-19
    385.81946   5.93028E-19
    385.92920   5.77380E-19
    386.03894   5.62201E-19
    386.14868   5.52411E-19
    386.25842   5.43039E-19
    386.36816   5.36705E-19
    386.47787   5.34924E-19
    386.58759   5.38299E-19
    386.69730   5.46875E-19
    386.80701   5.57766E-19
    386.91672   5.68848E-19
    387.02640   5.74564E-19
    387.13611   5.79963E-19
    387.24579   5.83784E-19
    387.35547   5.88366E-19
    387.46515   5.91580E-19
    387.57480   5.91186E-19
    387.68448   5.92397E-19
    387.79416   5.95770E-19
    387.90381   5.96540E-19
    388.01346   5.90932E-19
    388.12311   5.84323E-19
    388.23273   5.79186E-19
    388.34238   5.73958E-19
    388.45200   5.71905E-19
    388.56161   5.72280E-19
    388.67123   5.76483E-19
    388.78085   5.82901E-19
    388.89047   5.92769E-19
    389.00006   6.06958E-19
    389.10968   6.16550E-19
    389.21927   6.17856E-19
    389.32886   6.12187E-19
    389.43842   6.06638E-19
    389.54800   5.95632E-19
    389.65759   5.86394E-19
    389.76715   5.86570E-19
    389.87671   5.92226E-19
    389.98627   5.97237E-19
    390.09583   5.97901E-19
    390.20535   6.02158E-19
    390.31491   6.06138E-19
    390.42444   6.00389E-19
    390.53397   5.92189E-19
    390.64349   5.86534E-19
    390.75302   5.82921E-19
    390.86255   5.81044E-19
    390.97205   5.83925E-19
    391.08154   5.89175E-19
    391.19104   5.91858E-19
    391.30054   5.91625E-19
    391.41003   5.93994E-19
    391.51953   6.14614E-19
    391.62900   6.38454E-19
    391.73846   6.56790E-19
    391.84793   6.57576E-19
    391.95740   6.38061E-19
    392.06686   6.16299E-19
    392.17633   6.03988E-19
    392.28577   6.02544E-19
    392.39520   6.03004E-19
    392.50464   6.00846E-19
    392.61407   6.01149E-19
    392.72351   5.98157E-19
    392.83295   5.89139E-19
    392.94235   5.70594E-19
    393.05176   5.51516E-19
    393.16116   5.37623E-19
    393.27057   5.33326E-19
    393.37997   5.34435E-19
    393.48938   5.45319E-19
    393.59875   5.52627E-19
    393.70813   5.55757E-19
    393.81750   5.53749E-19
    393.92688   5.52477E-19
    394.03625   5.51402E-19
    394.14560   5.43966E-19
    394.25497   5.37868E-19
    394.36432   5.37931E-19
    394.47366   5.37607E-19
    394.58301   5.37181E-19
    394.69232   5.40625E-19
    394.80167   5.52459E-19
    394.91098   5.66545E-19
    395.02032   5.74942E-19
    395.12964   5.87369E-19
    395.23892   6.03701E-19
    395.34824   6.20821E-19
    395.45755   6.30062E-19
    395.56683   6.24230E-19
    395.67612   6.25282E-19
    395.78540   6.32020E-19
    395.89468   6.33048E-19
    396.00394   6.16899E-19
    396.11322   5.99144E-19
    396.22247   5.84380E-19
    396.33173   5.74292E-19
    396.44098   5.61201E-19
    396.55023   5.52368E-19
    396.65948   5.45751E-19
    396.76871   5.44542E-19
    396.87793   5.46385E-19
    396.98715   5.47724E-19
    397.09637   5.48519E-19
    397.20560   5.43729E-19
    397.31482   5.40744E-19
    397.42401   5.43742E-19
    397.53320   5.57802E-19
    397.64240   5.83639E-19
    397.75159   6.03881E-19
    397.86078   6.25215E-19
    397.96994   6.39762E-19
    398.07913   6.46563E-19
    398.18829   6.56215E-19
    398.29745   6.63900E-19
    398.40662   6.73125E-19
    398.51575   6.63874E-19
    398.62491   6.43616E-19
    398.73404   6.16304E-19
    398.84317   5.86895E-19
    398.95230   5.63767E-19
    399.06143   5.54622E-19
    399.17056   5.51031E-19
    399.27966   5.53484E-19
    399.38876   5.67959E-19
    399.49786   5.84152E-19
    399.60696   5.99538E-19
    399.71606   6.15008E-19
    399.82513   6.37410E-19
    399.93423   6.57466E-19
    400.04330   6.70196E-19
    400.15237   6.67165E-19
    400.26144   6.59705E-19
    400.37051   6.53677E-19
    400.47955   6.56999E-19
    400.58859   6.47938E-19
    400.69763   6.41826E-19
    400.80667   6.43945E-19
    400.91571   6.42924E-19
    401.02475   6.41145E-19
    401.13376   6.39426E-19
    401.24277   6.28774E-19
    401.35181   6.20825E-19
    401.46078   6.14611E-19
    401.56979   6.08460E-19
    401.67880   6.01802E-19
    401.78778   5.97887E-19
    401.89676   5.84897E-19
    402.00574   5.70225E-19
    402.11472   5.58242E-19
    402.22369   5.48948E-19
    402.33264   5.46665E-19
    402.44162   5.39506E-19
    402.55057   5.32106E-19
    402.65952   5.26709E-19
    402.76843   5.30230E-19
    402.87738   5.35104E-19
    402.98630   5.31126E-19
    403.09521   5.23349E-19
    403.20413   5.24526E-19
    403.31305   5.27975E-19
    403.42197   5.37272E-19
    403.53085   5.43748E-19
    403.63974   5.52732E-19
    403.74863   5.75600E-19
    403.85751   6.00922E-19
    403.96640   6.07935E-19
    404.07529   6.03443E-19
    404.18414   5.93128E-19
    404.29300   5.83128E-19
    404.40186   5.74451E-19
    404.51071   5.69848E-19
    404.61954   5.71963E-19
    404.72839   5.97445E-19
    404.83722   6.24093E-19
    404.94604   6.23943E-19
    405.05487   6.28520E-19
    405.16370   6.59611E-19
    405.31204   6.48861E-19
    405.52792   5.99983E-19
    405.74377   5.55933E-19
    405.95956   5.43393E-19
    406.17535   5.47949E-19
    406.39108   5.40906E-19
    406.60678   5.06368E-19
    406.82245   4.83285E-19
    407.03809   4.78874E-19
    407.25369   4.79220E-19
    407.46927   4.90149E-19
    407.68478   5.22614E-19
    407.90030   5.70585E-19
    408.11575   6.09002E-19
    408.33118   6.64971E-19
    408.54657   6.86621E-19
    408.76193   6.50044E-19
    408.97726   6.22146E-19
    409.19257   5.94629E-19
    409.40781   6.02845E-19
    409.62305   6.16007E-19
    409.83823   5.87110E-19
    410.05338   5.76912E-19
    410.26852   6.21640E-19
    410.48361   6.62352E-19
    410.69867   6.47283E-19
    410.91370   6.20569E-19
    411.12866   5.84219E-19
    411.34363   5.47771E-19
    411.55856   5.21767E-19
    411.77344   5.16981E-19
    411.98831   5.18564E-19
    412.20313   5.15378E-19
    412.41791   5.23909E-19
    412.63269   5.62801E-19
    412.84741   5.96834E-19
    413.06210   6.43336E-19
    413.27676   6.92787E-19
    413.49139   7.28565E-19
    413.70596   7.06600E-19
    413.92053   6.30449E-19
    414.13507   5.61073E-19
    414.34955   5.35817E-19
    414.56403   5.53316E-19
    414.77844   5.63971E-19
    414.99286   5.67812E-19
    415.20721   5.63357E-19
    415.42154   5.22792E-19
    415.63583   4.83540E-19
    415.85010   4.76101E-19
    416.06436   4.77001E-19
    416.27856   4.78251E-19
    416.49274   4.78758E-19
    416.70685   4.82534E-19
    416.92096   4.86327E-19
    417.13504   5.13308E-19
    417.34909   5.31373E-19
    417.56311   5.18728E-19
    417.77707   5.30076E-19
    417.99103   5.37372E-19
    418.20496   5.44644E-19
    418.41882   5.55342E-19
    418.63269   5.60794E-19
    418.84650   5.27249E-19
    419.06030   5.21469E-19
    419.27405   5.54815E-19
    419.48779   5.71692E-19
    419.70148   5.84305E-19
    419.91513   5.72804E-19
    420.12878   5.66288E-19
    420.34238   5.77074E-19
    420.55594   5.68029E-19
    420.76947   5.80715E-19
    420.98300   5.87377E-19
    421.19647   5.61780E-19
    421.40991   5.40654E-19
    421.62335   5.47780E-19
    421.83673   5.83665E-19
    422.05008   5.98337E-19
    422.26340   5.80185E-19
    422.47668   5.76098E-19
    422.68997   5.62077E-19
    422.90320   5.51627E-19
    423.11639   5.49822E-19
    423.32956   5.71977E-19
    423.54269   5.85629E-19
    423.75583   5.88780E-19
    423.96890   6.00285E-19
    424.18195   5.98107E-19
    424.39499   6.18631E-19
    424.60797   6.19497E-19
    424.82092   5.89841E-19
    425.03387   5.42800E-19
    425.24677   5.14246E-19
    425.45963   5.07398E-19
    425.67249   4.79569E-19
    425.88528   4.51665E-19
    426.09808   4.32597E-19
    426.31082   4.34196E-19
    426.52356   4.31081E-19
    426.73624   4.34391E-19
    426.94891   4.87397E-19
    427.16156   5.35649E-19
    427.37415   5.73946E-19
    427.58673   5.70834E-19
    427.79929   5.80406E-19
    428.01181   5.90838E-19
    428.22430   5.74890E-19
    428.43677   5.51477E-19
    428.64920   5.12047E-19
    428.86160   4.99004E-19
    429.07397   4.69294E-19
    429.28632   4.37980E-19
    429.49863   4.20105E-19
    429.71094   4.14412E-19
    429.92319   4.31423E-19
    430.13541   4.80719E-19
    430.34763   5.37257E-19
    430.55981   5.74341E-19
    430.77194   5.85577E-19
    430.98407   5.87193E-19
    431.19617   5.65647E-19
    431.40823   5.57753E-19
    431.62027   5.35583E-19
    431.83228   5.02991E-19
    432.04425   4.66171E-19
    432.25620   4.42259E-19
    432.46811   4.24619E-19
    432.68002   4.32251E-19
    432.89188   4.59035E-19
    433.10373   4.87777E-19
    433.31555   5.15358E-19
    433.52734   5.40042E-19
    433.73907   5.57521E-19
    433.95084   5.58347E-19
    434.16254   5.29423E-19
    434.37421   5.19990E-19
    434.58585   5.52111E-19
    434.79749   6.35450E-19
    435.00906   6.83983E-19
    435.22064   6.69136E-19
    435.43219   6.06988E-19
    435.64371   5.79826E-19
    435.85519   5.62704E-19
    436.06665   5.45590E-19
    436.27811   5.28408E-19
    436.48950   5.09303E-19
    436.70090   4.91432E-19
    436.91223   4.56198E-19
    437.12357   4.19278E-19
    437.33487   4.01268E-19
    437.54614   3.90185E-19
    437.75742   3.86009E-19
    437.96863   3.77148E-19
    438.17984   3.86509E-19
    438.39102   4.35733E-19
    438.60214   5.33735E-19
    438.81326   6.07706E-19
    439.02438   6.39832E-19
    439.23544   6.50648E-19
    439.44650   6.45049E-19
    439.65750   5.89605E-19
    439.86850   5.66478E-19
    440.07947   5.38036E-19
    440.29041   4.66825E-19
    440.50134   4.22264E-19
    440.71222   4.12626E-19
    440.92310   4.11452E-19
    441.13394   4.01220E-19
    441.34476   3.72020E-19
    441.55554   3.57579E-19
    441.76633   3.46346E-19
    441.97705   3.55014E-19
    442.18777   3.73922E-19
    442.39847   3.74242E-19
    442.60916   3.86439E-19
    442.81979   4.05446E-19
    443.03043   4.07729E-19
    443.24100   4.15560E-19
    443.45157   4.30485E-19
    443.66214   4.29913E-19
    443.87265   4.34578E-19
    444.08316   4.73084E-19
    444.29364   5.13329E-19
    444.50409   5.68307E-19
    444.71451   6.27271E-19
    444.92493   6.06326E-19
    445.13528   5.51510E-19
    445.34564   5.14466E-19
    445.55600   4.92601E-19
    445.76630   4.67876E-19
    445.97659   4.53612E-19
    446.18686   4.27925E-19
    446.39709   3.94615E-19
    446.60730   3.85202E-19
    446.81750   3.94189E-19
    447.02768   4.13501E-19
    447.23782   4.45375E-19
    447.44794   5.13638E-19
    447.65805   5.93570E-19
    447.86813   6.69423E-19
    448.07819   6.85754E-19
    448.28821   6.36135E-19
    448.49823   5.41783E-19
    448.70822   5.01592E-19
    448.91818   4.75600E-19
    449.12811   4.47247E-19
    449.33804   4.25997E-19
    449.54794   3.98359E-19
    449.75781   3.79118E-19
    449.96768   3.85668E-19
    450.17749   4.17056E-19
    450.38733   4.32649E-19
    450.59711   4.36058E-19
    450.80688   4.25392E-19
    451.01663   4.16444E-19
    451.22635   4.08605E-19
    451.43604   3.94691E-19
    451.64572   4.09615E-19
    451.85538   4.36686E-19
    452.06503   4.37171E-19
    452.27463   4.33359E-19
    452.48425   4.48158E-19
    452.69382   4.37027E-19
    452.90338   4.09801E-19
    453.11292   4.22153E-19
    453.32242   4.33772E-19
    453.53189   4.08134E-19
    453.74136   3.71677E-19
    453.95084   3.54564E-19
    454.16025   3.52570E-19
    454.36966   3.82737E-19
    454.57904   4.30759E-19
    454.78842   4.29498E-19
    454.99777   4.22981E-19
    455.20709   4.06137E-19
    455.41641   3.89398E-19
    455.62570   3.87179E-19
    455.83496   4.03463E-19
    456.04419   3.99666E-19
    456.25342   3.74292E-19
    456.46265   3.39906E-19
    456.67181   3.18624E-19
    456.88101   3.31960E-19
    457.09015   3.65359E-19
    457.29929   4.20968E-19
    457.50839   4.57903E-19
    457.71747   4.69919E-19
    457.92654   4.80888E-19
    458.13559   4.54572E-19
    458.34464   4.49656E-19
    458.55365   4.41962E-19
    458.76263   4.08518E-19
    458.97162   3.67842E-19
    459.18060   3.70510E-19
    459.38953   3.91378E-19
    459.59845   3.97295E-19
    459.80734   4.03585E-19
    460.01624   4.24532E-19
    460.22510   4.49644E-19
    460.43396   4.68145E-19
    460.64279   4.46015E-19
    460.85159   4.24008E-19
    461.06039   4.10433E-19
    461.26917   4.00016E-19
    461.47794   3.76714E-19
    461.68668   3.55883E-19
    461.89539   3.47068E-19
    462.10410   3.51005E-19
    462.31277   3.58068E-19
    462.52145   3.90643E-19
    462.73010   4.65762E-19
    462.93875   5.25763E-19
    463.14737   5.19993E-19
    463.35596   5.17466E-19
    463.56454   4.81605E-19
    463.77310   4.39994E-19
    463.98166   4.20311E-19
    464.19019   4.06417E-19
    464.39871   4.05607E-19
    464.60721   3.88743E-19
    464.81570   3.67903E-19
    465.02417   3.47671E-19
    465.23260   3.18018E-19
    465.44104   2.84727E-19
    465.64948   2.69849E-19
    465.85788   2.68786E-19
    466.06625   2.81040E-19
    466.27463   3.10907E-19
    466.48297   3.49089E-19
    466.69131   3.90329E-19
    466.89966   4.17220E-19
    467.10794   4.04636E-19
    467.31625   3.84334E-19
    467.52451   3.78198E-19
    467.73279   3.86576E-19
    467.94104   3.89697E-19
    468.14926   3.57365E-19
    468.35748   3.27151E-19
    468.56567   3.23473E-19
    468.77386   3.20942E-19
    468.98203   3.15484E-19
    469.19019   3.07162E-19
    469.39832   2.92790E-19
    469.60645   2.80592E-19
    469.81458   2.94317E-19
    470.02264   3.08720E-19
    470.23074   3.17572E-19
    470.43881   3.20033E-19
    470.64685   3.02070E-19
    470.85492   2.93664E-19
    471.06293   2.88612E-19
    471.27094   2.88974E-19
    471.47894   2.98514E-19
    471.68692   3.18312E-19
    471.89490   3.24766E-19
    472.10284   3.16942E-19
    472.31079   3.05910E-19
    472.51874   3.02177E-19
    472.72665   3.12487E-19
    472.93457   3.13499E-19
    473.14246   3.30055E-19
    473.35034   3.60623E-19
    473.55820   4.14114E-19
    473.76605   4.66436E-19
    473.97388   4.69436E-19
    474.18170   4.40673E-19
    474.38953   4.25438E-19
    474.59732   4.40267E-19
    474.80511   4.40410E-19
    475.01288   4.19227E-19
    475.22064   4.04393E-19
    475.42841   3.79282E-19
    475.63614   3.47620E-19
    475.84387   3.42137E-19
    476.05161   3.32633E-19
    476.25931   3.23150E-19
    476.46698   3.11822E-19
    476.67465   3.07761E-19
    476.88232   2.99762E-19
    477.09000   2.96832E-19
    477.29764   2.97506E-19
    477.50528   3.01763E-19
    477.71289   3.00419E-19
    477.92050   3.00830E-19
    478.12811   2.89466E-19
    478.33569   2.86839E-19
    478.54327   2.94019E-19
    478.75085   3.05398E-19
    478.95840   3.13273E-19
    479.16595   3.36788E-19
    479.37350   3.72481E-19
    479.58102   3.88970E-19
    479.78854   3.86978E-19
    479.99606   3.50900E-19
    480.20355   3.28912E-19
    480.41104   3.28520E-19
    480.61850   3.19021E-19
    480.82599   3.11478E-19
    481.03345   3.23959E-19
    481.24088   3.42263E-19
    481.44833   3.29979E-19
    481.65576   3.11064E-19
    481.86316   2.93007E-19
    482.07059   2.73740E-19
    482.27798   2.61967E-19
    482.48538   2.58101E-19
    482.69275   2.45090E-19
    482.90012   2.26020E-19
    483.10748   2.20411E-19
    483.31485   2.18727E-19
    483.52219   2.13842E-19
    483.72952   2.18357E-19
    483.93686   2.28340E-19
    484.14417   2.35191E-19
    484.35150   2.45668E-19
    484.55881   2.48906E-19
    484.76608   2.53293E-19
    484.97339   2.55633E-19
    485.18066   2.53790E-19
    485.38794   2.48418E-19
    485.59521   2.54801E-19
    485.80246   2.60760E-19
    486.00970   2.67887E-19
    486.21695   2.56970E-19
    486.42419   2.34909E-19
    486.63144   2.35398E-19
    486.83865   2.38987E-19
    487.04587   2.29629E-19
    487.25305   2.32138E-19
    487.46027   2.44143E-19
    487.66745   2.62091E-19
    487.87463   2.80180E-19
    488.08182   3.08296E-19
    488.28900   3.57589E-19
    488.49615   3.93864E-19
    488.70334   4.27885E-19
    488.91049   4.12903E-19
    489.11765   3.71553E-19
    489.32477   3.64404E-19
    489.53192   3.43858E-19
    489.73904   3.20673E-19
    489.94617   2.97746E-19
    490.15329   2.94200E-19
    490.36041   2.81511E-19
    490.56750   2.56923E-19
    490.77463   2.38955E-19
    490.98172   2.19794E-19
    491.18881   2.08383E-19
    491.39590   2.08366E-19
    491.60300   2.17628E-19
    491.81006   2.36876E-19
    492.01715   2.43330E-19
    492.22421   2.33952E-19
    492.43127   2.23673E-19
    492.63834   2.28356E-19
    492.84540   2.33439E-19
    493.05246   2.49458E-19
    493.25949   2.65443E-19
    493.46652   2.73665E-19
    493.67358   2.73219E-19
    493.88062   2.79706E-19
    494.08765   2.94295E-19
    494.29468   3.09541E-19
    494.50171   3.19422E-19
    494.70871   3.20820E-19
    494.91574   3.00986E-19
    495.12274   2.85726E-19
    495.32977   2.83707E-19
    495.53677   2.95444E-19
    495.74377   2.98693E-19
    495.95078   2.95302E-19
    496.15778   2.95708E-19
    496.36478   2.95902E-19
    496.57178   2.97027E-19
    496.77878   2.78533E-19
    496.98575   2.49656E-19
    497.19275   2.31987E-19
    497.39972   2.16306E-19
    497.60672   2.03285E-19
    497.81369   1.98703E-19
    498.02069   1.93313E-19
    498.22766   1.76492E-19
    498.43463   1.71864E-19
    498.64160   1.69289E-19
    498.84857   1.64031E-19
    499.05557   1.58820E-19
    499.26254   1.49491E-19
    499.46951   1.43148E-19
    499.67648   1.43688E-19
    499.88345   1.44665E-19
    500.09042   1.43588E-19
    500.29736   1.48353E-19
    500.50433   1.53422E-19
    500.71130   1.59053E-19
    500.91827   1.71893E-19
    501.12524   1.76811E-19
    501.33221   1.69702E-19
    501.53918   1.73424E-19
    501.74612   1.82740E-19
    501.95309   1.99045E-19
    502.16006   2.14953E-19
    502.36703   2.32329E-19
    502.57401   2.46731E-19
    502.78098   2.64378E-19
    502.98795   2.48397E-19
    503.19489   2.20305E-19
    503.40186   2.04163E-19
    503.60883   1.97541E-19
    503.81580   2.01434E-19
    504.02280   2.21675E-19
    504.22977   2.53968E-19
    504.43674   2.78058E-19
    504.64371   3.07063E-19
    504.85068   3.04509E-19
    505.05768   2.80527E-19
    505.26465   2.63731E-19
    505.47162   2.34172E-19
    505.67862   2.12034E-19
    505.88559   2.05193E-19
    506.09259   2.10187E-19
    506.29959   2.14187E-19
    506.50659   2.06599E-19
    506.71356   2.01252E-19
    506.92056   1.92100E-19
    507.12756   1.81588E-19
    507.33459   1.76410E-19
    507.54160   1.72786E-19
    507.74860   1.75465E-19
    507.95563   1.84223E-19
    508.16263   1.87735E-19
    508.36966   2.03472E-19
    508.57669   2.10908E-19
    508.78372   2.14752E-19
    508.99075   2.33234E-19
    509.19778   2.34705E-19
    509.40485   2.33567E-19
    509.61188   2.54108E-19
    509.81894   2.53257E-19
    510.02597   2.40512E-19
    510.23303   2.33292E-19
    510.44009   2.26848E-19
    510.64716   2.23868E-19
    510.85422   2.23938E-19
    511.06131   2.24116E-19
    511.26840   2.28915E-19
    511.47546   2.11881E-19
    511.68256   2.01982E-19
    511.88965   2.12013E-19
    512.09674   2.21048E-19
    512.30389   2.28359E-19
    512.51099   2.28678E-19
    512.71808   2.07677E-19
    512.92523   1.92589E-19
    513.13239   1.83125E-19
    513.33948   1.73319E-19
    513.54663   1.71601E-19
    513.75378   1.63249E-19
    513.96094   1.55639E-19
    514.16809   1.59952E-19
    514.37524   1.58519E-19
    514.58246   1.54398E-19
    514.78961   1.46850E-19
    514.99683   1.41175E-19
    515.20398   1.37842E-19
    515.41119   1.40918E-19
    515.61841   1.42702E-19
    515.82562   1.36682E-19
    516.03284   1.34023E-19
    516.24011   1.37023E-19
    516.44733   1.34422E-19
    516.65460   1.24124E-19
    516.86182   1.17297E-19
    517.06909   1.19080E-19
    517.27637   1.23899E-19
    517.48364   1.21084E-19
    517.69092   1.25818E-19
    517.89825   1.40390E-19
    518.10553   1.54677E-19
    518.31287   1.78169E-19
    518.52020   1.86220E-19
    518.72754   1.71944E-19
    518.93488   1.63760E-19
    519.14221   1.70978E-19
    519.34955   1.72496E-19
    519.55695   1.70011E-19
    519.76434   1.72361E-19
    519.97168   1.76487E-19
    520.17908   1.67186E-19
    520.38654   1.55171E-19
    520.59393   1.51410E-19
    520.80139   1.49309E-19
    521.00879   1.40876E-19
    521.21625   1.31793E-19
    521.42371   1.34202E-19
    521.63116   1.32997E-19
    521.83868   1.31934E-19
    522.04614   1.31866E-19
    522.25366   1.28660E-19
    522.46118   1.32259E-19
    522.66870   1.39107E-19
    522.87622   1.42385E-19
    523.08380   1.43888E-19
    523.29132   1.33404E-19
    523.49890   1.27782E-19
    523.70648   1.32494E-19
    523.91412   1.38806E-19
    524.12170   1.45420E-19
    524.32935   1.53240E-19
    524.53693   1.66392E-19
    524.74457   1.92543E-19
    524.95227   2.09542E-19
    525.15991   2.16291E-19
    525.36761   2.17042E-19
    525.57532   2.02259E-19
    525.78302   1.96999E-19
    525.99072   1.96588E-19
    526.19843   1.98678E-19
    526.40619   2.01330E-19
    526.61395   1.94064E-19
    526.82172   1.74332E-19
    527.02948   1.55393E-19
    527.23730   1.52649E-19
    527.44513   1.61208E-19
    527.65295   1.65724E-19
    527.86078   1.68479E-19
    528.06866   1.64586E-19
    528.27649   1.56191E-19
    528.48438   1.48533E-19
    528.69232   1.41587E-19
    528.90021   1.38410E-19
    529.10815   1.38419E-19
    529.31610   1.35371E-19
    529.52405   1.27851E-19
    529.73199   1.30535E-19
    529.94000   1.37679E-19
    530.14801   1.46650E-19
    530.35602   1.50376E-19
    530.56409   1.41381E-19
    530.77209   1.35409E-19
    530.98016   1.38626E-19
    531.18829   1.41766E-19
    531.39636   1.41497E-19
    531.60449   1.44618E-19
    531.81262   1.44156E-19
    532.02075   1.45053E-19
    532.22894   1.49531E-19
    532.43713   1.51680E-19
    532.64532   1.48173E-19
    532.85352   1.40387E-19
    533.06177   1.38763E-19
    533.27002   1.35679E-19
    533.47827   1.21019E-19
    533.68658   1.15304E-19
    533.89490   1.18090E-19
    534.10321   1.17276E-19
    534.31152   1.13247E-19
    534.51990   1.07271E-19
    534.72827   1.01210E-19
    534.93665   9.20112E-20
    535.14508   7.99276E-20
    535.35352   7.63621E-20
    535.56195   7.76431E-20
    535.77045   7.78022E-20
    535.97894   8.14571E-20
    536.18744   8.65194E-20
    536.39594   8.57024E-20
    536.60449   7.99316E-20
    536.81305   7.59688E-20
    537.02161   7.77831E-20
    537.23022   7.93171E-20
    537.43884   7.79142E-20
    537.64752   8.05408E-20
    537.85614   9.33385E-20
    538.06482   1.06608E-19
    538.27356   1.15786E-19
    538.48224   1.20840E-19
    538.69104   1.13441E-19
    538.89978   1.13997E-19
    539.10858   1.20920E-19
    539.31738   1.17012E-19
    539.52618   1.03187E-19
    539.73505   9.56969E-20
    539.94391   9.01514E-20
    540.15277   8.20521E-20
    540.36169   7.48501E-20
    540.57062   7.22713E-20
    540.77960   7.64665E-20
    540.98859   8.31561E-20
    541.19757   9.01018E-20
    541.40656   1.01607E-19
    541.61560   1.17198E-19
    541.82471   1.22160E-19
    542.03375   1.28085E-19
    542.24292   1.34031E-19
    542.45203   1.32058E-19
    542.66119   1.33619E-19
    542.87036   1.38798E-19
    543.07959   1.39960E-19
    543.28876   1.35338E-19
    543.49805   1.32979E-19
    543.70734   1.25416E-19
    543.91663   1.18418E-19
    544.12592   1.13997E-19
    544.33527   1.11139E-19
    544.54462   1.17496E-19
    544.75403   1.26102E-19
    544.96344   1.40348E-19
    545.17285   1.46888E-19
    545.38232   1.34011E-19
    545.59186   1.20327E-19
    545.80133   1.10181E-19
    546.01086   1.07916E-19
    546.22046   1.06212E-19
    546.43005   9.69433E-20
    546.63965   9.33709E-20
    546.84930   9.80030E-20
    547.05896   1.09029E-19
    547.26868   1.21258E-19
    547.47839   1.24621E-19
    547.68811   1.27107E-19
    547.89789   1.24356E-19
    548.10767   1.21800E-19
    548.31750   1.16308E-19
    548.52734   1.18248E-19
    548.73724   1.19856E-19
    548.94714   1.22371E-19
    549.15710   1.28645E-19
    549.36707   1.21886E-19
    549.57703   1.12098E-19
    549.78705   1.03703E-19
    549.99707   9.92782E-20
    550.20715   9.76222E-20
    550.41724   9.50833E-20
    550.62738   9.24320E-20
    550.83752   9.00427E-20
    551.04767   8.34351E-20
    551.25787   8.09748E-20
    551.46814   8.31323E-20
    551.67841   8.53137E-20
    551.88867   8.47868E-20
    552.09900   8.78642E-20
    552.30933   9.59005E-20
    552.51971   9.46613E-20
    552.73010   9.84830E-20
    552.94055   1.09993E-19
    553.15106   1.10987E-19
    553.36151   1.00152E-19
    553.57208   8.97340E-20
    553.78259   9.19360E-20
    553.99323   9.16824E-20
    554.20380   8.86543E-20
    554.41449   8.43030E-20
    554.62512   7.68576E-20
    554.83582   7.02964E-20
    555.04657   6.77427E-20
    555.25732   6.70792E-20
    555.46814   6.34113E-20
    555.67896   5.78240E-20
    555.88983   5.56136E-20
    556.10071   5.67206E-20
    556.31165   6.05016E-20
    556.52264   6.22393E-20
    556.73358   6.03468E-20
    556.94464   5.99737E-20
    557.15570   5.92508E-20
    557.36676   5.88714E-20
    557.57788   5.86231E-20
    557.78900   6.09909E-20
    558.00018   6.47412E-20
    558.21143   6.35983E-20
    558.42267   5.87172E-20
    558.63397   5.54658E-20
    558.84528   5.25329E-20
    559.05658   4.78064E-20
    559.26801   4.60438E-20
    559.47937   4.86639E-20
    559.69086   4.89826E-20
    559.90234   5.05840E-20
    560.11383   5.35572E-20
    560.32538   5.54419E-20
    560.53699   5.68475E-20
    560.74860   5.85420E-20
    560.96027   6.11730E-20
    561.17194   6.29756E-20
    561.38367   6.35784E-20
    561.59540   6.67268E-20
    561.80719   6.77578E-20
    562.01904   6.65320E-20
    562.23090   6.63713E-20
    562.44281   7.15177E-20
    562.65472   7.84406E-20
    562.86670   8.23155E-20
    563.07867   8.44772E-20
    563.29071   9.38823E-20
    563.50281   1.08862E-19
    563.71490   1.12526E-19
    563.92706   9.95356E-20
    564.13928   1.03008E-19
    564.35150   1.17346E-19
    564.56372   1.16413E-19
    564.77606   1.05271E-19
    564.98834   9.46753E-20
    565.20074   9.06668E-20
    565.41315   9.03119E-20
    565.62561   8.17483E-20
    565.83807   6.70314E-20
    566.05060   5.70046E-20
    566.26318   5.17429E-20
    566.47577   5.26018E-20
    566.68842   5.40268E-20
    566.90106   5.24060E-20
    567.11377   5.61058E-20
    567.32654   6.56655E-20
    567.53931   6.96811E-20
    567.75214   7.24563E-20
    567.96503   7.71718E-20
    568.17792   8.13718E-20
    568.39087   7.76376E-20
    568.60388   7.05229E-20
    568.81689   6.72640E-20
    569.02997   6.95654E-20
    569.24304   6.84767E-20
    569.45624   6.61835E-20
    569.66943   6.81869E-20
    569.88263   7.50405E-20
    570.09589   8.07244E-20
    570.30920   8.44038E-20
    570.52258   9.54459E-20
    570.73596   1.00489E-19
    570.94940   9.50799E-20
    571.16284   9.27816E-20
    571.37634   8.96291E-20
    571.58990   9.02294E-20
    571.80353   9.06959E-20
    572.01715   9.23437E-20
    572.23083   8.78905E-20
    572.44458   7.83537E-20
    572.65833   7.05335E-20
    572.87213   6.73480E-20
    573.08600   6.79878E-20
    573.29987   6.35237E-20
    573.51385   5.83582E-20
    573.72778   5.59693E-20
    573.94183   5.16901E-20
    574.15588   4.82188E-20
    574.37000   4.68318E-20
    574.58417   4.47937E-20
    574.79834   4.50755E-20
    575.01263   4.49992E-20
    575.22687   4.26795E-20
    575.44122   4.07717E-20
    575.65558   3.70136E-20
    575.87000   3.37193E-20
    576.08447   3.17535E-20
    576.29901   3.09690E-20
    576.51355   3.03394E-20
    576.72815   3.04161E-20
    576.94281   3.18922E-20
    577.15747   3.27711E-20
    577.37225   3.20309E-20
    577.58704   3.40870E-20
    577.80182   3.72275E-20
    578.01672   3.77244E-20
    578.23163   4.00170E-20
    578.44659   4.59761E-20
    578.66162   5.21881E-20
    578.87665   5.52612E-20
    579.09174   5.56084E-20
    579.30688   5.34731E-20
    579.52209   5.20665E-20
    579.73737   5.24528E-20
    579.95264   5.20737E-20
    580.16797   5.04886E-20
    580.38336   4.97163E-20
    580.59882   4.62259E-20
    580.81433   4.14299E-20
    581.02985   3.72554E-20
    581.24542   3.45625E-20
    581.46106   3.43149E-20
    581.67670   3.52050E-20
    581.89246   3.44267E-20
    582.10822   3.25599E-20
    582.32404   3.08213E-20
    582.53992   3.07929E-20
    582.75586   3.28780E-20
    582.97180   3.53640E-20
    583.18781   3.57122E-20
    583.40393   3.44418E-20
    583.62006   3.46419E-20
    583.83618   3.71544E-20
    584.05243   3.92292E-20
    584.26868   4.17243E-20
    584.48499   4.65087E-20
    584.70142   5.13935E-20
    584.91779   5.37319E-20
    585.13428   5.53747E-20
    585.35083   5.85274E-20
    585.56738   5.89340E-20
    585.78400   5.32104E-20
    586.00067   5.03791E-20
    586.21741   5.04092E-20
    586.43420   4.99961E-20
    586.65106   4.95930E-20
    586.86792   4.88738E-20
    587.08490   4.62751E-20
    587.30188   4.34175E-20
    587.51892   4.15840E-20
    587.73602   3.94249E-20
    587.95319   3.79097E-20
    588.17035   3.72849E-20
    588.38763   3.73643E-20
    588.60492   3.74656E-20
    588.82233   3.87502E-20
    589.03973   4.13110E-20
    589.25720   4.58732E-20
    589.47473   4.86034E-20
    589.69232   4.91147E-20
    589.90997   5.10167E-20
    590.12762   5.51283E-20
    590.34540   6.02756E-20
    590.56317   5.97447E-20
    590.78107   5.60696E-20
    590.99896   5.23574E-20
    591.21692   5.37010E-20
    591.43494   6.10518E-20
    591.65302   6.64202E-20
    591.87115   6.86663E-20
    592.08936   7.22025E-20
    592.30756   7.14651E-20
    592.52588   6.71496E-20
    592.74420   7.02291E-20
    592.96265   7.28551E-20
    593.18109   6.41490E-20
    593.39966   5.54276E-20
    593.61823   5.31363E-20
    593.83685   4.72411E-20
    594.05554   3.94968E-20
    594.27429   3.61157E-20
    594.49310   3.58370E-20
    594.71198   3.43116E-20
    594.93091   3.15504E-20
    595.14990   2.87717E-20
    595.36896   2.66692E-20
    595.58807   2.58423E-20
    595.80719   2.58269E-20
    596.02643   2.80356E-20
    596.24573   3.01743E-20
    596.46509   2.89218E-20
    596.68445   2.79307E-20
    596.90393   2.90133E-20
    597.12341   3.03608E-20
    597.34302   3.08311E-20
    597.56262   3.16036E-20
    597.78235   3.19875E-20
    598.00208   3.05954E-20
    598.22192   3.07455E-20
    598.44177   3.29569E-20
    598.66174   3.52828E-20
    598.88171   3.70728E-20
    599.10181   3.71879E-20
    599.32190   3.71129E-20
    599.54211   3.99326E-20
    599.76233   4.34000E-20
    599.98267   4.40115E-20
    600.20300   4.37325E-20
    600.42346   4.45043E-20
    600.64392   4.40260E-20
    600.86450   4.22216E-20
    601.08508   4.14227E-20
    601.30579   4.21648E-20
    601.52655   4.07680E-20
    601.74731   3.88493E-20
    601.96820   3.68814E-20
    602.18915   3.39938E-20
    602.41010   3.17710E-20
    602.63116   2.90756E-20
    602.85229   2.61323E-20
    603.07349   2.28988E-20
    603.29474   1.96784E-20
    603.51605   1.78208E-20
    603.73743   1.71619E-20
    603.95886   1.63148E-20
    604.18042   1.55132E-20
    604.40198   1.49585E-20
    604.62360   1.46832E-20
    604.84534   1.56062E-20
    605.06708   1.75338E-20
    605.28894   1.90985E-20
    605.51080   1.95014E-20
    605.73279   1.83435E-20
    605.95483   1.63695E-20
    606.17688   1.55538E-20
    606.39905   1.63248E-20
    606.62128   1.76637E-20
    606.84363   1.79122E-20
    607.06598   1.71338E-20
    607.28839   1.70866E-20
    607.51086   1.81492E-20
    607.73346   1.97908E-20
    607.95612   2.02645E-20
    608.17877   1.90726E-20
    608.40155   1.86588E-20
    608.62439   1.86771E-20
    608.84729   1.84215E-20
    609.07025   1.86871E-20
    609.29333   1.85874E-20
    609.51642   1.82787E-20
    609.73962   1.84378E-20
    609.96283   1.87549E-20
    610.18616   1.91927E-20
    610.40955   1.94835E-20
    610.63300   2.05270E-20
    610.85657   2.35568E-20
    610.97089   2.49713E-20
    611.19012   2.88995E-20
    611.40924   3.47090E-20
    611.62836   3.63778E-20
    611.84735   3.64085E-20
    612.06635   4.22165E-20
    612.28522   4.49200E-20
    612.50409   4.92566E-20
    612.72284   5.17638E-20
    612.94159   3.93870E-20
    613.16022   3.13990E-20
    613.37885   2.95874E-20
    613.59741   3.07259E-20
    613.81586   3.23016E-20
    614.03430   3.04069E-20
    614.25262   3.08868E-20
    614.47095   2.85278E-20
    614.68921   2.57863E-20
    614.90735   2.47147E-20
    615.12549   2.49853E-20
    615.34357   2.57153E-20
    615.56158   2.88782E-20
    615.77954   3.07209E-20
    615.99744   3.15576E-20
    616.21521   3.34227E-20
    616.43298   3.62782E-20
    616.65076   4.01754E-20
    616.86841   3.77797E-20
    617.08600   3.38318E-20
    617.30353   3.18978E-20
    617.52100   3.12941E-20
    617.73846   3.16959E-20
    617.95581   2.83657E-20
    618.17310   2.41936E-20
    618.39038   2.07941E-20
    618.60760   1.96187E-20
    618.82471   1.98841E-20
    619.04181   2.06419E-20
    619.25885   2.15147E-20
    619.47583   2.33276E-20
    619.69275   2.43699E-20
    619.90961   2.39436E-20
    620.12646   2.74789E-20
    620.34320   3.08999E-20
    620.55988   3.16514E-20
    620.77655   3.05480E-20
    620.99310   2.75790E-20
    621.20966   2.51334E-20
    621.42615   2.18709E-20
    621.64258   2.00970E-20
    621.85895   1.87654E-20
    622.07526   1.77031E-20
    622.29156   1.84973E-20
    622.50775   2.01269E-20
    622.72394   2.00799E-20
    622.94006   1.95683E-20
    623.15607   2.06378E-20
    623.37207   2.19150E-20
    623.58807   2.15739E-20
    623.80396   2.10836E-20
    624.01978   1.97627E-20
    624.23560   2.02031E-20
    624.45135   1.99779E-20
    624.66699   1.95984E-20
    624.88263   1.94437E-20
    625.09827   2.02123E-20
    625.31378   1.97259E-20
    625.52924   1.84622E-20
    625.74469   1.80731E-20
    625.96008   1.69253E-20
    626.17542   1.59701E-20
    626.39069   1.58870E-20
    626.60590   1.64162E-20
    626.82111   1.53463E-20
    627.03625   1.46595E-20
    627.25134   1.39071E-20
    627.46637   1.35123E-20
    627.68134   1.27892E-20
    627.89624   1.22772E-20
    628.11115   1.18410E-20
    628.32599   1.16043E-20
    628.54077   1.20088E-20
    628.75549   1.21552E-20
    628.97015   1.27947E-20
    629.18481   1.23081E-20
    629.39941   1.10867E-20
    629.61395   1.03283E-20
    629.82843   9.94344E-21
    630.04291   8.93244E-21
    630.25726   8.89601E-21
    630.47162   1.00270E-20
    630.68597   1.04971E-20
    630.90021   1.07954E-20
    631.11444   1.16299E-20
    631.32855   1.25271E-20
    631.54266   1.20926E-20
    631.75677   1.23626E-20
    631.97076   1.27467E-20
    632.18475   1.29321E-20
    632.39868   1.21820E-20
    632.61255   1.11006E-20
    632.82642   1.04776E-20
    633.04022   1.05527E-20
    633.25397   1.21778E-20
    633.46765   1.32611E-20
    633.68134   1.32076E-20
    633.89490   1.28729E-20
    634.10846   1.37942E-20
    634.32202   1.37653E-20
    634.53546   1.29196E-20
    634.74890   1.13819E-20
    634.96228   1.11327E-20
    635.17566   1.21634E-20
    635.38892   1.26300E-20
    635.60217   1.25029E-20
    635.81543   1.24704E-20
    636.02856   1.37552E-20
    636.24170   1.40953E-20
    636.45477   1.33033E-20
    636.66785   1.36897E-20
    636.88080   1.38541E-20
    637.09375   1.31070E-20
    637.30670   1.33708E-20
    637.51953   1.40319E-20
    637.73236   1.50796E-20
    637.94513   1.49203E-20
    638.15790   1.30759E-20
    638.37061   1.17691E-20
    638.58325   1.23493E-20
    638.79590   1.26100E-20
    639.00842   1.28548E-20
    639.22095   1.23170E-20
    639.43347   1.21082E-20
    639.64594   1.37772E-20
    639.85834   1.48190E-20
    640.07068   1.37128E-20
    640.28302   1.31781E-20
    640.49530   1.45523E-20
    640.70752   1.46869E-20
    640.91974   1.45040E-20
    641.13190   1.47065E-20
    641.34406   1.41633E-20
    641.55615   1.51603E-20
    641.76819   1.74173E-20
    641.98016   1.77769E-20
    642.19214   1.90605E-20
    642.40405   2.09656E-20
    642.61597   2.03103E-20
    642.82782   1.88178E-20
    643.03961   1.80685E-20
    643.25140   1.92411E-20
    643.46313   1.88771E-20
    643.67487   1.69109E-20
    643.88647   1.50632E-20
    644.09814   1.38622E-20
    644.30969   1.25369E-20
    644.52124   1.23926E-20
    644.73273   1.36717E-20
    644.94421   1.51908E-20
    645.15564   1.50932E-20
    645.36707   1.52303E-20
    645.57843   1.56009E-20
    645.78973   1.56762E-20
    646.00104   1.84320E-20
    646.21228   2.07751E-20
    646.42346   2.15228E-20
    646.63464   2.38730E-20
    646.84576   2.46491E-20
    647.05688   2.44916E-20
    647.26794   2.26522E-20
    647.47900   2.32718E-20
    647.69000   2.24750E-20
    647.90094   1.99516E-20
    648.11188   1.65740E-20
    648.32275   1.31638E-20
    648.53357   1.08987E-20
    648.74438   1.09245E-20
    648.95520   1.09579E-20
    649.16595   1.08435E-20
    649.37665   1.05304E-20
    649.58734   1.03336E-20
    649.79797   1.06056E-20
    650.00861   1.15964E-20
    650.21918   1.27136E-20
    650.42969   1.28176E-20
    650.64020   1.18957E-20
    650.85071   1.25724E-20
    651.06116   1.30449E-20
    651.27155   1.26244E-20
    651.48193   1.26167E-20
    651.69226   1.10515E-20
    651.90259   1.06368E-20
    652.11285   1.02522E-20
    652.32312   1.01469E-20
    652.53333   1.02628E-20
    652.74347   9.65246E-21
    652.95361   9.15495E-21
    653.16376   8.83012E-21
    653.37384   8.40141E-21
    653.58386   8.09621E-21
    653.79388   8.00196E-21
    654.00391   8.20077E-21
    654.21387   8.10389E-21
    654.42377   8.55403E-21
    654.63367   9.09997E-21
    654.84351   8.95312E-21
    655.05334   8.61768E-21
    655.26312   8.59887E-21
    655.47290   8.28909E-21
    655.68268   9.59071E-21
    655.89240   9.64674E-21
    656.10205   8.57055E-21
    656.31171   7.56446E-21
    656.52130   7.19426E-21
    656.73090   7.57009E-21
    656.94043   7.06074E-21
    657.14996   6.21294E-21
    657.35950   6.21332E-21
    657.56897   6.42675E-21
    657.77838   6.24580E-21
    657.98779   6.07555E-21
    658.19720   6.10619E-21
    658.40656   6.17139E-21
    658.61584   6.38247E-21
    658.82513   6.42940E-21
    659.03442   6.59191E-21
    659.24365   6.61153E-21
    659.45288   6.54149E-21
    659.66205   6.73675E-21
    659.87122   6.51050E-21
    660.08032   6.07226E-21
    660.28943   5.18414E-21
    660.49854   5.08552E-21
    660.70758   5.20491E-21
    660.91656   4.84313E-21
    661.12555   4.77514E-21
    661.33453   4.16584E-21
    661.54346   3.97343E-21
    661.75238   4.05571E-21
    661.96124   3.94925E-21
    662.17010   3.66992E-21
    662.37891   3.56811E-21
    662.58771   3.52814E-21
    662.79651   3.69063E-21
    663.00525   3.68735E-21
    663.21399   3.59844E-21
    663.42267   3.65136E-21
    663.63135   3.58242E-21
    663.83997   3.77891E-21
    664.04858   3.67773E-21
    664.25720   3.90328E-21
    664.46576   4.40878E-21
    664.67432   4.78032E-21
    664.88281   5.13779E-21
    665.09131   5.39628E-21
    665.29980   5.35272E-21
    665.50824   5.60151E-21
    665.71667   5.95462E-21
    665.92505   6.94822E-21
    666.13342   7.12443E-21
    666.34180   7.32393E-21
    666.55011   7.96348E-21
    666.75842   7.77802E-21
    666.96667   7.51313E-21
    667.17493   7.37984E-21
    667.38318   7.79088E-21
    667.59137   8.73728E-21
    667.79956   9.56913E-21
    668.00769   1.02284E-20
    668.21588   9.55440E-21
    668.42395   8.42748E-21
    668.63208   8.61667E-21
    668.84015   9.39944E-21
    669.04816   9.49214E-21
    669.25616   8.65775E-21
    669.46417   9.41223E-21
    669.67218   1.08322E-20
    669.88013   1.06370E-20
    670.08807   1.04207E-20
    670.29596   9.50437E-21
    670.50385   8.08389E-21
    670.71173   7.33131E-21
    670.91956   7.53973E-21
    671.12738   8.50761E-21
    671.33521   8.26754E-21
    671.54297   8.13445E-21
    671.75073   8.44880E-21
    671.95850   8.61875E-21
    672.16620   8.56466E-21
    672.37390   9.48783E-21
    672.58160   9.19592E-21
    672.78925   8.80663E-21
    672.99689   9.63012E-21
    673.20447   1.09929E-20
    673.41211   1.25983E-20
    673.61963   1.10348E-20
    673.82721   9.59121E-21
    674.03473   9.92345E-21
    674.24225   9.64565E-21
    674.44977   9.24621E-21
    674.65723   8.84294E-21
    674.86469   8.69213E-21
    675.07214   9.27280E-21
    675.27954   9.54668E-21
    675.48694   9.82290E-21
    675.69434   9.83654E-21
    675.90167   9.34914E-21
    676.10901   8.94042E-21
    676.31635   9.03147E-21
    676.52368   9.61597E-21
    676.73096   9.48116E-21
    676.93823   8.70683E-21
    677.14545   9.04045E-21
    677.35272   9.17710E-21
    677.55994   8.09483E-21
    677.76715   6.88892E-21
    677.97430   6.48328E-21
    678.18146   6.36500E-21
    678.38861   6.01523E-21
    678.59576   6.03668E-21
    678.80286   6.20494E-21
    679.00995   6.32050E-21
    679.21704   6.76898E-21
    679.42407   7.14525E-21
    679.63110   7.31778E-21
    679.83813   6.88274E-21
    680.04517   6.63983E-21
    680.25214   6.44466E-21
    680.45911   6.24494E-21
    680.66608   6.28098E-21
    680.87305   6.21593E-21
    681.07996   5.99552E-21
    681.28687   5.34002E-21
    681.49377   4.99273E-21
    681.70062   4.91335E-21
    681.90747   4.54542E-21
    682.11432   4.42539E-21
    682.32117   4.46882E-21
    682.52802   4.38641E-21
    682.73480   4.80113E-21
    682.94159   5.09199E-21
    683.14832   5.42974E-21
    683.35510   5.22989E-21
    683.56183   4.90070E-21
    683.76855   4.50587E-21
    683.97528   4.47471E-21
    684.18195   4.19506E-21
    684.38867   4.51647E-21
    684.59534   4.80171E-21
    684.80200   4.62294E-21
    685.00861   4.59894E-21
    685.21527   4.96963E-21
    685.42188   5.94491E-21
    685.62848   5.68315E-21
    685.83502   5.11021E-21
    686.04163   5.30539E-21
    686.24817   5.44361E-21
    686.45471   5.44751E-21
    686.66125   4.74285E-21
    686.86774   4.21759E-21
    687.07428   3.71389E-21
    687.28076   3.97582E-21
    687.48724   3.76857E-21
    687.69366   3.43492E-21
    687.90015   3.32261E-21
    688.10657   3.14154E-21
    688.31299   3.18022E-21
    688.51941   3.30325E-21
    688.72583   3.11876E-21
    688.93219   3.32492E-21
    689.13861   3.24373E-21
    689.34497   3.09884E-21
    689.55133   3.18272E-21
    689.75763   3.21624E-21
    689.96399   3.11257E-21
    690.17029   3.12729E-21
    690.37659   3.03411E-21
    690.58289   2.95854E-21
    690.78918   3.08323E-21
    690.99542   3.06895E-21
    691.20172   2.94532E-21
    691.40796   3.03242E-21
    691.61420   2.93796E-21
    691.82043   2.90613E-21
    692.02667   2.79275E-21
    692.23285   2.52993E-21
    692.43903   2.41069E-21
    692.64520   2.50115E-21
    692.85138   2.57133E-21
    693.05756   2.57556E-21
    693.26373   2.56315E-21
    693.46985   2.49859E-21
    693.67603   2.40189E-21
    693.88214   2.53050E-21
    694.08826   2.63594E-21
    694.29437   2.63855E-21
    694.50043   2.70316E-21
    694.70654   2.72161E-21
    694.91260   2.63072E-21
    695.11865   2.71724E-21
    695.32471   2.79007E-21
    695.53076   2.81516E-21
    695.73682   2.85538E-21
    695.94287   2.71882E-21
    696.14886   2.56002E-21
    696.35486   2.85544E-21
    696.56091   2.88183E-21
    696.76691   2.59182E-21
    696.97284   2.51316E-21
    697.17883   2.31260E-21
    697.38483   2.04280E-21
    697.59076   1.97679E-21
    697.79675   1.92046E-21
    698.00269   2.02629E-21
    698.20862   1.99582E-21
    698.41455   1.83353E-21
    698.62048   1.83088E-21
    698.82635   1.85198E-21
    699.03229   1.93887E-21
    699.23816   2.06925E-21
    699.44403   2.27618E-21
    699.64996   2.60915E-21
    699.85583   2.73992E-21
    700.06171   2.68894E-21
    700.26752   2.58193E-21
    700.47339   2.64519E-21
    700.67926   2.68190E-21
    700.88507   2.63038E-21
    701.09094   2.47077E-21
    701.29675   2.39963E-21
    701.50256   2.54497E-21
    701.70837   2.73635E-21
    701.91418   2.88393E-21
    702.12000   2.94023E-21
    702.32574   3.06946E-21
    702.53156   3.07904E-21
    702.73737   2.97720E-21
    702.94312   3.02976E-21
    703.14886   3.28798E-21
    703.35468   3.59621E-21
    703.56042   3.84956E-21
    703.76617   4.20384E-21
    703.97192   4.41306E-21
    704.17767   4.21720E-21
    704.38336   4.23804E-21
    704.58911   4.32199E-21
    704.79486   4.58244E-21
    705.00055   5.11894E-21
    705.20624   5.62111E-21
    705.41199   6.31172E-21
    705.61768   5.82554E-21
    705.82336   5.22978E-21
    706.02905   4.63144E-21
    706.23474   4.42957E-21
    706.44043   4.64505E-21
    706.64612   4.84799E-21
    706.85181   5.34420E-21
    707.05750   6.55994E-21
    707.26312   6.82465E-21
    707.46881   6.16129E-21
    707.67444   6.60571E-21
    707.88013   5.61167E-21
    708.08575   4.05974E-21
    708.29144   3.70242E-21
    708.49707   3.48118E-21
    708.70270   3.33480E-21
    708.90833   3.44414E-21
    709.11395   3.64826E-21
    709.31958   3.96242E-21
    709.52521   4.00820E-21
    709.73083   3.92451E-21
    709.93646   4.04225E-21
    710.14209   4.23474E-21
    710.34772   4.85405E-21
    710.55328   5.32972E-21
    710.75891   6.19640E-21
    710.96454   4.94191E-21
    711.17010   4.31146E-21
    711.37573   4.22885E-21
    711.58130   4.37999E-21
    711.78693   4.84104E-21
    711.99249   4.82548E-21
    712.19806   4.86850E-21
    712.40369   4.51375E-21
    712.60925   4.15582E-21
    712.81482   4.23798E-21
    713.02039   4.01480E-21
    713.22601   4.26228E-21
    713.43158   4.78863E-21
    713.63715   4.65751E-21
    713.84271   4.06879E-21
    714.04828   3.51518E-21
    714.25385   3.34825E-21
    714.45941   3.61717E-21
    714.66498   3.65138E-21
    714.87054   3.37334E-21
    715.07611   2.87181E-21
    715.28168   2.51247E-21
    715.48718   2.41679E-21
    715.69275   2.22518E-21
    715.89832   2.27618E-21
    716.10388   2.46641E-21
    716.30945   2.52189E-21
    716.51501   2.33603E-21
    716.72052   2.19330E-21
    716.92609   2.06028E-21
    717.13165   1.97572E-21
    717.33722   1.93537E-21
    717.54272   1.94351E-21
    717.74829   1.96407E-21
    717.95386   1.92894E-21
    718.15936   1.90438E-21
    718.36493   1.79241E-21
    718.57050   1.81467E-21
    718.77600   1.98186E-21
    718.98157   1.70098E-21
    719.18713   1.56009E-21
    719.39270   1.56517E-21
    719.59821   1.47561E-21
    719.80377   1.60948E-21
    720.00934   1.72164E-21
    720.21484   1.89982E-21
    720.42041   1.91048E-21
    720.62598   1.97052E-21
    720.83154   1.97470E-21
    721.03705   1.81119E-21
    721.24261   1.90674E-21
    721.44818   2.04354E-21
    721.65375   2.19342E-21
    721.85931   2.25147E-21
    722.06482   2.26253E-21
    722.27039   2.18244E-21
    722.47595   2.20412E-21
    722.68152   2.20185E-21
    722.88708   2.15148E-21
    723.09265   2.38516E-21
    723.29822   2.44604E-21
    723.50378   2.32971E-21
    723.70935   2.08589E-21
    723.91492   2.08777E-21
    724.12048   2.09581E-21
    724.32605   1.91640E-21
    724.53162   1.81102E-21
    724.73718   1.71911E-21
    724.94275   1.56509E-21
    725.14832   1.47228E-21
    725.35388   1.43910E-21
    725.55951   1.34465E-21
    725.76508   1.29240E-21
    725.97064   1.22430E-21
    726.17621   1.15726E-21
    726.38184   1.18603E-21
    726.58740   1.21072E-21
    726.79303   1.16919E-21
    726.99860   1.10616E-21
    727.20422   1.12078E-21
    727.40979   1.15729E-21
    727.61542   1.10915E-21
    727.82104   1.14487E-21
    728.02661   1.20622E-21
    728.23224   1.17449E-21
    728.43787   1.11669E-21
    728.64349   1.13069E-21
    728.84912   1.07714E-21
    729.05475   1.02692E-21
    729.26038   1.03685E-21
    729.46600   1.05975E-21
    729.67163   1.06206E-21
    729.87726   1.07494E-21
    730.08289   1.05211E-21
    730.28851   1.03526E-21
    730.49420   1.07146E-21
    730.69983   1.02207E-21
    730.90552   1.04018E-21
    731.11115   1.07200E-21
    731.31683   1.07164E-21
    731.52246   1.06374E-21
    731.72815   1.11794E-21
    731.93384   1.15265E-21
    732.13953   1.13199E-21
    732.34515   1.10463E-21
    732.55084   1.04805E-21
    732.75653   1.02034E-21
    732.96228   1.10277E-21
    733.16797   1.13475E-21
    733.37366   1.19263E-21
    733.57935   1.29934E-21
    733.78510   1.34546E-21
    733.99078   1.40794E-21
    734.19647   1.55566E-21
    734.40222   1.65091E-21
    734.60797   1.60873E-21
    734.81372   1.71470E-21
    735.01941   1.72773E-21
    735.22516   1.59745E-21
    735.43091   1.56104E-21
    735.63666   1.55528E-21
    735.84247   1.51000E-21
    736.04822   1.43610E-21
    736.25397   1.36934E-21
    736.45972   1.37804E-21
    736.66553   1.44047E-21
    736.87128   1.51365E-21
    737.07709   1.51986E-21
    737.28290   1.44504E-21
    737.48871   1.36246E-21
    737.69446   1.27740E-21
    737.90027   1.29433E-21
    738.10608   1.33763E-21
    738.31195   1.43821E-21
    738.51776   1.58756E-21
    738.72357   1.71860E-21
    738.92944   1.73302E-21
    739.13525   1.61650E-21
    739.34113   1.43263E-21
    739.54700   1.40453E-21
    739.75281   1.41802E-21
    739.95868   1.51611E-21
    740.16455   1.68244E-21
    740.37042   1.54739E-21
    740.57635   1.50618E-21
    740.78223   1.52705E-21
    740.98810   1.42474E-21
    741.19403   1.30310E-21
    741.39990   1.27842E-21
    741.60583   1.25408E-21
    741.81177   1.22380E-21
    742.01770   1.23270E-21
    742.22363   1.34563E-21
    742.42957   1.43454E-21
    742.63550   1.57908E-21
    742.84149   1.68724E-21
    743.04742   1.79694E-21
    743.25342   1.84731E-21
    743.45935   1.93826E-21
    743.66534   2.00104E-21
    743.87134   2.10580E-21
    744.07733   2.24202E-21
    744.28333   2.30123E-21
    744.48932   2.61122E-21
    744.69537   2.95553E-21
    744.90137   3.12385E-21
    745.10742   3.10723E-21
    745.31342   3.15134E-21
    745.51947   3.05594E-21
    745.72552   3.12958E-21
    745.93158   3.64833E-21
    746.13763   3.41984E-21
    746.34369   3.64237E-21
    746.54980   3.33077E-21
    746.75586   2.52226E-21
    746.96198   2.07699E-21
    747.16809   1.79691E-21
    747.37421   1.66749E-21
    747.58032   1.64223E-21
    747.78644   1.43179E-21
    747.99255   1.31329E-21
    748.19873   1.29298E-21
    748.40485   1.23181E-21
    748.61102   1.18100E-21
    748.81720   1.21812E-21
    749.02332   1.25371E-21
    749.22949   1.30466E-21
    749.43573   1.37872E-21
    749.64191   1.39451E-21
    749.84808   1.40473E-21
    750.05432   1.39141E-21
    750.26056   1.41192E-21
    750.46674   1.41556E-21
    750.67297   1.56297E-21
    750.87921   1.58360E-21
    751.08551   1.68832E-21
    751.29175   1.59278E-21
    751.49799   1.59239E-21
    751.70428   1.60698E-21
    751.91058   1.64505E-21
    752.11688   1.60049E-21
    752.32318   1.65332E-21
    752.52948   1.71463E-21
    752.73578   1.62599E-21
    752.94214   1.54318E-21
    753.14844   1.48369E-21
    753.35480   1.56399E-21
    753.56116   1.61670E-21
    753.76752   1.75901E-21
    753.97388   1.81906E-21
    754.18024   1.68966E-21
    754.38666   1.62001E-21
    754.59302   1.47274E-21
    754.79944   1.44917E-21
    755.00586   1.60188E-21
    755.21228   1.62663E-21
    755.41870   1.59972E-21
    755.62512   1.78791E-21
    755.83160   1.52122E-21
    756.03802   1.32493E-21
    756.24451   1.33987E-21
    756.45099   1.29214E-21
    756.65747   1.19223E-21
    756.86395   1.22179E-21
    757.07050   1.19945E-21
    757.27698   1.29688E-21
    757.48352   1.25493E-21
    757.69006   1.05702E-21
    757.89661   9.54634E-22
    758.10315   9.37571E-22
    758.30969   8.81916E-22
    758.51624   8.59704E-22
    758.72284   8.40178E-22
    758.92944   7.91525E-22
    759.13605   7.91382E-22
    759.34265   7.62482E-22
    759.54926   7.28586E-22
    759.75586   6.83940E-22
    759.96252   7.19574E-22
    760.16913   7.11297E-22
    760.37579   6.66128E-22
    760.58246   6.66653E-22
    760.78912   6.50491E-22
    760.99585   6.38372E-22
    761.20251   6.44981E-22
    761.40924   6.56288E-22
    761.61597   6.57241E-22
    761.82269   6.61812E-22
    762.02942   6.83326E-22
    762.23615   7.02519E-22
    762.44293   7.50161E-22
    762.64966   7.56970E-22
    762.85645   7.76657E-22
    763.06323   8.12154E-22
    763.27002   8.01096E-22
    763.47681   8.21564E-22
    763.68365   8.32259E-22
    763.89044   8.58800E-22
    764.09729   8.89486E-22
    764.30414   9.13157E-22
    764.51099   9.66646E-22
    764.71790   9.60716E-22
    764.92474   9.85052E-22
    765.13165   9.50175E-22
    765.33850   8.77823E-22
    765.54541   9.51976E-22
    765.75232   9.52821E-22
    765.95929   9.05629E-22
    766.16620   8.58822E-22
    766.37317   8.59702E-22
    766.58014   8.61622E-22
    766.78705   8.31987E-22
    766.99408   7.51181E-22
    767.20105   7.46886E-22
    767.40802   7.29984E-22
    767.61505   7.29878E-22
    767.82208   7.14366E-22
    768.02911   6.53346E-22
    768.23615   6.29565E-22
    768.44318   6.45029E-22
    768.65027   6.51986E-22
    768.85736   6.31735E-22
    769.06439   5.78138E-22
    769.27155   5.36613E-22
    769.47864   5.10532E-22
    769.68573   5.01396E-22
    769.89288   5.06806E-22
    770.09998   4.98874E-22
    770.30713   4.92640E-22
    770.51428   4.94378E-22
    770.72150   4.95317E-22
    770.92865   4.71723E-22
    771.13586   4.72323E-22
    771.34308   4.67260E-22
    771.55029   4.66617E-22
    771.75751   4.72371E-22
    771.96472   4.71117E-22
    772.17200   4.53978E-22
    772.37921   4.80463E-22
    772.58649   4.99187E-22
    772.79376   4.72216E-22
    773.00110   4.63279E-22
    773.20837   4.87273E-22
    773.41571   4.99515E-22
    773.62299   4.85885E-22
    773.83032   4.98383E-22
    774.03772   5.15256E-22
    774.24506   5.22717E-22
    774.45245   5.32618E-22
    774.65979   5.18253E-22
    774.86719   5.07825E-22
    775.07458   5.17056E-22
    775.28204   5.29016E-22
    775.48944   5.46526E-22
    775.69690   5.60233E-22
    775.90430   5.55422E-22
    776.11176   5.70540E-22
    776.31927   5.79831E-22
    776.52673   6.12243E-22
    776.73419   6.40481E-22
    776.94171   6.52432E-22
    777.14923   6.80731E-22
    777.35675   7.10913E-22
    777.56433   7.14273E-22
    777.77185   7.03758E-22
    777.97943   7.01348E-22
    778.18695   7.34729E-22
    778.39453   7.04658E-22
    778.60217   7.13781E-22
    778.80975   7.27248E-22
    779.01740   7.28589E-22
    779.22498   6.99271E-22
    779.43262   6.62888E-22
    779.64032   6.69142E-22
    779.84796   6.92720E-22
    780.05560   7.29052E-22
    780.26331   6.93033E-22
    780.47101   6.83736E-22
    780.67871   6.90527E-22
    780.88641   6.83523E-22
    781.09418   6.65980E-22
    781.30188   6.50043E-22
    781.50964   6.54686E-22
    781.71741   6.93471E-22
    781.92523   7.15364E-22
    782.13300   6.90179E-22
    782.34082   6.85776E-22
    782.54858   6.75217E-22
    782.75641   7.19832E-22
    782.96423   7.43948E-22
    783.17212   7.41593E-22
    783.37994   7.58045E-22
    783.58783   7.48751E-22
    783.79572   7.17651E-22
    784.00360   6.85519E-22
    784.21149   7.00524E-22
    784.41943   7.83229E-22
    784.62738   8.64567E-22
    784.83527   9.01413E-22
    785.04321   8.92079E-22
    785.25122   8.22560E-22
    785.45917   7.12524E-22
    785.66718   7.07120E-22
    785.87518   7.87008E-22
    786.08319   8.61167E-22
    786.29120   8.34492E-22
    786.49921   7.47167E-22
    786.70728   7.14386E-22
    786.91528   7.48055E-22
    787.12335   7.93159E-22
    787.33148   8.29463E-22
    787.53955   8.62861E-22
    787.74768   9.12297E-22
    787.95575   9.89853E-22
    788.16388   1.09581E-21
    788.37201   1.10899E-21
    788.58020   1.14151E-21
    788.78833   1.18114E-21
    788.99652   1.21949E-21
    789.20471   1.20345E-21
    789.41290   1.19998E-21
    789.62109   1.37678E-21
    789.82928   1.51746E-21
    790.03754   1.60287E-21
    790.24579   1.42449E-21
    790.45404   1.28486E-21
    790.66229   1.24585E-21
    790.87054   1.25639E-21
    791.07886   1.01567E-21
    791.28717   8.92683E-22
    791.49548   9.04662E-22
    791.70380   8.81135E-22
    791.91211   9.33805E-22
    792.12048   9.05988E-22
    792.32880   8.37160E-22
    792.53717   7.82085E-22
    792.74554   6.84183E-22
    792.95398   6.33975E-22
    793.16235   6.36645E-22
    793.37079   7.36704E-22
    793.57922   7.27439E-22
    793.78766   6.57335E-22
    793.99609   5.97648E-22
