Molecule:    O3 (ozone)
Temperature: 293 K
File type:   absorption cross-sections in cm2/molecule
Instrument:  GOME FM grating spectrometer
Resolution:  wavelength dependent 0.2-0.4 nm
Reference:   Burrows et al., JQSRT, submitted, 1997
Contact:     orphal@physik.uni-bremen.de

    230.79260   1.52900E-21
    230.91920   4.80459E-18
    231.04570   4.67009E-18
    231.17210   4.88406E-18
    231.29849   4.91400E-18
    231.42480   4.91220E-18
    231.55110   4.97265E-18
    231.67720   5.24310E-18
    231.80330   5.37939E-18
    231.92940   5.02327E-18
    232.05530   5.05555E-18
    232.18120   5.33001E-18
    232.30710   5.54460E-18
    232.43280   5.52927E-18
    232.55850   5.46532E-18
    232.68410   5.49740E-18
    232.80969   5.47872E-18
    232.93520   5.55693E-18
    233.06059   5.59019E-18
    233.18600   5.67931E-18
    233.31120   5.69412E-18
    233.43649   5.71076E-18
    233.56160   5.73440E-18
    233.68671   5.77640E-18
    233.81171   5.81377E-18
    233.93671   5.85447E-18
    234.06160   5.91833E-18
    234.18640   5.98866E-18
    234.31110   6.04931E-18
    234.43581   6.10350E-18
    234.56050   6.16149E-18
    234.68500   6.20541E-18
    234.80949   6.24741E-18
    234.93390   6.27405E-18
    235.05830   6.29521E-18
    235.18260   6.31892E-18
    235.30679   6.35728E-18
    235.43100   6.40266E-18
    235.55510   6.45679E-18
    235.67920   6.52092E-18
    235.80310   6.58810E-18
    235.92709   6.66373E-18
    236.05090   6.71661E-18
    236.17470   6.76519E-18
    236.29840   6.80350E-18
    236.42210   6.84110E-18
    236.54570   6.87421E-18
    236.66920   6.91606E-18
    236.79269   6.96277E-18
    236.91611   7.02082E-18
    237.03951   7.07723E-18
    237.16280   7.12639E-18
    237.28600   7.16885E-18
    237.40910   7.20707E-18
    237.53220   7.25495E-18
    237.65530   7.30181E-18
    237.77831   7.35039E-18
    237.90120   7.40317E-18
    238.02400   7.45923E-18
    238.14680   7.50888E-18
    238.26961   7.55475E-18
    238.39220   7.59708E-18
    238.51489   7.63895E-18
    238.63741   7.67130E-18
    238.75990   7.69950E-18
    238.88240   7.73429E-18
    239.00470   7.77351E-18
    239.12700   7.83399E-18
    239.24930   7.89833E-18
    239.37151   7.96986E-18
    239.49361   8.04320E-18
    239.61571   8.11444E-18
    239.73770   8.17538E-18
    239.85970   8.22286E-18
    239.98160   8.26201E-18
    240.10339   8.27062E-18
    240.22520   8.28452E-18
    240.34700   8.30231E-18
    240.46860   8.33286E-18
    240.59019   8.38294E-18
    240.71181   8.43217E-18
    240.83330   8.48233E-18
    240.95470   8.53353E-18
    241.07610   8.58640E-18
    241.19740   8.63977E-18
    241.31870   8.70607E-18
    241.43990   8.76830E-18
    241.56110   8.82372E-18
    241.68221   8.85623E-18
    241.80321   8.87735E-18
    241.92419   8.89888E-18
    242.04520   8.92985E-18
    242.16600   8.96651E-18
    242.28690   9.00665E-18
    242.40759   9.03941E-18
    242.52831   9.07268E-18
    242.64900   9.10945E-18
    242.76961   9.15753E-18
    242.89020   9.21298E-18
    243.01060   9.26795E-18
    243.13110   9.32636E-18
    243.25150   9.37992E-18
    243.37180   9.43081E-18
    243.49210   9.48736E-18
    243.61230   9.53898E-18
    243.73250   9.58685E-18
    243.85260   9.62619E-18
    243.97260   9.64169E-18
    244.09261   9.65302E-18
    244.21260   9.66200E-18
    244.33250   9.66906E-18
    244.45230   9.67985E-18
    244.57210   9.68393E-18
    244.69189   9.70081E-18
    244.81160   9.73602E-18
    244.93120   9.79881E-18
    245.05080   9.88964E-18
    245.17030   9.98630E-18
    245.28979   1.00710E-17
    245.40919   1.01314E-17
    245.52859   1.01819E-17
    245.64790   1.02125E-17
    245.76720   1.02345E-17
    245.88640   1.02497E-17
    246.00560   1.02592E-17
    246.12469   1.02617E-17
    246.24380   1.02587E-17
    246.36279   1.02507E-17
    246.48180   1.02575E-17
    246.60069   1.02679E-17
    246.71960   1.02872E-17
    246.83839   1.03214E-17
    246.95720   1.03741E-17
    247.07590   1.04386E-17
    247.19460   1.05032E-17
    247.31320   1.05499E-17
    247.43170   1.05902E-17
    247.55029   1.06236E-17
    247.66870   1.06520E-17
    247.78720   1.06686E-17
    247.90550   1.06559E-17
    248.02390   1.06319E-17
    248.14220   1.06207E-17
    248.26041   1.06343E-17
    248.37860   1.06790E-17
    248.49670   1.07485E-17
    248.61481   1.08335E-17
    248.73280   1.09161E-17
    248.85080   1.09859E-17
    248.96880   1.10217E-17
    249.08670   1.10275E-17
    249.20450   1.10186E-17
    249.32230   1.10085E-17
    249.44009   1.10223E-17
    249.55780   1.10495E-17
    249.67540   1.10897E-17
    249.79311   1.11278E-17
    249.91060   1.11485E-17
    250.02820   1.11467E-17
    250.14560   1.11236E-17
    250.26311   1.10905E-17
    250.38040   1.10576E-17
    250.49780   1.10374E-17
    250.61510   1.10321E-17
    250.73230   1.10366E-17
    250.84950   1.10486E-17
    250.96671   1.10652E-17
    251.08380   1.10950E-17
    251.20090   1.11414E-17
    251.31790   1.12215E-17
    251.43491   1.13330E-17
    251.55180   1.14307E-17
    251.66870   1.14898E-17
    251.78560   1.15108E-17
    251.90240   1.14950E-17
    252.01910   1.14625E-17
    252.13580   1.14249E-17
    252.25250   1.13826E-17
    252.36909   1.13417E-17
    252.48570   1.13039E-17
    252.60229   1.12830E-17
    252.71880   1.12832E-17
    252.83521   1.13039E-17
    252.95160   1.13246E-17
    253.06799   1.13477E-17
    253.18430   1.13659E-17
    253.30060   1.14023E-17
    253.41690   1.14453E-17
    253.53310   1.14837E-17
    253.64920   1.15028E-17
    253.76530   1.15124E-17
    253.88139   1.15200E-17
    253.99741   1.15134E-17
    254.11340   1.14877E-17
    254.22940   1.14335E-17
    254.34531   1.13830E-17
    254.46120   1.13352E-17
    254.57700   1.13182E-17
    254.69279   1.13391E-17
    254.80850   1.13973E-17
    254.92419   1.14766E-17
    255.03990   1.15638E-17
    255.15550   1.16471E-17
    255.27110   1.16894E-17
    255.38660   1.16877E-17
    255.50211   1.16525E-17
    255.61760   1.16124E-17
    255.73300   1.15649E-17
    255.84840   1.15170E-17
    255.96370   1.14729E-17
    256.07901   1.14260E-17
    256.19431   1.13697E-17
    256.30951   1.13115E-17
    256.42471   1.12528E-17
    256.53989   1.12122E-17
    256.65500   1.12075E-17
    256.77011   1.12252E-17
    256.88510   1.12612E-17
    257.00009   1.12988E-17
    257.11511   1.13165E-17
    257.23001   1.13014E-17
    257.34479   1.12609E-17
    257.45969   1.12209E-17
    257.57449   1.11888E-17
    257.68930   1.11784E-17
    257.80399   1.11588E-17
    257.91870   1.11510E-17
    258.03339   1.11626E-17
    258.14789   1.12060E-17
    258.26251   1.12863E-17
    258.37711   1.13840E-17
    258.49161   1.14692E-17
    258.60611   1.15164E-17
    258.72049   1.15178E-17
    258.83490   1.14813E-17
    258.94931   1.14125E-17
    259.06360   1.13087E-17
    259.17789   1.11809E-17
    259.29211   1.10413E-17
    259.40631   1.09114E-17
    259.52051   1.08058E-17
    259.63470   1.07363E-17
    259.74881   1.06969E-17
    259.86292   1.06893E-17
    259.97690   1.07218E-17
    260.09091   1.07925E-17
    260.20490   1.08834E-17
    260.31879   1.09729E-17
    260.43271   1.10410E-17
    260.54660   1.10800E-17
    260.66040   1.10768E-17
    260.77420   1.10326E-17
    260.88800   1.09514E-17
    261.00171   1.08462E-17
    261.11539   1.07371E-17
    261.22910   1.06387E-17
    261.34271   1.05573E-17
    261.45630   1.05053E-17
    261.56989   1.04762E-17
    261.68341   1.04683E-17
    261.79691   1.04727E-17
    261.91040   1.04894E-17
    262.02380   1.05088E-17
    262.13721   1.05466E-17
    262.25049   1.05870E-17
    262.36389   1.06079E-17
    262.47720   1.05927E-17
    262.59052   1.05245E-17
    262.70370   1.04303E-17
    262.81689   1.03167E-17
    262.93011   1.02004E-17
    263.04321   1.00969E-17
    263.15631   1.00144E-17
    263.26929   9.95455E-18
    263.38239   9.90631E-18
    263.49539   9.88416E-18
    263.60840   9.88611E-18
    263.72131   9.90696E-18
    263.83429   9.93938E-18
    263.94711   9.97291E-18
    264.06000   1.00008E-17
    264.17279   1.00229E-17
    264.28561   1.00347E-17
    264.39841   1.00299E-17
    264.51111   9.99773E-18
    264.62381   9.92839E-18
    264.73651   9.82442E-18
    264.84909   9.70336E-18
    264.96170   9.60337E-18
    265.07431   9.54953E-18
    265.18689   9.54622E-18
    265.29941   9.56533E-18
    265.41190   9.58576E-18
    265.52441   9.58407E-18
    265.63681   9.56647E-18
    265.74921   9.53365E-18
    265.86151   9.48668E-18
    265.97391   9.41953E-18
    266.08621   9.34251E-18
    266.19849   9.28147E-18
    266.31079   9.23938E-18
    266.42300   9.19637E-18
    266.53519   9.13562E-18
    266.64740   9.05429E-18
    266.75949   8.95192E-18
    266.87161   8.84790E-18
    266.98370   8.76656E-18
    267.09579   8.73951E-18
    267.20779   8.76088E-18
    267.31979   8.81511E-18
    267.43179   8.86883E-18
    267.54370   8.88559E-18
    267.65570   8.86762E-18
    267.76749   8.82148E-18
    267.87939   8.75662E-18
    267.99130   8.67754E-18
    268.10309   8.59409E-18
    268.21490   8.50838E-18
    268.32660   8.41662E-18
    268.43839   8.33484E-18
    268.54999   8.26954E-18
    268.66171   8.21771E-18
    268.77341   8.16211E-18
    268.88501   8.10448E-18
    268.99661   8.04327E-18
    269.10818   8.00165E-18
    269.21979   7.99406E-18
    269.33130   8.02405E-18
    269.44269   8.07356E-18
    269.55420   8.11819E-18
    269.66571   8.13122E-18
    269.77710   8.09420E-18
    269.88849   8.02798E-18
    269.99979   7.94825E-18
    270.11121   7.86283E-18
    270.22250   7.78477E-18
    270.33380   7.70810E-18
    270.44510   7.63110E-18
    270.55630   7.56191E-18
    270.66760   7.50216E-18
    270.77869   7.45007E-18
    270.88989   7.41184E-18
    271.00110   7.37818E-18
    271.11221   7.33921E-18
    271.22330   7.29628E-18
    271.33441   7.25872E-18
    271.44540   7.23410E-18
    271.55649   7.21913E-18
    271.66739   7.21097E-18
    271.77841   7.19859E-18
    271.88940   7.17024E-18
    272.00031   7.11492E-18
    272.11121   7.04274E-18
    272.22211   6.97132E-18
    272.33301   6.91978E-18
    272.44379   6.88013E-18
    272.55460   6.83219E-18
    272.66541   6.77784E-18
    272.77621   6.72407E-18
    272.88690   6.68384E-18
    272.99771   6.65691E-18
    273.10840   6.63465E-18
    273.21899   6.58862E-18
    273.32971   6.52751E-18
    273.44031   6.45879E-18
    273.55090   6.39076E-18
    273.66150   6.32449E-18
    273.77209   6.25952E-18
    273.88269   6.18969E-18
    273.99319   6.11732E-18
    274.10370   6.04220E-18
    274.21420   5.97721E-18
    274.32458   5.94122E-18
    274.43509   5.93391E-18
    274.54550   5.94146E-18
    274.65591   5.94454E-18
    274.76630   5.93580E-18
    274.87659   5.91074E-18
    274.98691   5.86686E-18
    275.09729   5.81411E-18
    275.20761   5.75816E-18
    275.31781   5.69914E-18
    275.42810   5.63899E-18
    275.53830   5.58041E-18
    275.64850   5.52018E-18
    275.75870   5.46597E-18
    275.86890   5.42843E-18
    275.97900   5.40932E-18
    276.08911   5.39414E-18
    276.19931   5.36769E-18
    276.30939   5.31982E-18
    276.41940   5.25816E-18
    276.52951   5.20250E-18
    276.63950   5.16006E-18
    276.74951   5.12470E-18
    276.85950   5.09082E-18
    276.96951   5.05730E-18
    277.07941   5.03351E-18
    277.18939   5.01387E-18
    277.29929   4.98808E-18
    277.40921   4.95204E-18
    277.51910   4.90316E-18
    277.62891   4.84225E-18
    277.73880   4.78104E-18
    277.84860   4.72261E-18
    277.95840   4.67210E-18
    278.06821   4.62916E-18
    278.17789   4.59328E-18
    278.28769   4.56184E-18
    278.39740   4.52903E-18
    278.50711   4.49363E-18
    278.61691   4.45753E-18
    278.72650   4.41514E-18
    278.83621   4.36720E-18
    278.94580   4.31684E-18
    279.05551   4.26595E-18
    279.16510   4.22251E-18
    279.27469   4.18930E-18
    279.38419   4.16640E-18
    279.49380   4.14971E-18
    279.60330   4.13360E-18
    279.71280   4.11234E-18
    279.82230   4.08263E-18
    279.93179   4.04017E-18
    280.04129   3.98238E-18
    280.15079   3.91773E-18
    280.26019   3.85584E-18
    280.36960   3.80652E-18
    280.47900   3.76573E-18
    280.58841   3.73132E-18
    280.69781   3.70791E-18
    280.80710   3.68963E-18
    280.91641   3.67323E-18
    281.02579   3.64692E-18
    281.13510   3.60624E-18
    281.24438   3.55142E-18
    281.35361   3.48888E-18
    281.46289   3.42773E-18
    281.57211   3.37433E-18
    281.68140   3.32828E-18
    281.79059   3.29069E-18
    281.89981   3.26492E-18
    282.00900   3.24611E-18
    282.11810   3.23371E-18
    282.22729   3.21724E-18
    282.33640   3.19063E-18
    282.44550   3.15108E-18
    282.55460   3.10895E-18
    282.66370   3.07217E-18
    282.77280   3.04239E-18
    282.88190   3.02233E-18
    282.99091   3.01123E-18
    283.09991   3.00859E-18
    283.20901   3.01212E-18
    283.31799   3.00766E-18
    283.42691   2.98198E-18
    283.53589   2.93819E-18
    283.64490   2.88577E-18
    283.75381   2.82940E-18
    283.86279   2.77526E-18
    283.97171   2.72339E-18
    284.08060   2.68390E-18
    284.18951   2.65408E-18
    284.29831   2.63366E-18
    284.40720   2.61119E-18
    284.51611   2.58562E-18
    284.62491   2.55902E-18
    284.73370   2.53566E-18
    284.84250   2.50923E-18
    284.95129   2.47729E-18
    285.06009   2.43876E-18
    285.16891   2.39904E-18
    285.27759   2.36006E-18
    285.38641   2.32938E-18
    285.49509   2.30971E-18
    285.60379   2.29676E-18
    285.71249   2.28433E-18
    285.82120   2.27177E-18
    285.92990   2.25286E-18
    286.03851   2.22975E-18
    286.14719   2.20488E-18
    286.25580   2.17914E-18
    286.36450   2.15092E-18
    286.47311   2.12291E-18
    286.58170   2.09609E-18
    286.69031   2.07070E-18
    286.79889   2.04903E-18
    286.90741   2.03325E-18
    287.01599   2.01822E-18
    287.12451   2.00083E-18
    287.23309   1.98002E-18
    287.34161   1.95434E-18
    287.45010   1.92176E-18
    287.55859   1.88462E-18
    287.66711   1.84795E-18
    287.77551   1.81445E-18
    287.88400   1.78415E-18
    287.99249   1.75900E-18
    288.10089   1.73678E-18
    288.20929   1.71431E-18
    288.31769   1.69769E-18
    288.42609   1.68041E-18
    288.53448   1.66491E-18
    288.64291   1.64827E-18
    288.75131   1.62846E-18
    288.85971   1.60771E-18
    288.96799   1.58693E-18
    289.07639   1.56758E-18
    289.18469   1.54832E-18
    289.29300   1.52811E-18
    289.40131   1.50689E-18
    289.50961   1.48545E-18
    289.61789   1.46331E-18
    289.72620   1.44653E-18
    289.83450   1.43135E-18
    289.94269   1.41742E-18
    290.02899   1.40986E-18
    290.12900   1.39450E-18
    290.22900   1.38069E-18
    290.32901   1.36819E-18
    290.42899   1.35676E-18
    290.52899   1.34507E-18
    290.62900   1.33109E-18
    290.72900   1.31598E-18
    290.82901   1.30082E-18
    290.92899   1.28445E-18
    291.02899   1.26741E-18
    291.12900   1.24979E-18
    291.22900   1.23196E-18
    291.32901   1.21315E-18
    291.42899   1.19280E-18
    291.52899   1.17232E-18
    291.62900   1.15302E-18
    291.72900   1.13732E-18
    291.82901   1.12395E-18
    291.92899   1.11078E-18
    292.02899   1.09852E-18
    292.12900   1.08539E-18
    292.22900   1.07333E-18
    292.32901   1.06463E-18
    292.42899   1.05713E-18
    292.52899   1.04947E-18
    292.62900   1.04071E-18
    292.72900   1.03016E-18
    292.82901   1.01731E-18
    292.92899   1.00284E-18
    293.02899   9.88662E-19
    293.12900   9.74376E-19
    293.22900   9.59566E-19
    293.32901   9.44204E-19
    293.42899   9.28634E-19
    293.52899   9.14345E-19
    293.62900   8.99670E-19
    293.72900   8.86401E-19
    293.82901   8.76417E-19
    293.92899   8.68351E-19
    294.02899   8.61846E-19
    294.12900   8.54746E-19
    294.22900   8.46433E-19
    294.32901   8.37115E-19
    294.42899   8.28287E-19
    294.52899   8.19493E-19
    294.62900   8.09653E-19
    294.72900   7.99899E-19
    294.82901   7.90061E-19
    294.92899   7.79366E-19
    295.02899   7.67605E-19
    295.12900   7.54813E-19
    295.22900   7.41449E-19
    295.32901   7.28774E-19
    295.42899   7.17897E-19
    295.52899   7.08671E-19
    295.62900   6.99970E-19
    295.72900   6.91721E-19
    295.82901   6.83706E-19
    295.92899   6.74339E-19
    296.02899   6.62642E-19
    296.12900   6.49660E-19
    296.22900   6.39575E-19
    296.32901   6.32849E-19
    296.42899   6.27757E-19
    296.52899   6.23585E-19
    296.62900   6.19211E-19
    296.72900   6.14142E-19
    296.82901   6.06372E-19
    296.92899   5.95711E-19
    297.02899   5.86098E-19
    297.12900   5.77461E-19
    297.22900   5.68901E-19
    297.32901   5.60241E-19
    297.42899   5.51414E-19
    297.52899   5.43047E-19
    297.62900   5.35038E-19
    297.72900   5.27718E-19
    297.82901   5.20694E-19
    297.92899   5.13557E-19
    298.02899   5.07465E-19
    298.12900   5.01436E-19
    298.22900   4.95076E-19
    298.32901   4.89058E-19
    298.42899   4.83381E-19
    298.52899   4.79382E-19
    298.62900   4.75604E-19
    298.72900   4.70928E-19
    298.82901   4.65782E-19
    298.92899   4.59600E-19
    299.02899   4.52193E-19
    299.12900   4.44581E-19
    299.22900   4.36875E-19
    299.32901   4.28538E-19
    299.42899   4.20586E-19
    299.52899   4.13814E-19
    299.62900   4.07592E-19
    299.72900   4.02847E-19
    299.82901   3.99612E-19
    299.92899   3.96261E-19
    300.08221   3.89431E-19
    300.18979   3.84154E-19
    300.29739   3.79068E-19
    300.40491   3.74886E-19
    300.51251   3.70579E-19
    300.62000   3.65906E-19
    300.72760   3.59819E-19
    300.83511   3.53223E-19
    300.94269   3.46228E-19
    301.05020   3.39124E-19
    301.15771   3.32849E-19
    301.26520   3.27525E-19
    301.37271   3.22668E-19
    301.48029   3.18281E-19
    301.58771   3.14776E-19
    301.69531   3.12220E-19
    301.80280   3.09972E-19
    301.91019   3.07231E-19
    302.01770   3.03893E-19
    302.12521   3.00145E-19
    302.23270   2.96245E-19
    302.34021   2.91751E-19
    302.44769   2.86820E-19
    302.55511   2.81624E-19
    302.66260   2.76358E-19
    302.77011   2.70998E-19
    302.87750   2.65505E-19
    302.98499   2.60465E-19
    303.09241   2.56220E-19
    303.19989   2.52701E-19
    303.30731   2.49547E-19
    303.41479   2.46571E-19
    303.52219   2.43895E-19
    303.62961   2.41481E-19
    303.73709   2.39693E-19
    303.84451   2.38714E-19
    303.95190   2.37657E-19
    304.05939   2.34913E-19
    304.16681   2.31322E-19
    304.27420   2.27558E-19
    304.38159   2.24249E-19
    304.48901   2.20831E-19
    304.59641   2.16459E-19
    304.70380   2.11526E-19
    304.81119   2.06983E-19
    304.91861   2.02687E-19
    305.02600   1.98501E-19
    305.13339   1.94615E-19
    305.24081   1.91112E-19
    305.34821   1.88192E-19
    305.45560   1.86171E-19
    305.56290   1.84950E-19
    305.67029   1.83997E-19
    305.77771   1.82298E-19
    305.88510   1.80192E-19
    305.99240   1.78167E-19
    306.09979   1.77326E-19
    306.20721   1.76779E-19
    306.31451   1.75117E-19
    306.42191   1.72130E-19
    306.52921   1.68779E-19
    306.63660   1.65970E-19
    306.74390   1.63456E-19
    306.85129   1.60445E-19
    306.95859   1.56510E-19
    307.06601   1.52474E-19
    307.17331   1.48759E-19
    307.28070   1.45885E-19
    307.38800   1.43045E-19
    307.49530   1.40704E-19
    307.60269   1.38635E-19
    307.70999   1.37529E-19
    307.81741   1.37187E-19
    307.92471   1.36396E-19
    308.03201   1.35654E-19
    308.13931   1.34711E-19
    308.24661   1.32547E-19
    308.35400   1.29815E-19
    308.46130   1.28062E-19
    308.56860   1.28080E-19
    308.67590   1.27700E-19
    308.78320   1.26660E-19
    308.89050   1.24921E-19
    308.99780   1.23592E-19
    309.10519   1.21229E-19
    309.21249   1.18268E-19
    309.31979   1.14750E-19
    309.42709   1.10229E-19
    309.53439   1.06928E-19
    309.64169   1.04858E-19
    309.74899   1.03571E-19
    309.85629   1.02624E-19
    309.96359   1.01828E-19
    310.07089   1.01615E-19
    310.17819   1.01772E-19
    310.28549   1.00829E-19
    310.39270   9.84231E-20
    310.50000   9.60741E-20
    310.60730   9.50198E-20
    310.71460   9.43318E-20
    310.82190   9.31232E-20
    310.92920   9.22587E-20
    311.03650   9.14212E-20
    311.14371   9.12572E-20
    311.25101   9.15034E-20
    311.35831   9.10707E-20
    311.46561   8.94398E-20
    311.57281   8.72047E-20
    311.68011   8.47397E-20
    311.78741   8.24037E-20
    311.89471   8.03306E-20
    312.00201   7.85456E-20
    312.10919   7.72881E-20
    312.21649   7.60773E-20
    312.32379   7.46471E-20
    312.43109   7.30733E-20
    312.53830   7.17687E-20
    312.64560   7.06371E-20
    312.75290   6.96343E-20
    312.86011   6.91139E-20
    312.96741   6.84038E-20
    313.07458   6.75576E-20
    313.18188   6.73088E-20
    313.28922   6.85069E-20
    313.39651   6.96672E-20
    313.50369   6.99685E-20
    313.61099   6.91651E-20
    313.71820   6.77882E-20
    313.82550   6.60702E-20
    313.96469   6.21647E-20
    314.08109   6.01038E-20
    314.19739   5.79726E-20
    314.31360   5.58448E-20
    314.42990   5.40204E-20
    314.54611   5.27950E-20
    314.66241   5.21839E-20
    314.77850   5.17552E-20
    314.89471   5.11464E-20
    315.01089   5.05145E-20
    315.12701   5.03250E-20
    315.24319   5.11343E-20
    315.35931   5.26118E-20
    315.47540   5.34456E-20
    315.59140   5.29154E-20
    315.70749   5.12665E-20
    315.82349   4.91330E-20
    315.93951   4.70723E-20
    316.05551   4.55630E-20
    316.17151   4.43880E-20
    316.28741   4.33327E-20
    316.40341   4.21024E-20
    316.51929   4.07850E-20
    316.63519   3.96635E-20
    316.75110   3.93602E-20
    316.86691   3.99367E-20
    316.98279   4.05864E-20
    317.09860   4.05029E-20
    317.21439   3.98020E-20
    317.33020   3.94945E-20
    317.44601   4.03948E-20
    317.56171   4.11867E-20
    317.67749   4.06728E-20
    317.79321   3.90580E-20
    317.90891   3.75678E-20
    318.02451   3.64876E-20
    318.14020   3.51628E-20
    318.25580   3.34435E-20
    318.37149   3.17510E-20
    318.48709   3.04886E-20
    318.60269   2.96035E-20
    318.71820   2.87843E-20
    318.83380   2.79185E-20
    318.94931   2.70641E-20
    319.06479   2.66719E-20
    319.18030   2.73955E-20
    319.29581   2.92562E-20
    319.41129   3.08554E-20
    319.52670   3.11003E-20
    319.64221   3.03111E-20
    319.75760   2.99261E-20
    319.87299   3.08610E-20
    319.98831   3.15452E-20
    320.10370   3.05818E-20
    320.21899   2.86570E-20
    320.33441   2.67494E-20
    320.44971   2.54366E-20
    320.56491   2.43962E-20
    320.68021   2.30865E-20
    320.79550   2.16187E-20
    320.91071   2.03217E-20
    321.02591   1.94328E-20
    321.14111   1.90034E-20
    321.25629   1.89220E-20
    321.37149   1.88884E-20
    321.48660   1.86257E-20
    321.60181   1.83531E-20
    321.71689   1.87112E-20
    321.83200   2.04890E-20
    321.94711   2.30791E-20
    322.06219   2.41627E-20
    322.17719   2.34443E-20
    322.29221   2.22057E-20
    322.40729   2.16250E-20
    322.52219   2.25904E-20
    322.63721   2.34501E-20
    322.75220   2.26425E-20
    322.86719   2.10495E-20
    322.98209   1.93671E-20
    323.09698   1.77577E-20
    323.21191   1.63576E-20
    323.32681   1.51712E-20
    323.44171   1.41277E-20
    323.55649   1.31930E-20
    323.67139   1.24111E-20
    323.78619   1.19112E-20
    323.90100   1.17927E-20
    324.01581   1.22240E-20
    324.13062   1.28004E-20
    324.24530   1.29694E-20
    324.35999   1.28462E-20
    324.47479   1.28630E-20
    324.58951   1.36733E-20
    324.70419   1.60202E-20
    324.81879   1.78072E-20
    324.93350   1.75529E-20
    325.04819   1.64252E-20
    325.16281   1.51977E-20
    325.27740   1.44538E-20
    325.39200   1.46620E-20
    325.50659   1.47829E-20
    325.62109   1.40469E-20
    325.73569   1.29825E-20
    325.85019   1.19584E-20
    325.96481   1.10534E-20
    326.07932   1.03318E-20
    326.19370   9.69763E-21
    326.30820   9.16157E-21
    326.42270   8.67673E-21
    326.53711   8.21903E-21
    326.65149   7.86461E-21
    326.76590   7.66128E-21
    326.88031   7.82292E-21
    326.99469   8.56799E-21
    327.10910   9.31713E-21
    327.22339   9.49182E-21
    327.33780   9.22445E-21
    327.45209   8.88379E-21
    327.56641   8.96640E-21
    327.68069   1.01680E-20
    327.79501   1.19852E-20
    327.90921   1.29022E-20
    328.02350   1.25787E-20
    328.13770   1.17041E-20
    328.25189   1.07730E-20
    328.36609   9.94351E-21
    328.48029   9.16406E-21
    328.59451   8.34826E-21
    328.70859   7.58722E-21
    328.82281   6.91965E-21
    328.93689   6.42881E-21
    329.05099   5.99786E-21
    329.16510   5.60671E-21
    329.27921   5.24909E-21
    329.39331   5.02119E-21
    329.50729   4.94887E-21
    329.62140   4.89542E-21
    329.73541   4.76909E-21
    329.84940   4.63360E-21
    329.96341   4.69733E-21
    330.07739   5.22343E-21
    330.19131   6.36729E-21
    330.30530   7.19593E-21
    330.41931   7.25849E-21
    330.53320   6.94637E-21
    330.64709   6.58021E-21
    330.76099   6.46855E-21
    330.87491   7.11314E-21
    330.98871   8.19543E-21
    331.10260   8.36700E-21
    331.21640   7.87458E-21
    331.33029   7.20123E-21
    331.44409   6.51862E-21
    331.55789   5.96517E-21
    331.67169   5.47811E-21
    331.78540   4.97409E-21
    331.89920   4.48925E-21
    332.01291   4.07260E-21
    332.12671   3.71469E-21
    332.24039   3.45600E-21
    332.35410   3.24604E-21
    332.46780   3.08952E-21
    332.58151   2.97798E-21
    332.69510   2.96271E-21
    332.80881   3.10676E-21
    332.92239   3.29532E-21
    333.03601   3.51296E-21
    333.14969   3.68438E-21
    333.26321   3.72361E-21
    333.37680   3.89170E-21
    333.49039   4.57914E-21
    333.60400   5.46730E-21
    333.71750   5.81290E-21
    333.83109   5.78085E-21
    333.94449   5.42770E-21
    334.05811   4.94032E-21
    334.17160   4.44595E-21
    334.28500   4.00359E-21
    334.39850   3.67321E-21
    334.51199   3.45160E-21
    334.62540   3.20968E-21
    334.73880   2.94393E-21
    334.85220   2.67039E-21
    334.96561   2.42166E-21
    335.07901   2.21084E-21
    335.19241   2.03932E-21
    335.30579   1.93710E-21
    335.41910   1.89520E-21
    335.53241   1.87809E-21
    335.64581   1.84058E-21
    335.75909   1.78020E-21
    335.87241   1.74107E-21
    335.98569   1.80268E-21
    336.09891   2.02044E-21
    336.21219   2.29857E-21
    336.32541   2.56721E-21
    336.43869   2.67955E-21
    336.55191   2.62444E-21
    336.66510   2.54747E-21
    336.77829   2.57934E-21
    336.89151   2.76237E-21
    337.00470   3.16335E-21
    337.11780   3.70178E-21
    337.23099   3.82205E-21
    337.34409   3.63541E-21
    337.45721   3.35724E-21
    337.57031   3.06770E-21
    337.68341   2.77339E-21
    337.79651   2.49449E-21
    337.90961   2.24322E-21
    338.02100   2.01812E-21
    338.13400   1.81503E-21
    338.24710   1.63398E-21
    338.36011   1.50043E-21
    338.47311   1.41475E-21
    338.58621   1.37957E-21
    338.69910   1.36495E-21
    338.81210   1.34709E-21
    338.92511   1.31751E-21
    339.03809   1.28434E-21
    339.15100   1.29648E-21
    339.26389   1.41717E-21
    339.37689   1.55764E-21
    339.48981   1.60420E-21
    339.60269   1.57654E-21
    339.71561   1.55022E-21
    339.82849   1.60635E-21
    339.94131   1.84973E-21
    340.05420   2.11665E-21
    340.16711   2.17196E-21
    340.27991   2.07657E-21
    340.39270   1.91286E-21
    340.50549   1.73060E-21
    340.61829   1.55292E-21
    340.73111   1.39141E-21
    340.84390   1.25176E-21
    340.95660   1.12929E-21
    341.06940   1.02499E-21
    341.18210   9.35503E-22
    341.29489   8.63739E-22
    341.40759   8.00926E-22
    341.52029   7.55589E-22
    341.63300   7.23732E-22
    341.74570   7.11775E-22
    341.85831   7.28786E-22
    341.97101   7.75427E-22
    342.08359   7.93765E-22
    342.19629   7.68171E-22
    342.30890   7.30137E-22
    342.42151   7.06513E-22
    342.53409   7.04312E-22
    342.64679   7.48390E-22
    342.75931   8.47765E-22
    342.87189   9.16078E-22
    342.98450   9.45158E-22
    343.09698   9.70205E-22
    343.20959   9.57664E-22
    343.32211   9.22633E-22
    343.43460   9.06139E-22
    343.54709   9.21450E-22
    343.65961   9.86539E-22
    343.77209   1.17054E-21
    343.88461   1.37085E-21
    343.99710   1.40282E-21
    344.10950   1.33256E-21
    344.22198   1.22426E-21
    344.33441   1.10959E-21
    344.44681   1.00068E-21
    344.55920   9.06427E-22
    344.67169   8.34953E-22
    344.78409   7.81999E-22
    344.89639   7.33361E-22
    345.00879   6.81095E-22
    345.12119   6.40011E-22
    345.23349   6.22272E-22
    345.34589   6.20786E-22
    345.45819   6.51572E-22
    345.57050   7.07084E-22
    345.68280   7.23645E-22
    345.79510   6.94139E-22
    345.90741   6.44400E-22
    346.01971   5.96491E-22
    346.13199   5.61874E-22
    346.24420   5.45645E-22
    346.35651   5.36499E-22
    346.46869   5.14957E-22
    346.58090   4.88062E-22
    346.69312   4.62477E-22
    346.80539   4.48853E-22
    346.91760   4.58052E-22
    347.02979   5.07321E-22
    347.14191   5.54688E-22
    347.25409   5.52284E-22
    347.36630   5.26117E-22
    347.47839   4.90197E-22
    347.59052   4.50339E-22
    347.70270   4.13442E-22
    347.81479   3.79053E-22
    347.92691   3.52073E-22
    348.03900   3.28799E-22
    348.15109   3.07375E-22
    348.26321   2.90640E-22
    348.37531   2.83756E-22
    348.48730   2.88630E-22
    348.59940   2.97596E-22
    348.71140   2.96928E-22
    348.82349   2.87941E-22
    348.93549   2.75724E-22
    349.04749   2.67519E-22
    349.15948   2.75705E-22
    349.27151   3.15638E-22
    349.38351   3.69525E-22
    349.49551   3.89831E-22
    349.60739   3.79260E-22
    349.71939   3.57450E-22
    349.83130   3.34423E-22
    349.94330   3.18305E-22
    350.05521   3.14728E-22
    350.16711   3.15167E-22
    350.27899   3.05294E-22
    350.39090   2.90259E-22
    350.50281   2.75838E-22
    350.61469   2.62361E-22
    350.72659   2.51997E-22
    350.83841   2.44979E-22
    350.95029   2.50408E-22
    351.06210   2.76419E-22
    351.17401   3.34314E-22
    351.28580   4.01360E-22
    351.39761   4.27311E-22
    351.50940   4.21824E-22
    351.62119   4.00842E-22
    351.73300   3.73594E-22
    351.84479   3.44776E-22
    351.95660   3.18125E-22
    352.06839   2.96731E-22
    352.18011   2.83867E-22
    352.29190   2.82577E-22
    352.40359   2.94439E-22
    352.51529   3.04702E-22
    352.62701   2.99712E-22
    352.73880   2.82454E-22
    352.85049   2.61151E-22
    352.96219   2.41575E-22
    353.07391   2.25979E-22
    353.18549   2.18054E-22
    353.29721   2.12996E-22
    353.40891   2.01377E-22
    353.52051   1.88421E-22
    353.63211   1.74240E-22
    353.74380   1.61145E-22
    353.85541   1.49073E-22
    353.96701   1.39376E-22
    354.07861   1.30630E-22
    354.19019   1.25435E-22
    354.30179   1.22797E-22
    354.41339   1.20169E-22
    354.52499   1.17534E-22
    354.63660   1.17742E-22
    354.74811   1.19871E-22
    354.85971   1.23903E-22
    354.97119   1.26316E-22
    355.08270   1.27733E-22
    355.19431   1.25861E-22
    355.30579   1.21655E-22
    355.41730   1.14383E-22
    355.52881   1.09092E-22
    355.64029   1.05988E-22
    355.75180   1.06363E-22
    355.86331   1.08338E-22
    355.97470   1.06072E-22
    356.08621   1.02072E-22
    356.19760   9.92109E-23
    356.30911   9.88293E-23
    356.42050   1.05828E-22
    356.53189   1.25400E-22
    356.64331   1.48764E-22
    356.75470   1.57389E-22
    356.86609   1.54734E-22
    356.97751   1.47357E-22
    357.08890   1.39057E-22
    357.20029   1.34300E-22
    357.31171   1.33335E-22
    357.42300   1.35096E-22
    357.53439   1.32635E-22
    357.64569   1.26329E-22
    357.75711   1.19176E-22
    357.86841   1.13462E-22
    357.97971   1.09791E-22
    358.09100   1.06978E-22
    358.20239   1.02808E-22
    358.31369   9.79709E-23
    358.42490   9.18225E-23
    358.53619   8.74832E-23
    358.64749   8.41527E-23
    358.75879   8.39041E-23
    358.87000   8.44142E-23
    358.98129   8.52311E-23
    359.09250   8.80897E-23
    359.20380   9.47135E-23
    359.31500   1.02617E-22
    359.42621   1.06219E-22
    359.53741   1.04554E-22
    359.64871   1.00866E-22
    359.75989   9.71718E-23
    359.87100   9.49022E-23
    359.98221   9.59182E-23
    360.09341   1.00211E-22
    360.20459   1.01332E-22
    360.31570   9.82748E-23
    360.42691   9.32567E-23
    360.53799   8.71209E-23
    360.64920   8.24237E-23
    360.76031   7.85539E-23
    360.87140   7.69027E-23
    360.98251   7.50107E-23
    361.09369   7.21273E-23
    361.20471   6.97294E-23
    361.31589   6.63458E-23
    361.42691   6.32755E-23
    361.53799   5.97939E-23
    361.64911   5.63455E-23
    361.76019   5.37198E-23
    361.87119   5.14157E-23
    361.98230   5.08118E-23
    362.09329   5.03498E-23
    362.20432   5.15545E-23
    362.31540   5.18938E-23
    362.42639   5.07622E-23
    362.53741   4.90513E-23
    362.64841   4.69445E-23
    362.75940   4.60155E-23
    362.87039   4.62958E-23
    362.98141   4.53711E-23
    363.09241   4.58633E-23
    363.20340   4.46605E-23
    363.31430   4.41580E-23
    363.42529   4.26462E-23
    363.53629   4.21126E-23
    363.64719   4.14011E-23
    363.75809   4.08445E-23
    363.86899   4.07631E-23
    363.98001   3.99276E-23
    364.09091   3.96893E-23
    364.20181   4.02479E-23
    364.31271   4.20123E-23
    364.42361   4.64247E-23
    364.53448   5.39680E-23
    364.64539   6.14394E-23
    364.75629   6.41103E-23
    364.86710   6.29461E-23
    364.97800   6.14980E-23
    365.08881   5.96424E-23
    365.19971   5.72039E-23
    365.31049   5.79833E-23
    365.42139   6.05882E-23
    365.53220   6.26435E-23
    365.64301   6.16636E-23
    365.75381   6.04083E-23
    365.86469   5.72884E-23
    365.97540   5.48259E-23
    366.08621   5.18714E-23
    366.19699   5.03639E-23
    366.30780   4.87120E-23
    366.41861   4.73723E-23
    366.52939   4.58190E-23
    366.64011   4.37210E-23
    366.75089   4.19714E-23
    366.86160   3.98297E-23
    366.97241   3.97256E-23
    367.08310   3.80154E-23
    367.19379   3.67366E-23
    367.30460   3.54502E-23
    367.41531   3.39374E-23
    367.52600   3.38705E-23
    367.63669   3.32705E-23
    367.74741   3.31258E-23
    367.85809   3.34287E-23
    367.96881   3.31650E-23
    368.07941   3.32352E-23
    368.19009   3.37203E-23
    368.30081   3.54695E-23
    368.41141   3.65898E-23
    368.52209   3.74623E-23
    368.63269   3.78541E-23
    368.74329   3.75560E-23
    368.85400   3.67793E-23
    368.96460   3.59315E-23
    369.07520   3.48045E-23
    369.18591   3.50254E-23
    369.29639   3.46170E-23
    369.40701   3.43039E-23
    369.51761   3.37805E-23
    369.62820   3.34689E-23
    369.73880   3.29206E-23
    369.84940   3.33012E-23
    369.95999   3.43718E-23
    370.07050   3.51380E-23
    370.18109   3.43237E-23
    370.29160   3.47474E-23
    370.40219   3.40455E-23
    370.51270   3.40401E-23
    370.62320   3.25066E-23
    370.73380   3.40360E-23
    370.84430   3.30310E-23
    370.95480   3.29610E-23
    371.06531   3.29908E-23
    371.17581   3.25331E-23
    371.28629   3.20831E-23
    371.39679   3.02303E-23
    371.50729   3.01279E-23
    371.61771   2.99016E-23
    371.72821   2.92979E-23
    371.83871   2.84932E-23
    371.94910   2.81060E-23
    372.05960   2.79257E-23
    372.17001   2.77431E-23
    372.28049   2.81232E-23
    372.39090   2.70843E-23
    372.50131   2.68110E-23
    372.61179   2.69554E-23
    372.72220   2.60521E-23
    372.83261   2.72579E-23
    372.94299   2.71949E-23
    373.05341   2.79009E-23
    373.16379   2.90846E-23
    373.27420   3.00828E-23
    373.38461   3.19132E-23
    373.49490   3.20428E-23
    373.60529   3.24713E-23
    373.71570   3.25058E-23
    373.82599   3.20678E-23
    373.93640   3.23983E-23
    374.04669   3.25254E-23
    374.15701   3.34675E-23
    374.26740   3.34184E-23
    374.37769   3.31094E-23
    374.48801   3.31076E-23
    374.59839   3.29836E-23
    374.70859   3.21090E-23
    374.81900   3.15021E-23
    374.92929   3.07479E-23
    375.03961   3.03033E-23
    375.14981   2.96095E-23
    375.26010   2.95700E-23
    375.37039   2.90462E-23
    375.48071   2.92231E-23
    375.59091   2.83479E-23
    375.70120   2.82292E-23
    375.81140   2.80895E-23
    375.92169   2.74369E-23
    376.03189   2.70924E-23
    376.14221   2.68416E-23
    376.25241   2.62032E-23
    376.36261   2.66380E-23
    376.47281   2.65230E-23
    376.58301   2.61647E-23
    376.69330   2.61379E-23
    376.80350   2.54233E-23
    376.91370   2.56391E-23
    377.02380   2.59992E-23
    377.13400   2.58904E-23
    377.24420   2.61944E-23
    377.35440   2.63396E-23
    377.46451   2.55537E-23
    377.57471   2.63513E-23
    377.68491   2.58671E-23
    377.79501   2.64446E-23
    377.90521   2.67064E-23
    378.01529   2.60940E-23
    378.12540   2.61626E-23
    378.23560   2.68708E-23
    378.34570   2.63880E-23
    378.45581   2.73673E-23
    378.56589   2.79148E-23
    378.67599   2.85016E-23
    378.78610   2.89854E-23
    378.89621   2.81837E-23
    379.00629   2.87837E-23
    379.11639   2.86643E-23
    379.22650   2.86346E-23
    379.33649   2.92696E-23
    379.44659   2.98411E-23
    379.55670   2.95610E-23
    379.66669   2.97502E-23
    379.77679   2.95368E-23
    379.88681   2.88265E-23
    379.99689   2.92053E-23
    380.10690   2.95453E-23
    380.21689   2.97793E-23
    380.32690   2.83038E-23
    380.43701   2.95547E-23
    380.54700   2.90257E-23
    380.65701   2.83163E-23
    380.76700   2.90359E-23
    380.87701   2.99167E-23
    380.98700   2.88605E-23
    381.09698   2.94540E-23
    381.20691   2.89101E-23
    381.31689   2.89844E-23
    381.42691   2.92911E-23
    381.53680   2.92829E-23
    381.64679   2.81257E-23
    381.75671   2.85851E-23
    381.86670   2.90356E-23
    381.97659   2.94890E-23
    382.08661   2.89328E-23
    382.19650   2.90490E-23
    382.30640   2.90592E-23
    382.41641   2.95528E-23
    382.52631   2.92564E-23
    382.63620   2.88101E-23
    382.74609   3.01622E-23
    382.85599   3.01727E-23
    382.96591   3.01643E-23
    383.07571   3.02938E-23
    383.18561   3.06025E-23
    383.29550   3.03824E-23
    383.40540   3.00787E-23
    383.51529   2.99507E-23
    383.62509   3.05063E-23
    383.73499   3.03655E-23
    383.84479   3.05861E-23
    383.95471   2.97687E-23
    384.06451   3.07404E-23
    384.17429   3.03337E-23
    384.28421   3.03540E-23
    384.39401   2.99994E-23
    384.50381   3.04409E-23
    384.61359   2.97835E-23
    384.72339   2.96565E-23
    384.83319   2.96425E-23
    384.94299   3.01987E-23
    385.05280   2.92260E-23
    385.16260   3.00744E-23
    385.27240   2.94561E-23
    385.38220   2.94474E-23
    385.49191   2.93295E-23
    385.60172   2.98088E-23
    385.71149   2.96841E-23
    385.82120   2.93734E-23
    385.93100   2.98949E-23
    386.04071   2.84446E-23
    386.15051   2.94015E-23
    386.26019   2.92162E-23
    386.36990   2.93805E-23
    386.47961   2.88838E-23
    386.58939   3.00596E-23
    386.69910   2.91718E-23
    386.80881   2.99392E-23
    386.91849   2.99142E-23
    387.02820   2.93457E-23
    387.13779   2.92745E-23
    387.24759   2.94443E-23
    387.35721   2.93352E-23
    387.46689   3.07586E-23
    387.57660   2.99944E-23
    387.68619   2.99816E-23
    387.79590   3.05827E-23
    387.90549   3.00177E-23
    388.01520   3.00191E-23
    388.12479   3.14239E-23
    388.23450   3.07753E-23
    388.34409   3.14052E-23
    388.45380   3.02459E-23
    388.56339   3.10414E-23
    388.67300   3.12677E-23
    388.78259   3.14971E-23
    388.89221   3.07750E-23
    389.00180   3.03462E-23
    389.11139   3.03733E-23
    389.22101   3.00275E-23
    389.33060   3.06200E-23
    389.44019   3.02270E-23
    389.54971   3.03333E-23
    389.65930   3.07003E-23
    389.76889   3.00763E-23
    389.87839   3.02015E-23
    389.98801   3.00918E-23
    390.09750   3.10107E-23
    390.20709   3.03167E-23
    390.31659   3.01462E-23
    390.42609   3.12817E-23
    390.53571   3.07282E-23
    390.64520   3.12669E-23
    390.75470   3.10778E-23
    390.86420   3.04795E-23
    390.97379   3.11405E-23
    391.08331   3.05605E-23
    391.19269   3.13924E-23
    391.30219   3.07219E-23
    391.41171   3.07564E-23
    391.52121   3.08961E-23
    391.63071   3.09643E-23
    391.74011   3.05693E-23
    391.84961   3.13965E-23
    391.95911   3.07295E-23
    392.06851   3.13048E-23
    392.17801   3.15451E-23
    392.28741   3.14022E-23
    392.39691   3.15348E-23
    392.50629   3.16614E-23
    392.61569   3.12297E-23
    392.72510   3.16409E-23
    392.83459   3.14296E-23
    392.94400   3.20308E-23
    393.05341   3.23176E-23
    393.16281   3.28586E-23
    393.27219   3.28756E-23
    393.38159   3.37258E-23
    393.49091   3.34432E-23
    393.60031   3.32362E-23
    393.70969   3.36331E-23
    393.81909   3.37946E-23
    393.92841   3.44275E-23
    394.03781   3.50946E-23
    394.14719   3.41631E-23
    394.25650   3.49238E-23
    394.36581   3.52532E-23
    394.47519   3.52965E-23
    394.58450   3.51182E-23
    394.69379   3.58495E-23
    394.80319   3.61851E-23
    394.91251   3.63152E-23
    395.02179   3.58416E-23
    395.13110   3.64556E-23
    395.24039   3.68406E-23
    395.34970   3.69227E-23
    395.45901   3.66351E-23
    395.56821   3.62949E-23
    395.67749   3.62176E-23
    395.78680   3.64210E-23
    395.89609   3.68435E-23
    396.00531   3.71722E-23
    396.11459   3.74400E-23
    396.22379   3.80065E-23
    396.33310   3.72046E-23
    396.44229   3.78599E-23
    396.55161   3.67819E-23
    396.66080   3.71295E-23
    396.76999   3.74991E-23
    396.87921   3.77186E-23
    396.98840   3.77875E-23
    397.09769   3.71150E-23
    397.20679   3.69416E-23
    397.31601   3.75846E-23
    397.42520   3.70465E-23
    397.53439   3.74197E-23
    397.64359   3.66257E-23
    397.75281   3.73401E-23
    397.86200   3.76473E-23
    397.97110   3.70819E-23
    398.08029   3.71859E-23
    398.18939   3.77013E-23
    398.29861   3.72495E-23
    398.40771   3.80547E-23
    398.51682   3.73990E-23
    398.62601   3.79027E-23
    398.73511   3.83072E-23
    398.84421   3.83155E-23
    398.95331   3.83929E-23
    399.06250   3.86978E-23
    399.17160   3.86035E-23
    399.28070   3.95929E-23
    399.38971   3.89323E-23
    399.49881   3.91808E-23
    399.60791   3.90391E-23
    399.71701   3.91268E-23
    399.82599   3.91020E-23
    399.93509   4.00548E-23
    400.27930   4.00550E-23
    400.57932   4.15099E-23
    400.87930   4.18752E-23
    401.17929   4.16304E-23
    401.47931   4.16916E-23
    401.77930   4.24509E-23
    402.07932   4.28903E-23
    402.37930   4.33948E-23
    402.67929   4.33613E-23
    402.97931   4.33630E-23
    403.27930   4.31077E-23
    403.57932   4.26987E-23
    403.87930   4.25229E-23
    404.17929   4.28479E-23
    404.47931   4.28808E-23
    404.77930   4.26769E-23
    405.07932   4.26328E-23
    405.37930   4.26934E-23
    405.67929   4.30742E-23
    405.97931   4.36883E-23
    406.27930   4.42256E-23
    406.57932   4.47592E-23
    406.87930   4.57715E-23
    407.17929   4.71900E-23
    407.47931   4.84940E-23
    407.77930   4.95439E-23
    408.07932   5.06157E-23
    408.37930   5.14882E-23
    408.67929   5.21582E-23
    408.97931   5.25648E-23
    409.27930   5.34353E-23
    409.57932   5.39607E-23
    409.87930   5.43545E-23
    410.17929   5.42275E-23
    410.47931   5.42737E-23
    410.77930   5.43528E-23
    411.07932   5.44027E-23
    411.37930   5.43239E-23
    411.67929   5.42439E-23
    411.97931   5.40062E-23
    412.27930   5.36054E-23
    412.57932   5.27422E-23
    412.87930   5.20412E-23
    413.17929   5.12012E-23
    413.47931   5.10459E-23
    413.77930   5.09422E-23
    414.07932   5.18948E-23
    414.37930   5.27152E-23
    414.67929   5.36216E-23
    414.97931   5.45957E-23
    415.27930   5.59132E-23
    415.57932   5.72982E-23
    415.87930   5.85021E-23
    416.17929   5.96519E-23
    416.47931   6.04905E-23
    416.77930   6.12047E-23
    417.07932   6.22195E-23
    417.37930   6.30702E-23
    417.67929   6.36527E-23
    417.97931   6.39140E-23
    418.27930   6.40488E-23
    418.57932   6.34989E-23
    418.87930   6.27901E-23
    419.17929   6.25872E-23
    419.47931   6.24397E-23
    419.77930   6.25288E-23
    420.07932   6.30037E-23
    420.37930   6.35089E-23
    420.67929   6.38961E-23
    420.97931   6.47434E-23
    421.27930   6.65363E-23
    421.57932   6.85383E-23
    421.87930   7.05914E-23
    422.17929   7.23973E-23
    422.47931   7.44998E-23
    422.77930   7.72424E-23
    423.07932   8.01210E-23
    423.37930   8.24966E-23
    423.67929   8.45303E-23
    423.97931   8.69029E-23
    424.27930   8.94810E-23
    424.57932   9.18362E-23
    424.87930   9.36693E-23
    425.17929   9.54844E-23
    425.47931   9.70874E-23
    425.77930   9.77880E-23
    426.07932   9.74640E-23
    426.37930   9.65419E-23
    426.67929   9.63711E-23
    426.97931   9.59891E-23
    427.27930   9.49314E-23
    427.57932   9.30354E-23
    427.87930   9.17431E-23
    428.17929   9.04512E-23
    428.47931   8.91963E-23
    428.77930   8.84029E-23
    429.07932   8.79865E-23
    429.37930   8.75957E-23
    429.67929   8.75845E-23
    429.97931   8.82731E-23
    430.27930   8.91832E-23
    430.57932   9.06277E-23
    430.87930   9.26317E-23
    431.17929   9.52856E-23
    431.47931   9.82572E-23
    431.77930   1.01305E-22
    432.07932   1.04103E-22
    432.37930   1.06678E-22
    432.67929   1.09196E-22
    432.97931   1.10479E-22
    433.27930   1.11445E-22
    433.57932   1.12347E-22
    433.87930   1.13001E-22
    434.17929   1.12518E-22
    434.47931   1.11695E-22
    434.77930   1.10671E-22
    435.07932   1.10321E-22
    435.37930   1.10427E-22
    435.67929   1.10549E-22
    435.97931   1.10447E-22
    436.27930   1.11038E-22
    436.57932   1.12422E-22
    436.87930   1.14423E-22
    437.17929   1.16654E-22
    437.47931   1.19601E-22
    437.77930   1.23195E-22
    438.07932   1.27233E-22
    438.37930   1.31632E-22
    438.67929   1.36828E-22
    438.97931   1.42534E-22
    439.27930   1.47814E-22
    439.57932   1.52597E-22
    439.87930   1.57711E-22
    440.07919   1.64202E-22
    440.29010   1.69666E-22
    440.50101   1.73013E-22
    440.71191   1.76051E-22
    440.92279   1.80032E-22
    441.13361   1.84366E-22
    441.34451   1.88725E-22
    441.55530   1.90168E-22
    441.76611   1.93286E-22
    441.97681   1.97058E-22
    442.18750   1.97258E-22
    442.39819   2.00243E-22
    442.60889   2.00725E-22
    442.81949   2.02048E-22
    443.03021   2.03636E-22
    443.24081   2.02499E-22
    443.45139   2.01890E-22
    443.66190   2.00940E-22
    443.87241   1.99636E-22
    444.08289   1.98302E-22
    444.29340   1.95225E-22
    444.50391   1.92213E-22
    444.71429   1.90080E-22
    444.92471   1.88638E-22
    445.13510   1.85772E-22
    445.34549   1.82930E-22
    445.55579   1.79954E-22
    445.76611   1.78125E-22
    445.97641   1.76200E-22
    446.18671   1.75454E-22
    446.39691   1.74004E-22
    446.60709   1.72620E-22
    446.81741   1.71954E-22
    447.02750   1.72704E-22
    447.23770   1.72869E-22
    447.44781   1.74620E-22
    447.65790   1.75633E-22
    447.86801   1.77349E-22
    448.07809   1.80246E-22
    448.28809   1.82761E-22
    448.49811   1.86367E-22
    448.70810   1.91408E-22
    448.91809   1.94062E-22
    449.12811   1.99128E-22
    449.33801   2.02778E-22
    449.54791   2.05719E-22
    449.75781   2.09167E-22
    449.96759   2.11449E-22
    450.17749   2.15362E-22
    450.38730   2.18657E-22
    450.59711   2.19993E-22
    450.80688   2.20398E-22
    451.01660   2.21823E-22
    451.22629   2.21636E-22
    451.43600   2.21893E-22
    451.64569   2.21908E-22
    451.85541   2.21882E-22
    452.06500   2.21671E-22
    452.27469   2.21377E-22
    452.48431   2.19664E-22
    452.69379   2.19106E-22
    452.90341   2.18792E-22
    453.11292   2.18149E-22
    453.32239   2.18206E-22
    453.53201   2.18012E-22
    453.74139   2.16344E-22
    453.95090   2.18107E-22
    454.16031   2.20390E-22
    454.36981   2.21735E-22
    454.57910   2.23585E-22
    454.78851   2.26837E-22
    454.99789   2.31432E-22
    455.20721   2.34263E-22
    455.41650   2.38595E-22
    455.62579   2.42103E-22
    455.83511   2.46862E-22
    456.04431   2.51642E-22
    456.25360   2.58261E-22
    456.46280   2.64631E-22
    456.67200   2.71907E-22
    456.88110   2.79599E-22
    457.09030   2.86624E-22
    457.29941   2.94952E-22
    457.50851   3.02404E-22
    457.71771   3.10554E-22
    457.92670   3.18700E-22
    458.13580   3.25596E-22
    458.34479   3.34416E-22
    458.55389   3.43194E-22
    458.76279   3.51192E-22
    458.97180   3.60013E-22
    459.18079   3.68528E-22
    459.38971   3.75347E-22
    459.59869   3.84304E-22
    459.80759   3.93306E-22
    460.01651   3.99062E-22
    460.22531   4.06393E-22
    460.43420   4.12897E-22
    460.64301   4.17724E-22
    460.85190   4.22535E-22
    461.06070   4.28011E-22
    461.26941   4.30205E-22
    461.47821   4.33727E-22
    461.68701   4.35171E-22
    461.89569   4.35287E-22
    462.10440   4.34460E-22
    462.31311   4.33692E-22
    462.52179   4.33450E-22
    462.73041   4.28981E-22
    462.93909   4.25160E-22
    463.14771   4.22602E-22
    463.35629   4.18295E-22
    463.56491   4.12154E-22
    463.77350   4.06439E-22
    463.98199   4.01710E-22
    464.19061   3.96912E-22
    464.39911   3.93059E-22
    464.60760   3.88554E-22
    464.81610   3.82642E-22
    465.02460   3.78139E-22
    465.23300   3.73936E-22
    465.44150   3.71698E-22
    465.64990   3.68266E-22
    465.85831   3.67018E-22
    466.06671   3.66348E-22
    466.27509   3.67055E-22
    466.48340   3.67996E-22
    466.69180   3.68311E-22
    466.90009   3.71496E-22
    467.10840   3.74671E-22
    467.31671   3.79338E-22
    467.52499   3.84306E-22
    467.73318   3.89670E-22
    467.94150   3.95283E-22
    468.14969   4.00673E-22
    468.35800   4.06959E-22
    468.56619   4.12827E-22
    468.77441   4.17944E-22
    468.98251   4.23722E-22
    469.19070   4.28047E-22
    469.39890   4.32659E-22
    469.60699   4.37637E-22
    469.81509   4.40897E-22
    470.02319   4.42659E-22
    470.23129   4.44467E-22
    470.43939   4.45669E-22
    470.64740   4.47304E-22
    470.85550   4.49650E-22
    471.06351   4.48091E-22
    471.27151   4.47717E-22
    471.47949   4.48106E-22
    471.68750   4.48940E-22
    471.89551   4.48920E-22
    472.10349   4.48541E-22
    472.31140   4.47550E-22
    472.51929   4.48147E-22
    472.72729   4.48923E-22
    472.93521   4.49655E-22
    473.14310   4.49604E-22
    473.35101   4.50448E-22
    473.55881   4.52880E-22
    473.76669   4.55029E-22
    473.97449   4.59498E-22
    474.18240   4.63678E-22
    474.39020   4.67835E-22
    474.59799   4.73031E-22
    474.80579   4.79839E-22
    475.01361   4.87253E-22
    475.22131   4.94997E-22
    475.42911   5.04192E-22
    475.63681   5.12581E-22
    475.84460   5.23476E-22
    476.05231   5.33171E-22
    476.26001   5.44457E-22
    476.46771   5.57770E-22
    476.67542   5.69204E-22
    476.88309   5.81880E-22
    477.09070   5.92872E-22
    477.29840   6.07653E-22
    477.50601   6.20121E-22
    477.71371   6.34248E-22
    477.92130   6.47055E-22
    478.12891   6.61610E-22
    478.33649   6.75919E-22
    478.54410   6.90350E-22
    478.75159   7.05191E-22
    478.95920   7.19120E-22
    479.16681   7.32544E-22
    479.37430   7.47386E-22
    479.58179   7.62289E-22
    479.78940   7.75709E-22
    479.99689   7.90463E-22
    480.20441   8.03474E-22
    480.41190   8.16758E-22
    480.61938   8.28541E-22
    480.82681   8.39677E-22
    481.03430   8.50532E-22
    481.24170   8.60147E-22
    481.44919   8.67963E-22
    481.65659   8.75372E-22
    481.86401   8.80935E-22
    482.07141   8.85278E-22
    482.27890   8.89461E-22
    482.48630   8.91387E-22
    482.69360   8.91929E-22
    482.90100   8.91963E-22
    483.10840   8.89184E-22
    483.31580   8.86704E-22
    483.52310   8.82288E-22
    483.73041   8.78164E-22
    483.93781   8.73114E-22
    484.14511   8.66453E-22
    484.35239   8.60258E-22
    484.55981   8.53682E-22
    484.76700   8.45552E-22
    484.97430   8.38835E-22
    485.18161   8.31453E-22
    485.38889   8.23980E-22
    485.59619   8.17241E-22
    485.80341   8.11384E-22
    486.01071   8.04298E-22
    486.21799   7.98265E-22
    486.42520   7.94724E-22
    486.63239   7.90985E-22
    486.83960   7.87502E-22
    487.04691   7.86285E-22
    487.25409   7.84582E-22
    487.46130   7.84334E-22
    487.66849   7.84717E-22
    487.87570   7.87380E-22
    488.08289   7.90052E-22
    488.29001   7.93778E-22
    488.49719   7.97500E-22
    488.70441   8.02593E-22
    488.91150   8.08839E-22
    489.11871   8.15255E-22
    489.32581   8.22990E-22
    489.53299   8.28881E-22
    489.74011   8.35485E-22
    489.94720   8.44216E-22
    490.15439   8.49823E-22
    490.36151   8.56824E-22
    490.56860   8.63189E-22
    490.77570   8.68837E-22
    490.98279   8.73866E-22
    491.18991   8.78257E-22
    491.39700   8.83658E-22
    491.60410   8.87675E-22
    491.81119   8.90325E-22
    492.01819   8.92732E-22
    492.22531   8.95473E-22
    492.43240   8.96353E-22
    492.63950   8.98444E-22
    492.84650   8.99701E-22
    493.05359   9.01324E-22
    493.26059   9.02752E-22
    493.46771   9.04071E-22
    493.67471   9.05040E-22
    493.88181   9.06619E-22
    494.08881   9.09469E-22
    494.29581   9.10822E-22
    494.50290   9.13573E-22
    494.70990   9.15602E-22
    494.91690   9.20290E-22
    495.12390   9.23733E-22
    495.33090   9.28423E-22
    495.53799   9.34812E-22
    495.74500   9.40408E-22
    495.95200   9.46840E-22
    496.15900   9.54981E-22
    496.36600   9.63482E-22
    496.57300   9.73176E-22
    496.78000   9.83221E-22
    496.98700   9.94531E-22
    497.19400   1.00637E-21
    497.40091   1.02005E-21
    497.60791   1.03377E-21
    497.81491   1.04715E-21
    498.02191   1.06329E-21
    498.22891   1.07914E-21
    498.43591   1.09564E-21
    498.64291   1.11256E-21
    498.84979   1.12839E-21
    499.05679   1.14767E-21
    499.26379   1.16669E-21
    499.47079   1.18531E-21
    499.67770   1.20443E-21
    499.88470   1.22443E-21
    500.09171   1.24435E-21
    500.29861   1.26358E-21
    500.50562   1.28377E-21
    500.71259   1.30532E-21
    500.91959   1.32668E-21
    501.12650   1.34756E-21
    501.33350   1.36854E-21
    501.54050   1.38920E-21
    501.74741   1.41069E-21
    501.95441   1.43328E-21
    502.16129   1.45391E-21
    502.36829   1.47333E-21
    502.57529   1.49282E-21
    502.78229   1.51214E-21
    502.98920   1.53119E-21
    503.19620   1.54864E-21
    503.40320   1.56520E-21
    503.61011   1.58160E-21
    503.81711   1.59690E-21
    504.02411   1.61084E-21
    504.23111   1.62393E-21
    504.43799   1.63430E-21
    504.64499   1.64644E-21
    504.85199   1.65429E-21
    505.05899   1.66183E-21
    505.26599   1.66972E-21
    505.47299   1.67451E-21
    505.67999   1.67850E-21
    505.88690   1.68050E-21
    506.09390   1.68218E-21
    506.30090   1.68278E-21
    506.50790   1.68039E-21
    506.71490   1.67844E-21
    506.92191   1.67619E-21
    507.12891   1.67227E-21
    507.33591   1.66741E-21
    507.54300   1.66025E-21
    507.75000   1.65448E-21
    507.95700   1.64887E-21
    508.16400   1.64221E-21
    508.37100   1.63542E-21
    508.57809   1.62894E-21
    508.78510   1.62218E-21
    508.99210   1.61570E-21
    509.19919   1.60987E-21
    509.40619   1.60382E-21
    509.61331   1.59843E-21
    509.82031   1.59352E-21
    510.02740   1.58979E-21
    510.23441   1.58662E-21
    510.44150   1.58315E-21
    510.64859   1.58234E-21
    510.85559   1.58121E-21
    511.06271   1.58122E-21
    511.26981   1.58194E-21
    511.47690   1.58446E-21
    511.68399   1.58673E-21
    511.89111   1.58950E-21
    512.09821   1.59375E-21
    512.30530   1.59847E-21
    512.51239   1.60294E-21
    512.71948   1.60965E-21
    512.92657   1.61577E-21
    513.13379   1.62315E-21
    513.34088   1.63039E-21
    513.54797   1.63775E-21
    513.75519   1.64529E-21
    513.96228   1.65351E-21
    514.16962   1.66193E-21
    514.37671   1.66924E-21
    514.58392   1.67797E-21
    514.79108   1.68565E-21
    514.99823   1.69281E-21
    515.20538   1.70035E-21
    515.41272   1.70901E-21
    515.61987   1.71599E-21
    515.82709   1.72265E-21
    516.03430   1.73063E-21
    516.24152   1.73651E-21
    516.44879   1.74421E-21
    516.65601   1.75015E-21
    516.86328   1.75596E-21
    517.07062   1.76205E-21
    517.27777   1.76893E-21
    517.48511   1.77470E-21
    517.69238   1.78093E-21
    517.89972   1.78693E-21
    518.10699   1.79283E-21
    518.31427   1.79922E-21
    518.52173   1.80556E-21
    518.72900   1.81281E-21
    518.93628   1.81944E-21
    519.14368   1.82624E-21
    519.35101   1.83354E-21
    519.55841   1.84125E-21
    519.76581   1.84877E-21
    519.97321   1.85749E-21
    520.18060   1.86662E-21
    520.38800   1.87649E-21
    520.59540   1.88660E-21
    520.80292   1.89692E-21
    521.01031   1.90822E-21
    521.21771   1.91948E-21
    521.42517   1.93134E-21
    521.63269   1.94429E-21
    521.84009   1.95713E-21
    522.04761   1.97152E-21
    522.25513   1.98597E-21
    522.46259   2.00149E-21
    522.67023   2.01669E-21
    522.87769   2.03333E-21
    523.08533   2.04933E-21
    523.29279   2.06653E-21
    523.50043   2.08521E-21
    523.70801   2.10293E-21
    523.91559   2.12175E-21
    524.12323   2.13980E-21
    524.33081   2.15887E-21
    524.53851   2.17786E-21
    524.74609   2.19801E-21
    524.95367   2.21844E-21
    525.16138   2.23869E-21
    525.36908   2.25898E-21
    525.57678   2.27913E-21
    525.78448   2.30031E-21
    525.99219   2.32106E-21
    526.20001   2.34214E-21
    526.40771   2.36356E-21
    526.61548   2.38529E-21
    526.82318   2.40606E-21
    527.03101   2.42797E-21
    527.23877   2.44957E-21
    527.44659   2.46972E-21
    527.65448   2.49132E-21
    527.86230   2.51267E-21
    528.07013   2.53325E-21
    528.27802   2.55437E-21
    528.48590   2.57490E-21
    528.69379   2.59477E-21
    528.90167   2.61536E-21
    529.10968   2.63435E-21
    529.31763   2.65242E-21
    529.52557   2.67175E-21
    529.73352   2.68949E-21
    529.94153   2.70689E-21
    530.14948   2.72395E-21
    530.35748   2.74038E-21
    530.56561   2.75609E-21
    530.77362   2.77127E-21
    530.98169   2.78550E-21
    531.18982   2.79820E-21
    531.39789   2.81101E-21
    531.60602   2.82401E-21
    531.81409   2.83523E-21
    532.02228   2.84503E-21
    532.23053   2.85512E-21
    532.43872   2.86304E-21
    532.64691   2.87165E-21
    532.85498   2.87830E-21
    533.06329   2.88385E-21
    533.27148   2.88913E-21
    533.47980   2.89417E-21
    533.68811   2.89744E-21
    533.89642   2.90122E-21
    534.10468   2.90281E-21
    534.31299   2.90518E-21
    534.52142   2.90494E-21
    534.72980   2.90492E-21
    534.93817   2.90472E-21
    535.14661   2.90344E-21
    535.35498   2.90241E-21
    535.56348   2.90206E-21
    535.77197   2.90070E-21
    535.98041   2.89922E-21
    536.18903   2.89745E-21
    536.39752   2.89719E-21
    536.60602   2.89733E-21
    536.81458   2.89695E-21
    537.02307   2.89704E-21
    537.23181   2.89819E-21
    537.44043   2.89878E-21
    537.64899   2.90092E-21
    537.85773   2.90304E-21
    538.06628   2.90664E-21
    538.27509   2.90952E-21
    538.48383   2.91410E-21
    538.69250   2.91955E-21
    538.90131   2.92487E-21
    539.10999   2.93206E-21
    539.31879   2.94024E-21
    539.52771   2.94792E-21
    539.73657   2.95669E-21
    539.94537   2.96572E-21
    540.15430   2.97668E-21
    540.36322   2.98729E-21
    540.57208   2.99857E-21
    540.78113   3.01001E-21
    540.99011   3.02102E-21
    541.19910   3.03224E-21
    541.40808   3.04384E-21
    541.61713   3.05685E-21
    541.82617   3.06949E-21
    542.03528   3.08153E-21
    542.24438   3.09441E-21
    542.45361   3.10613E-21
    542.66272   3.11889E-21
    542.87189   3.13085E-21
    543.08112   3.14315E-21
    543.29028   3.15508E-21
    543.49957   3.16668E-21
    543.70880   3.17882E-21
    543.91809   3.18991E-21
    544.12738   3.20114E-21
    544.33679   3.21074E-21
    544.54608   3.22072E-21
    544.75562   3.23084E-21
    544.96503   3.24086E-21
    545.17438   3.24941E-21
    545.38391   3.25866E-21
    545.59332   3.26827E-21
    545.80292   3.27570E-21
    546.01239   3.28349E-21
    546.22198   3.29198E-21
    546.43158   3.30088E-21
    546.64117   3.30754E-21
    546.85083   3.31446E-21
    547.06049   3.32118E-21
    547.27008   3.32748E-21
    547.47992   3.33436E-21
    547.68958   3.34100E-21
    547.89941   3.34835E-21
    548.10919   3.35471E-21
    548.31897   3.36120E-21
    548.52887   3.36764E-21
    548.73877   3.37378E-21
    548.94873   3.37937E-21
    549.15863   3.38667E-21
    549.36853   3.39317E-21
    549.57861   3.39903E-21
    549.78851   3.40506E-21
    549.99860   3.41211E-21
    550.20862   3.41842E-21
    550.41882   3.42576E-21
    550.62878   3.43214E-21
    550.83899   3.43948E-21
    551.04919   3.44551E-21
    551.25940   3.45274E-21
    551.46960   3.46034E-21
    551.67987   3.46785E-21
    551.89020   3.47507E-21
    552.10052   3.48350E-21
    552.31091   3.49103E-21
    552.52118   3.49868E-21
    552.73163   3.50686E-21
    552.94208   3.51374E-21
    553.15253   3.52305E-21
    553.36298   3.53272E-21
    553.57349   3.54150E-21
    553.78412   3.55062E-21
    553.99469   3.56067E-21
    554.20532   3.56957E-21
    554.41602   3.58106E-21
    554.62659   3.59058E-21
    554.83728   3.60236E-21
    555.04810   3.61313E-21
    555.25891   3.62547E-21
    555.46973   3.63789E-21
    555.68048   3.65013E-21
    555.89142   3.66357E-21
    556.10217   3.67810E-21
    556.31317   3.69172E-21
    556.52411   3.70589E-21
    556.73511   3.72117E-21
    556.94623   3.73750E-21
    557.15723   3.75282E-21
    557.36829   3.77088E-21
    557.57941   3.78741E-21
    557.79053   3.80463E-21
    558.00171   3.82275E-21
    558.21301   3.84261E-21
    558.42419   3.86159E-21
    558.63538   3.88181E-21
    558.84680   3.90181E-21
    559.05811   3.92220E-21
    559.26947   3.94257E-21
    559.48090   3.96327E-21
    559.69238   3.98420E-21
    559.90387   4.00459E-21
    560.11542   4.02622E-21
    560.32690   4.04814E-21
    560.53851   4.06875E-21
    560.75012   4.08970E-21
    560.96179   4.11149E-21
    561.17352   4.13254E-21
    561.38519   4.15391E-21
    561.59692   4.17442E-21
    561.80872   4.19462E-21
    562.02063   4.21465E-21
    562.23242   4.23431E-21
    562.44427   4.25316E-21
    562.65631   4.27251E-21
    562.86823   4.28975E-21
    563.08032   4.30774E-21
    563.29230   4.32595E-21
    563.50427   4.34288E-21
    563.71649   4.35957E-21
    563.92859   4.37584E-21
    564.14081   4.39165E-21
    564.35303   4.40646E-21
    564.56531   4.42191E-21
    564.77759   4.43597E-21
    564.98993   4.44995E-21
    565.20227   4.46451E-21
    565.41467   4.47810E-21
    565.62708   4.49110E-21
    565.83972   4.50314E-21
    566.05219   4.51650E-21
    566.26471   4.52867E-21
    566.47729   4.53984E-21
    566.68988   4.55393E-21
    566.90259   4.56589E-21
    567.11542   4.57715E-21
    567.32813   4.58837E-21
    567.54089   4.60031E-21
    567.75372   4.61282E-21
    567.96661   4.62385E-21
    568.17950   4.63616E-21
    568.39252   4.64774E-21
    568.60553   4.65970E-21
    568.81848   4.67237E-21
    569.03162   4.68473E-21
    569.24463   4.69665E-21
    569.45782   4.70923E-21
    569.67102   4.72096E-21
    569.88422   4.73296E-21
    570.09747   4.74422E-21
    570.31079   4.75610E-21
    570.52417   4.76813E-21
    570.73749   4.77938E-21
    570.95099   4.79015E-21
    571.16449   4.80092E-21
    571.37799   4.81219E-21
    571.59161   4.82012E-21
    571.80511   4.83083E-21
    572.01880   4.83864E-21
    572.23248   4.84690E-21
    572.44623   4.85400E-21
    572.65997   4.86098E-21
    572.87378   4.86855E-21
    573.08759   4.87325E-21
    573.30151   4.87864E-21
    573.51538   4.88146E-21
    573.72937   4.88366E-21
    573.94348   4.88633E-21
    574.15747   4.88802E-21
    574.37158   4.88800E-21
    574.58582   4.88742E-21
    574.79999   4.88582E-21
    575.01428   4.88280E-21
    575.22858   4.88075E-21
    575.44287   4.87787E-21
    575.65729   4.87308E-21
    575.87170   4.86769E-21
    576.08618   4.86196E-21
    576.30072   4.85678E-21
    576.51532   4.85037E-21
    576.72992   4.84252E-21
    576.94452   4.83516E-21
    577.15918   4.82752E-21
    577.37390   4.81924E-21
    577.58868   4.81092E-21
    577.80353   4.80154E-21
    578.01837   4.79220E-21
    578.23328   4.78352E-21
    578.44830   4.77348E-21
    578.66333   4.76332E-21
    578.87842   4.75440E-21
    579.09351   4.74504E-21
    579.30872   4.73458E-21
    579.52393   4.72359E-21
    579.73907   4.71425E-21
    579.95441   4.70472E-21
    580.16968   4.69388E-21
    580.38507   4.68506E-21
    580.60059   4.67602E-21
    580.81598   4.66496E-21
    581.03162   4.65558E-21
    581.24719   4.64740E-21
    581.46283   4.63777E-21
    581.67853   4.62828E-21
    581.89423   4.61938E-21
    582.10999   4.61128E-21
    582.32593   4.60436E-21
    582.54169   4.59618E-21
    582.75763   4.58861E-21
    582.97357   4.58092E-21
    583.18958   4.57311E-21
    583.40582   4.56672E-21
    583.62189   4.56022E-21
    583.83801   4.55464E-21
    584.05432   4.54783E-21
    584.27063   4.54330E-21
    584.48688   4.53783E-21
    584.70319   4.53246E-21
    584.91968   4.52762E-21
    585.13623   4.52406E-21
    585.35272   4.51927E-21
    585.56927   4.51705E-21
    585.78589   4.51366E-21
    586.00262   4.50976E-21
    586.21942   4.50761E-21
    586.43610   4.50485E-21
    586.65302   4.50452E-21
    586.86987   4.50271E-21
    587.08679   4.50184E-21
    587.30377   4.50192E-21
    587.52087   4.50009E-21
    587.73798   4.50086E-21
    587.95508   4.50111E-21
    588.17242   4.50272E-21
    588.38959   4.50357E-21
    588.60687   4.50546E-21
    588.82428   4.50836E-21
    589.04169   4.51095E-21
    589.25922   4.51531E-21
    589.47668   4.51847E-21
    589.69427   4.52192E-21
    589.91199   4.52721E-21
    590.12970   4.53181E-21
    590.34741   4.53773E-21
    590.56519   4.54500E-21
    590.78308   4.55263E-21
    591.00098   4.56224E-21
    591.21899   4.57146E-21
    591.43701   4.58115E-21
    591.65509   4.59188E-21
    591.87323   4.60284E-21
    592.09137   4.61585E-21
    592.30969   4.62763E-21
    592.52802   4.64165E-21
    592.74628   4.65728E-21
    592.96478   4.67184E-21
    593.18329   4.68777E-21
    593.40179   4.70457E-21
    593.62042   4.72101E-21
    593.83911   4.73992E-21
    594.05768   4.75648E-21
    594.27649   4.77654E-21
    594.49542   4.79470E-21
    594.71417   4.81478E-21
    594.93323   4.83355E-21
    595.15222   4.85434E-21
    595.37122   4.87309E-21
    595.59027   4.89227E-21
    595.80951   4.91278E-21
    596.02869   4.93315E-21
    596.24799   4.95424E-21
    596.46729   4.97299E-21
    596.68683   4.99226E-21
    596.90631   5.01197E-21
    597.12579   5.03218E-21
    597.34528   5.05187E-21
    597.56500   5.07115E-21
    597.78473   5.08926E-21
    598.00452   5.10757E-21
    598.22430   5.12467E-21
    598.44421   5.13964E-21
    598.66412   5.15700E-21
    598.88422   5.17243E-21
    599.10419   5.18665E-21
    599.32428   5.20053E-21
    599.54462   5.21424E-21
    599.76477   5.22664E-21
    599.98511   5.23864E-21
    600.20551   5.24920E-21
    600.42603   5.25871E-21
    600.64648   5.26620E-21
    600.86700   5.27459E-21
    601.08759   5.28181E-21
    601.30829   5.28671E-21
    601.52911   5.29099E-21
    601.74988   5.29287E-21
    601.97083   5.29620E-21
    602.19177   5.29678E-21
    602.41278   5.29735E-21
    602.63391   5.29567E-21
    602.85498   5.29511E-21
    603.07617   5.29169E-21
    603.29742   5.28802E-21
    603.51868   5.28326E-21
    603.74017   5.27745E-21
    603.96161   5.26970E-21
    604.18323   5.26196E-21
    604.40472   5.25313E-21
    604.62640   5.24433E-21
    604.84808   5.23363E-21
    605.06989   5.22265E-21
    605.29169   5.21182E-21
    605.51361   5.19984E-21
    605.73560   5.18602E-21
    605.95758   5.17174E-21
    606.17981   5.15741E-21
    606.40198   5.14223E-21
    606.62421   5.12609E-21
    606.84650   5.11033E-21
    607.06891   5.09252E-21
    607.29132   5.07432E-21
    607.51392   5.05689E-21
    607.73651   5.04002E-21
    607.95911   5.02012E-21
    608.18182   5.00183E-21
    608.40460   4.98267E-21
    608.62738   4.96457E-21
    608.85028   4.94506E-21
    609.07343   4.92572E-21
    609.29639   4.90532E-21
    609.51947   4.88520E-21
    609.74268   4.86555E-21
    609.96600   4.84556E-21
    610.18927   4.82553E-21
    610.31097   4.82370E-21
    610.53027   4.80703E-21
    610.74969   4.78911E-21
    610.96887   4.77223E-21
    611.18811   4.75648E-21
    611.40723   4.73532E-21
    611.62628   4.72039E-21
    611.84528   4.70005E-21
    612.06427   4.68511E-21
    612.28308   4.66959E-21
    612.50201   4.65121E-21
    612.72083   4.63452E-21
    612.93951   4.61801E-21
    613.15808   4.59866E-21
    613.37659   4.58236E-21
    613.59521   4.56584E-21
    613.81372   4.54752E-21
    614.03198   4.53319E-21
    614.25043   4.51716E-21
    614.46869   4.49942E-21
    614.68701   4.48298E-21
    614.90509   4.46848E-21
    615.12323   4.45279E-21
    615.34119   4.43554E-21
    615.55933   4.42326E-21
    615.77722   4.40653E-21
    615.99512   4.39246E-21
    616.21289   4.37775E-21
    616.43073   4.36480E-21
    616.64838   4.34870E-21
    616.86603   4.33449E-21
    617.08362   4.32174E-21
    617.30109   4.30849E-21
    617.51862   4.29497E-21
    617.73602   4.28092E-21
    617.95343   4.26838E-21
    618.17072   4.25458E-21
    618.38788   4.24300E-21
    618.60522   4.23143E-21
    618.82233   4.21821E-21
    619.03943   4.20662E-21
    619.25641   4.19453E-21
    619.47339   4.18155E-21
    619.69031   4.17085E-21
    619.90723   4.16147E-21
    620.12402   4.15066E-21
    620.34082   4.13907E-21
    620.55737   4.12722E-21
    620.77411   4.11861E-21
    620.99072   4.10806E-21
    621.20721   4.09764E-21
    621.42371   4.08696E-21
    621.64008   4.07663E-21
    621.85651   4.06749E-21
    622.07281   4.05684E-21
    622.28912   4.04581E-21
    622.50531   4.03644E-21
    622.72150   4.02610E-21
    622.93762   4.01689E-21
    623.15363   4.00545E-21
    623.36963   3.99650E-21
    623.58557   3.98615E-21
    623.80151   3.97511E-21
    624.01727   3.96580E-21
    624.23322   3.95456E-21
    624.44891   3.94457E-21
    624.66461   3.93421E-21
    624.88019   3.92402E-21
    625.09583   3.91313E-21
    625.31128   3.90229E-21
    625.52692   3.88929E-21
    625.74231   3.87918E-21
    625.95770   3.86969E-21
    626.17297   3.85863E-21
    626.38831   3.84676E-21
    626.60352   3.83566E-21
    626.81873   3.82471E-21
    627.03387   3.81377E-21
    627.24902   3.80073E-21
    627.46399   3.78911E-21
    627.67902   3.77823E-21
    627.89392   3.76724E-21
    628.10883   3.75694E-21
    628.32373   3.74526E-21
    628.53851   3.73194E-21
    628.75317   3.72067E-21
    628.96790   3.70961E-21
    629.18262   3.69783E-21
    629.39722   3.68621E-21
    629.61169   3.67501E-21
    629.82617   3.66225E-21
    630.04059   3.65167E-21
    630.25513   3.64060E-21
    630.46942   3.63044E-21
    630.68372   3.61689E-21
    630.89801   3.60651E-21
    631.11218   3.59553E-21
    631.32642   3.58410E-21
    631.54053   3.57403E-21
    631.75458   3.56134E-21
    631.96863   3.55277E-21
    632.18262   3.53969E-21
    632.39648   3.52860E-21
    632.61047   3.51767E-21
    632.82428   3.50484E-21
    633.03809   3.49453E-21
    633.25189   3.48356E-21
    633.46558   3.47191E-21
    633.67932   3.45939E-21
    633.89288   3.44611E-21
    634.10638   3.43522E-21
    634.32001   3.42461E-21
    634.53351   3.41267E-21
    634.74689   3.40086E-21
    634.96033   3.38878E-21
    635.17371   3.37518E-21
    635.38702   3.36278E-21
    635.60028   3.35082E-21
    635.81348   3.33850E-21
    636.02667   3.32584E-21
    636.23993   3.31345E-21
    636.45288   3.29918E-21
    636.66602   3.28677E-21
    636.87903   3.27445E-21
    637.09198   3.26258E-21
    637.30487   3.24930E-21
    637.51782   3.23737E-21
    637.73059   3.22300E-21
    637.94342   3.21149E-21
    638.15619   3.19827E-21
    638.36890   3.18625E-21
    638.58148   3.17244E-21
    638.79419   3.16032E-21
    639.00677   3.14659E-21
    639.21942   3.13328E-21
    639.43182   3.12008E-21
    639.64429   3.10659E-21
    639.85681   3.09510E-21
    640.06921   3.08247E-21
    640.28149   3.06912E-21
    640.49377   3.05631E-21
    640.70612   3.04405E-21
    640.91827   3.03249E-21
    641.13037   3.02054E-21
    641.34259   3.00752E-21
    641.55469   2.99447E-21
    641.76678   2.98388E-21
    641.97882   2.97233E-21
    642.19080   2.96081E-21
    642.40271   2.95004E-21
    642.61462   2.93900E-21
    642.82648   2.92709E-21
    643.03833   2.91693E-21
    643.25012   2.90532E-21
    643.46191   2.89449E-21
    643.67358   2.88470E-21
    643.88531   2.87636E-21
    644.09692   2.86462E-21
    644.30847   2.85559E-21
    644.52008   2.84541E-21
    644.73163   2.83615E-21
    644.94312   2.82638E-21
    645.15448   2.81684E-21
    645.36603   2.80689E-21
    645.57727   2.79696E-21
    645.78857   2.78699E-21
    645.99988   2.77626E-21
    646.21118   2.76596E-21
    646.42249   2.75575E-21
    646.63373   2.74564E-21
    646.84479   2.73576E-21
    647.05591   2.72596E-21
    647.26703   2.71572E-21
    647.47809   2.70840E-21
    647.68909   2.69712E-21
    647.90009   2.68821E-21
    648.11102   2.68022E-21
    648.32190   2.67127E-21
    648.53278   2.66107E-21
    648.74359   2.65303E-21
    648.95441   2.64369E-21
    649.16522   2.63396E-21
    649.37592   2.62597E-21
    649.58661   2.61778E-21
    649.79730   2.61120E-21
    650.00787   2.60284E-21
    650.21851   2.59499E-21
    650.42908   2.58574E-21
    650.63959   2.57758E-21
    650.85010   2.56692E-21
    651.06049   2.56122E-21
    651.27100   2.55222E-21
    651.48138   2.54282E-21
    651.69171   2.53439E-21
    651.90210   2.52760E-21
    652.11243   2.51845E-21
    652.32257   2.50861E-21
    652.53278   2.49929E-21
    652.74298   2.49289E-21
    652.95319   2.48400E-21
    653.16333   2.47361E-21
    653.37347   2.46561E-21
    653.58362   2.45715E-21
    653.79358   2.44859E-21
    654.00360   2.43943E-21
    654.21362   2.43161E-21
    654.42352   2.42298E-21
    654.63342   2.41322E-21
    654.84332   2.40532E-21
    655.05310   2.39594E-21
    655.26288   2.38660E-21
    655.47272   2.37859E-21
    655.68250   2.37042E-21
    655.89221   2.36243E-21
    656.10193   2.35371E-21
    656.31158   2.34440E-21
    656.52118   2.33585E-21
    656.73077   2.32731E-21
    656.94043   2.31834E-21
    657.15002   2.31041E-21
    657.35938   2.30213E-21
    657.56897   2.29370E-21
    657.77838   2.28547E-21
    657.98792   2.27845E-21
    658.19733   2.27001E-21
    658.40662   2.26140E-21
    658.61603   2.25342E-21
    658.82532   2.24461E-21
    659.03448   2.23620E-21
    659.24377   2.22902E-21
    659.45313   2.22108E-21
    659.66217   2.21517E-21
    659.87140   2.20631E-21
    660.08063   2.19833E-21
    660.28967   2.19082E-21
    660.49878   2.18318E-21
    660.70782   2.17510E-21
    660.91687   2.16942E-21
    661.12592   2.16092E-21
    661.33478   2.15451E-21
    661.54382   2.14590E-21
    661.75269   2.13921E-21
    661.96161   2.13154E-21
    662.17047   2.12486E-21
    662.37927   2.11566E-21
    662.58807   2.10596E-21
    662.79688   2.09962E-21
    663.00568   2.09093E-21
    663.21442   2.08430E-21
    663.42322   2.07538E-21
    663.63177   2.06593E-21
    663.84052   2.05743E-21
    664.04907   2.04912E-21
    664.25781   2.04028E-21
    664.46631   2.03104E-21
    664.67493   2.02297E-21
    664.88342   2.01480E-21
    665.09192   2.00475E-21
    665.30042   1.99518E-21
    665.50891   1.98710E-21
    665.71729   1.97816E-21
    665.92572   1.97098E-21
    666.13409   1.96230E-21
    666.34253   1.95332E-21
    666.55078   1.94412E-21
    666.75909   1.93483E-21
    666.96741   1.92657E-21
    667.17572   1.91750E-21
    667.38391   1.90875E-21
    667.59210   1.89980E-21
    667.80042   1.89277E-21
    668.00848   1.88242E-21
    668.21667   1.87382E-21
    668.42468   1.86417E-21
    668.63287   1.85653E-21
    668.84088   1.84805E-21
    669.04901   1.84019E-21
    669.25702   1.83193E-21
    669.46503   1.82435E-21
    669.67297   1.81462E-21
    669.88098   1.80555E-21
    670.08893   1.79702E-21
    670.29688   1.78763E-21
    670.50482   1.77915E-21
    670.71259   1.77207E-21
    670.92047   1.76348E-21
    671.12842   1.75624E-21
    671.33618   1.74622E-21
    671.54388   1.73997E-21
    671.75171   1.73206E-21
    671.95947   1.72423E-21
    672.16718   1.71639E-21
    672.37488   1.70935E-21
    672.58258   1.70038E-21
    672.79028   1.69248E-21
    672.99792   1.68544E-21
    673.20563   1.67849E-21
    673.41309   1.67179E-21
    673.62073   1.66328E-21
    673.82831   1.65548E-21
    674.03583   1.65038E-21
    674.24329   1.64233E-21
    674.45093   1.63478E-21
    674.65839   1.62758E-21
    674.86578   1.62015E-21
    675.07330   1.61522E-21
    675.28070   1.60839E-21
    675.48810   1.60091E-21
    675.69550   1.59369E-21
    675.90289   1.58543E-21
    676.11023   1.57948E-21
    676.31763   1.57308E-21
    676.52490   1.56700E-21
    676.73218   1.55844E-21
    676.93951   1.55233E-21
    677.14673   1.54611E-21
    677.35388   1.54025E-21
    677.56122   1.53398E-21
    677.76837   1.52726E-21
    677.97559   1.52107E-21
    678.18268   1.51440E-21
    678.38989   1.50889E-21
    678.59698   1.50363E-21
    678.80408   1.49864E-21
    679.01123   1.49172E-21
    679.21832   1.48513E-21
    679.42542   1.48080E-21
    679.63239   1.47390E-21
    679.83948   1.47037E-21
    680.04639   1.46412E-21
    680.25348   1.46028E-21
    680.46039   1.45614E-21
    680.66742   1.45109E-21
    680.87433   1.44499E-21
    681.08130   1.43866E-21
    681.28821   1.43597E-21
    681.49512   1.43302E-21
    681.70203   1.42791E-21
    681.90887   1.42303E-21
    682.11572   1.41891E-21
    682.32251   1.41374E-21
    682.52942   1.41147E-21
    682.73608   1.40730E-21
    682.94287   1.40301E-21
    683.14972   1.39920E-21
    683.35651   1.39510E-21
    683.56317   1.39067E-21
    683.77002   1.38525E-21
    683.97668   1.38244E-21
    684.18329   1.37929E-21
    684.39008   1.37446E-21
    684.59668   1.37061E-21
    684.80328   1.36657E-21
    685.01001   1.36039E-21
    685.21667   1.35622E-21
    685.42328   1.35045E-21
    685.62988   1.34566E-21
    685.83643   1.33838E-21
    686.04303   1.33365E-21
    686.24957   1.32897E-21
    686.45612   1.32425E-21
    686.66272   1.31784E-21
    686.86908   1.30886E-21
    687.07568   1.30555E-21
    687.28223   1.30021E-21
    687.48859   1.29296E-21
    687.69513   1.28488E-21
    687.90161   1.27951E-21
    688.10797   1.27399E-21
    688.31439   1.26802E-21
    688.52081   1.26102E-21
    688.72717   1.25472E-21
    688.93359   1.24975E-21
    689.14001   1.24203E-21
    689.34637   1.23576E-21
    689.55267   1.22935E-21
    689.75897   1.22376E-21
    689.96539   1.21711E-21
    690.17169   1.21040E-21
    690.37799   1.20388E-21
    690.58429   1.19761E-21
    690.79059   1.19072E-21
    690.99683   1.18566E-21
    691.20313   1.17891E-21
    691.40942   1.17279E-21
    691.61560   1.16688E-21
    691.82178   1.16313E-21
    692.02802   1.15673E-21
    692.23431   1.15072E-21
    692.44043   1.14651E-21
    692.64661   1.13947E-21
    692.85278   1.13242E-21
    693.05902   1.12696E-21
    693.26508   1.11972E-21
    693.47131   1.11433E-21
    693.67743   1.10908E-21
    693.88348   1.10320E-21
    694.08960   1.09921E-21
    694.29572   1.09403E-21
    694.50177   1.08664E-21
    694.70789   1.08126E-21
    694.91388   1.07470E-21
    695.12000   1.06902E-21
    695.32599   1.06446E-21
    695.53210   1.05799E-21
    695.73822   1.05320E-21
    695.94421   1.04847E-21
    696.15009   1.04209E-21
    696.35620   1.03610E-21
    696.56219   1.03048E-21
    696.76819   1.02639E-21
    696.97412   1.02016E-21
    697.18011   1.01376E-21
    697.38611   1.00952E-21
    697.59198   1.00458E-21
    697.79797   9.98169E-22
    698.00391   9.93707E-22
    698.20978   9.89042E-22
    698.41577   9.85122E-22
    698.62170   9.81531E-22
    698.82758   9.75397E-22
    699.03351   9.70498E-22
    699.23938   9.65497E-22
    699.44531   9.60529E-22
    699.65112   9.56549E-22
    699.85699   9.52452E-22
    700.06293   9.48034E-22
    700.26868   9.46655E-22
    700.47449   9.41995E-22
    700.68042   9.36004E-22
    700.88623   9.30405E-22
    701.09198   9.27483E-22
    701.29791   9.24330E-22
    701.50372   9.20112E-22
    701.70947   9.17507E-22
    701.91528   9.14596E-22
    702.12109   9.11817E-22
    702.32690   9.06768E-22
    702.53271   9.03438E-22
    702.73840   8.99964E-22
    702.94421   8.96886E-22
    703.15002   8.94575E-22
    703.35571   8.92038E-22
    703.56152   8.88919E-22
    703.76721   8.85629E-22
    703.97302   8.82005E-22
    704.17859   8.78743E-22
    704.38440   8.75698E-22
    704.59009   8.72471E-22
    704.79578   8.70638E-22
    705.00153   8.68896E-22
    705.20728   8.64714E-22
    705.41302   8.65272E-22
    705.61871   8.59199E-22
    705.82428   8.56469E-22
    706.03003   8.54752E-22
    706.23572   8.50580E-22
    706.44141   8.48511E-22
    706.64697   8.45759E-22
    706.85272   8.45872E-22
    707.05841   8.44010E-22
    707.26398   8.39603E-22
    707.46973   8.37193E-22
    707.67542   8.33255E-22
    707.88098   8.32090E-22
    708.08661   8.30960E-22
    708.29230   8.28085E-22
    708.49792   8.25322E-22
    708.70361   8.21883E-22
    708.90918   8.22848E-22
    709.11481   8.20548E-22
    709.32037   8.17352E-22
    709.52612   8.15614E-22
    709.73163   8.13219E-22
    709.93732   8.12351E-22
    710.14288   8.09080E-22
    710.34839   8.06704E-22
    710.55408   8.04741E-22
    710.75958   8.02510E-22
    710.96527   7.99473E-22
    711.17078   7.98269E-22
    711.37640   7.96905E-22
    711.58197   7.95382E-22
    711.78760   7.93476E-22
    711.99323   7.91649E-22
    712.19873   7.91556E-22
    712.40442   7.90291E-22
    712.60992   7.90428E-22
    712.81549   7.86967E-22
    713.02112   7.87527E-22
    713.22662   7.88329E-22
    713.43219   7.84757E-22
    713.63782   7.84051E-22
    713.84332   7.83607E-22
    714.04889   7.81823E-22
    714.25439   7.82448E-22
    714.46002   7.82415E-22
    714.66553   7.81724E-22
    714.87109   7.79454E-22
    715.07672   7.79570E-22
    715.28223   7.76196E-22
    715.48767   7.76239E-22
    715.69330   7.72652E-22
    715.89880   7.71987E-22
    716.10437   7.69347E-22
    716.30988   7.67318E-22
    716.51538   7.65360E-22
    716.72101   7.63170E-22
    716.92657   7.60210E-22
    717.13208   7.58019E-22
    717.33759   7.53888E-22
    717.54321   7.49813E-22
    717.74872   7.47473E-22
    717.95422   7.43425E-22
    718.15979   7.38069E-22
    718.36542   7.33908E-22
    718.57092   7.30176E-22
    718.77643   7.26333E-22
    718.98187   7.20774E-22
    719.18750   7.14287E-22
    719.39301   7.13491E-22
    719.59857   7.09831E-22
    719.80408   7.04278E-22
    720.00958   6.97932E-22
    720.21521   6.91627E-22
    720.42072   6.87710E-22
    720.62628   6.86003E-22
    720.83179   6.82760E-22
    721.03741   6.77522E-22
    721.24292   6.72067E-22
    721.44849   6.69125E-22
    721.65399   6.64336E-22
    721.85962   6.59987E-22
    722.06512   6.58823E-22
    722.27063   6.54050E-22
    722.47620   6.51160E-22
    722.68182   6.47775E-22
    722.88733   6.44297E-22
    723.09277   6.40003E-22
    723.29840   6.38051E-22
    723.50403   6.35851E-22
    723.70947   6.31602E-22
    723.91510   6.28823E-22
    724.12073   6.27369E-22
    724.32617   6.26247E-22
    724.53180   6.21394E-22
    724.73743   6.18658E-22
    724.94287   6.17063E-22
    725.14850   6.14229E-22
    725.35413   6.12383E-22
    725.55957   6.09780E-22
    725.76520   6.07212E-22
    725.97083   6.03860E-22
    726.17639   6.01866E-22
    726.38202   6.00200E-22
    726.58752   5.96355E-22
    726.79321   5.93052E-22
    726.99872   5.90925E-22
    727.20428   5.87188E-22
    727.40991   5.82461E-22
    727.61548   5.82129E-22
    727.82123   5.78255E-22
    728.02667   5.75693E-22
    728.23242   5.72058E-22
    728.43799   5.69465E-22
    728.64362   5.67916E-22
    728.84918   5.64243E-22
    729.05481   5.61516E-22
    729.26038   5.57730E-22
    729.46613   5.55806E-22
    729.67169   5.52302E-22
    729.87738   5.50250E-22
    730.08301   5.47522E-22
    730.28857   5.46535E-22
    730.49432   5.45487E-22
    730.70001   5.41325E-22
    730.90558   5.39448E-22
    731.11133   5.36556E-22
    731.31689   5.35634E-22
    731.52258   5.32608E-22
    731.72827   5.31709E-22
    731.93390   5.28983E-22
    732.13959   5.28706E-22
    732.34528   5.26569E-22
    732.55103   5.26268E-22
    732.75671   5.24129E-22
    732.96228   5.21773E-22
    733.16809   5.22365E-22
    733.37378   5.21247E-22
    733.57953   5.18425E-22
    733.78522   5.19103E-22
    733.99091   5.17582E-22
    734.19672   5.17984E-22
    734.40228   5.14840E-22
    734.60809   5.13971E-22
    734.81378   5.14271E-22
    735.01959   5.13255E-22
    735.22528   5.13505E-22
    735.43109   5.11861E-22
    735.63678   5.13223E-22
    735.84271   5.13037E-22
    736.04840   5.11647E-22
    736.25421   5.10459E-22
    736.46002   5.08186E-22
    736.66571   5.10513E-22
    736.87152   5.06913E-22
    737.07727   5.06576E-22
    737.28308   5.07447E-22
    737.48901   5.06676E-22
    737.69482   5.07242E-22
    737.90057   5.06384E-22
    738.10638   5.05761E-22
    738.31219   5.06318E-22
    738.51813   5.02532E-22
    738.72388   5.03561E-22
    738.92969   5.04390E-22
    739.13562   5.04303E-22
    739.34137   5.03190E-22
    739.54730   5.02645E-22
    739.75317   5.03162E-22
    739.95911   5.01857E-22
    740.16498   5.04274E-22
    740.37079   5.03481E-22
    740.57678   4.99778E-22
    740.78271   5.01381E-22
    740.98859   5.03602E-22
    741.19452   5.05015E-22
    741.40039   5.05682E-22
    741.60632   5.04957E-22
    741.81232   5.05236E-22
    742.01819   5.06502E-22
    742.22418   5.07645E-22
    742.43011   5.06008E-22
    742.63611   5.09222E-22
    742.84210   5.09639E-22
    743.04797   5.11553E-22
    743.25403   5.10967E-22
    743.46002   5.12795E-22
    743.66602   5.13847E-22
    743.87207   5.14834E-22
    744.07813   5.16306E-22
    744.28412   5.18103E-22
    744.49011   5.17990E-22
    744.69623   5.17825E-22
    744.90222   5.19255E-22
    745.10828   5.21955E-22
    745.31427   5.22001E-22
    745.52039   5.20825E-22
    745.72638   5.22948E-22
    745.93262   5.25209E-22
    746.13861   5.24747E-22
    746.34473   5.24634E-22
    746.55078   5.25219E-22
    746.75702   5.24354E-22
    746.96307   5.27057E-22
    747.16919   5.26484E-22
    747.37543   5.25632E-22
    747.58148   5.25071E-22
    747.78772   5.24440E-22
    747.99377   5.21923E-22
    748.20001   5.20522E-22
    748.40619   5.19364E-22
    748.61243   5.18016E-22
    748.81848   5.16018E-22
    749.02478   5.12576E-22
    749.23102   5.09886E-22
    749.43719   5.07974E-22
    749.64337   5.05118E-22
    749.84967   5.02244E-22
    750.05591   4.97487E-22
    750.26208   4.94380E-22
    750.46838   4.89705E-22
    750.67468   4.87533E-22
    750.88098   4.83416E-22
    751.08728   4.79296E-22
    751.29358   4.73558E-22
    751.49988   4.69172E-22
    751.70618   4.65965E-22
    751.91248   4.60912E-22
    752.11877   4.55805E-22
    752.32520   4.53590E-22
    752.53162   4.47366E-22
    752.73792   4.43919E-22
    752.94427   4.40048E-22
    753.15057   4.36631E-22
    753.35712   4.33754E-22
    753.56342   4.29740E-22
    753.76978   4.25180E-22
    753.97632   4.20310E-22
    754.18268   4.17353E-22
    754.38910   4.13549E-22
    754.59558   4.11431E-22
    754.80200   4.06921E-22
    755.00848   4.04392E-22
    755.21503   4.01488E-22
    755.42139   3.97003E-22
    755.62793   3.94163E-22
    755.83447   3.92929E-22
    756.04102   3.90003E-22
    756.24750   3.85594E-22
    756.45398   3.85007E-22
    756.66058   3.82758E-22
    756.86713   3.79289E-22
    757.07373   3.76866E-22
    757.28027   3.74504E-22
    757.48682   3.73282E-22
    757.69342   3.73302E-22
    757.90002   3.71153E-22
    758.10663   3.70741E-22
    758.31317   3.66884E-22
    758.51990   3.64420E-22
    758.72650   3.63045E-22
    758.93323   3.60644E-22
    759.13977   3.59336E-22
    759.34650   3.59696E-22
    759.55322   3.56369E-22
    759.75989   3.54322E-22
    759.96661   3.52529E-22
    760.17328   3.50167E-22
    760.38013   3.48861E-22
    760.58679   3.48403E-22
    760.79352   3.47833E-22
    761.00031   3.48264E-22
    761.20709   3.48082E-22
    761.41382   3.44168E-22
    761.62061   3.44716E-22
    761.82751   3.45190E-22
    762.03418   3.43002E-22
    762.24109   3.42835E-22
    762.44788   3.40959E-22
    762.65472   3.41736E-22
    762.86157   3.41051E-22
    763.06848   3.38919E-22
    763.27533   3.40475E-22
    763.48218   3.39558E-22
    763.68909   3.38116E-22
    763.89600   3.38270E-22
    764.10303   3.38875E-22
    764.30988   3.37272E-22
    764.51678   3.36977E-22
    764.72382   3.34992E-22
    764.93073   3.33261E-22
    765.13770   3.33641E-22
    765.34473   3.32179E-22
    765.55170   3.31886E-22
    765.75873   3.28925E-22
    765.96570   3.29651E-22
    766.17273   3.28701E-22
    766.37982   3.30070E-22
    766.58691   3.29561E-22
    766.79388   3.30762E-22
    767.00098   3.29403E-22
    767.20813   3.28246E-22
    767.41522   3.30144E-22
    767.62231   3.30034E-22
    767.82941   3.27660E-22
    768.03662   3.29564E-22
    768.24371   3.32370E-22
    768.45093   3.30464E-22
    768.65802   3.29734E-22
    768.86517   3.30685E-22
    769.07239   3.28837E-22
    769.27960   3.27890E-22
    769.48682   3.29745E-22
    769.69397   3.29602E-22
    769.90131   3.29811E-22
    770.10852   3.32129E-22
    770.31580   3.33255E-22
    770.52307   3.33291E-22
    770.73029   3.34563E-22
    770.93768   3.34686E-22
    771.14502   3.35772E-22
    771.35229   3.34341E-22
    771.55957   3.38313E-22
    771.76703   3.41134E-22
    771.97430   3.39449E-22
    772.18170   3.41968E-22
    772.38910   3.44453E-22
    772.59650   3.46953E-22
    772.80389   3.49967E-22
    773.01129   3.50163E-22
    773.21881   3.52640E-22
    773.42609   3.53737E-22
    773.63361   3.55020E-22
    773.84113   3.58904E-22
    774.04858   3.59962E-22
    774.25610   3.60454E-22
    774.46362   3.61210E-22
    774.67108   3.66554E-22
    774.87872   3.70454E-22
    775.08618   3.69887E-22
    775.29370   3.72855E-22
    775.50128   3.75619E-22
    775.70892   3.78307E-22
    775.91638   3.81259E-22
    776.12408   3.81674E-22
    776.33173   3.82102E-22
    776.53931   3.87949E-22
    776.74689   3.91091E-22
    776.95459   3.91326E-22
    777.16229   3.90976E-22
    777.36987   3.94659E-22
    777.57758   3.94669E-22
    777.78528   3.96427E-22
    777.99298   3.97361E-22
    778.20081   3.99387E-22
    778.40851   3.99584E-22
    778.61627   3.98828E-22
    778.82397   3.98250E-22
    779.03192   3.99304E-22
    779.23962   3.98788E-22
    779.44739   3.97533E-22
    779.65527   3.96648E-22
    779.86310   3.95945E-22
    780.07092   3.94385E-22
    780.27869   3.91861E-22
    780.48657   3.89951E-22
    780.69452   3.87481E-22
    780.90240   3.88407E-22
    781.11041   3.86026E-22
    781.31818   3.84390E-22
    781.52618   3.79713E-22
    781.73407   3.76052E-22
    781.94208   3.73196E-22
    782.15002   3.69204E-22
    782.35797   3.70389E-22
    782.56598   3.65782E-22
    782.77399   3.62231E-22
    782.98212   3.61458E-22
    783.19012   3.58032E-22
    783.39807   3.55316E-22
    783.60620   3.49339E-22
    783.81427   3.45418E-22
    784.02240   3.40865E-22
    784.23053   3.41662E-22
    784.43860   3.39855E-22
    784.64673   3.35147E-22
    784.85492   3.28250E-22
    785.06299   3.25224E-22
    785.27118   3.23388E-22
    785.47937   3.21257E-22
    785.68762   3.17040E-22
    785.89581   3.17014E-22
    786.10388   3.14353E-22
    786.31219   3.10610E-22
    786.52039   3.09865E-22
    786.72870   3.06901E-22
    786.93701   3.04056E-22
    787.14532   3.01526E-22
    787.35358   2.99730E-22
    787.56189   2.97404E-22
    787.77020   2.94918E-22
    787.97852   2.91464E-22
    788.18689   2.90291E-22
    788.39532   2.89773E-22
    788.60358   2.90450E-22
    788.81201   2.85244E-22
    789.02039   2.81787E-22
    789.22882   2.81179E-22
    789.43732   2.80608E-22
    789.64569   2.77497E-22
    789.85413   2.75248E-22
    790.06262   2.73142E-22
    790.27112   2.72267E-22
    790.47961   2.71729E-22
    790.68811   2.68654E-22
    790.89661   2.64427E-22
    791.10522   2.61377E-22
    791.31372   2.65105E-22
    791.52228   2.65963E-22
    791.73077   2.60486E-22
    791.93951   2.57517E-22
    792.14801   2.56975E-22
    792.35663   2.58556E-22
    792.56531   2.56455E-22
    792.77393   2.51612E-22
    792.98260   2.52088E-22
    793.19122   2.51653E-22
    793.39990   2.47957E-22
    793.60858   2.49067E-22
    793.81732   2.48222E-22
